<?xml version="1.0" encoding="utf-8"?>
<!-- Generator: Adobe Illustrator 18.0.0, SVG Export Plug-In . SVG Version: 6.00 Build 0)  -->
<!DOCTYPE svg PUBLIC "-//W3C//DTD SVG 1.1//EN" "http://www.w3.org/Graphics/SVG/1.1/DTD/svg11.dtd" [
	<!ENTITY ns_extend "http://ns.adobe.com/Extensibility/1.0/">
	<!ENTITY ns_ai "http://ns.adobe.com/AdobeIllustrator/10.0/">
	<!ENTITY ns_graphs "http://ns.adobe.com/Graphs/1.0/">
	<!ENTITY ns_vars "http://ns.adobe.com/Variables/1.0/">
	<!ENTITY ns_imrep "http://ns.adobe.com/ImageReplacement/1.0/">
	<!ENTITY ns_sfw "http://ns.adobe.com/SaveForWeb/1.0/">
	<!ENTITY ns_custom "http://ns.adobe.com/GenericCustomNamespace/1.0/">
	<!ENTITY ns_adobe_xpath "http://ns.adobe.com/XPath/1.0/">
]>
<svg version="1.1" id="raja1_xA0_Bild_1_" xmlns:x="&ns_extend;" xmlns:i="&ns_ai;" xmlns:graph="&ns_graphs;"
	 xmlns="http://www.w3.org/2000/svg" xmlns:xlink="http://www.w3.org/1999/xlink" x="0px" y="0px" viewBox="0 0 738 497"
	 enable-background="new 0 0 738 497" xml:space="preserve">
<metadata>
	<sfw  xmlns="&ns_sfw;">
		<slices></slices>
		<sliceSourceBounds  width="727.3" height="488.1" y="49" x="52" bottomLeftOrigin="true"></sliceSourceBounds>
	</sfw>
</metadata>
<g>
	<path fill="#B78375" d="M1,444c8.3-0.2,16.6-0.4,24.6,2.8c2.6,1.1,5.5,1.2,8.4,1.2c10.6-0.1,21.2,1.1,31.8,2.1
		c5.2,0.5,10.1-0.3,15.2-1.6c15.4-4,30.8-7.7,46.5-10.4c4.7-0.8,8-4.9,12.8-6c7.2-1.6,12.5-7.1,19.1-10.1c1-0.5,1.4-1.3,1.7-2.3
		c0.9-2.7,2.9-4.5,5.5-5.3c3.1-0.9,4.7-2.5,5-5.9c0.3-3.9,4.1-5.9,5.8-9.1c1.7-3.1,3.4-6,4.4-9.4c3.2-10.9,10.8-19.8,14.7-30.4
		c3.1-8.4,7.5-16,13.4-22.6c5.8-6.4,10.8-13.8,20.9-14.7c3-0.3,6-3.1,8.5-5.4c3.9-3.5,7.8-6.7,12.9-8.1c3.6-1,6.8-3.2,9.4-5.4
		c6.6-5.3,14.9-6.2,22.2-9.6c7.3-3.4,15.5-4.7,22-9.9c0.9-0.8,2.5-1,3.7-1.1c3.7-0.4,6.9-2,10-4c3-2.1,6.1-4,10-4
		c1.4,0,3.2-0.3,4.2-1.2c8.3-7.2,19-9.1,28.8-13c0.9-0.4,1.8-0.9,2.6-1.4c4.8-3.4,9.2-7.1,16.1-6.1c3.1,0.4,6.7-1.1,9.8-3.1
		c7.6-5.2,17.1-6,25.3-9.9c2.4-1.2,4.6-2.4,6.2-4.8c1.3-2,3.3-2.7,6.1-2.3c4.3,0.6,8-0.6,10.3-5.1c1.8-3.5,4.3-6.6,6.9-9.7
		c2.6-3,5.8-4.7,10.1-5.7c6.3-1.5,14-0.3,18.2-7.3c0.3-0.6,1.9-0.4,2.9-0.5c2.3,2.3,5.9-0.3,8.2,2.1c-1.1,2.3-3.4-0.7-4.9,1.2
		c2.7,3.7,1.1,4.9-2.8,5.3c-1,0.1-3.5-0.5-3.5,1.7c0.1,1.8,1.6,2.5,3.5,2.9c2.1,0.5,4,1.6,6,2.4c-0.8,1.9-4.3,1.2-2.9,3.6
		c1.2,2.1,0.3,2-1.1,3c-1.8,1.3-1.7,4.8-5,4.9c0,0-0.2,0.8-0.1,0.9c3,2.4,1.4,6.9,4.2,9.4c-6.7,2.5-9.1,9.2-6.1,16.3
		c0.7,1.7-0.3,3.5-1.5,4.9c-1.2,1.4-2.9,2-4.4,1c-2.7-1.8-6.2-2.3-7.6-6c-0.8-2.2-3.6-3.3-5.2-1.8c-2,1.9-2.4,5.1-1.2,7.9
		c1.2,2.8,3.4,1.8,5.5,1.3c-2.1,3.3,1,5.6,1.8,8.2c0.6,1.9,2.5-0.3,3.8-0.1c1,0.1,2.2,0,2,1.5c-0.6,3.6,1.5,1.9,2.7,1.3
		c4.2-1.9,7.5-1.6,9.5,3.3c0.7,1.8,2,3.5,3.5,4.7c1.6,1.3,3,3.9,5.8,2c0.3,0.1,0.6,0.1,0.9,0.2c-0.6,1.5-1.4,3-1.8,4.5
		c-0.2,0.5,0.1,1.4,0.5,1.8c0.5,0.5,1.4,0.3,1.7-0.3c2.5-4.3,7.2-0.3,10.2-2.9c0.6-0.5,2-0.1,2.2,1.2c0.1,1-0.7,1.2-1.5,1.6
		c-3.8,1.5-4.3,5.5-1,8.2c1.5,1.2,2.3,2-0.3,2.9c-5.1,1.9-4.2,7.6-6.6,11.3c-0.1,0.2,1,1.1,1.6,1.7c0,1.1,0.2,2.3-0.9,3.1
		c-2.9-2.2-5.7-5.2-9.6-1.2c-0.4,0.4-1.6,0-2.4,0c0.3-3,0.6-5.9,0.9-8.9c3.8-3.2,4.2-8.3,7-12c0.1-0.1,0.2-0.1,0.3-0.2
		c0.1,0,0-0.2,0.1-0.3c-0.1,0.1-0.3,0.3-0.4,0.4c-5.6-0.5-11.8-2.8-14.9,5.8c-0.6-4-0.7-4.3-2.9-3.5c-1.7,0.6-2.1,0-2.2-1.4
		c-0.2-5.2-4.3-6.9-8-8.9c-0.4-1-0.8-1.9-1.1-2.9c-1.1-4-2-8-3.3-12c-0.3-0.9-1.8,0.1-2.7,0c-2.1-4.3-4.1-8.6-6.2-13
		c1.7-1,1.1-2.6,1.2-4.1c0.7-0.1,1.6-0.1,1.5-1.2c0-0.1-0.2-0.3-0.3-0.3c-1.1-0.1-1.1,0.8-1.2,1.5c-1.1-0.5-1.4-2.2-3-2
		c-1.3-4.4-3.1-8.6-6-12.2c-0.4-2.2-2.4-3.8-2.3-6.6c-3.1,2.5-2.7,6.3-4.8,8.4c-5.6,5.8-6.6,12.8-5.9,20.3l0,0
		c-1.5,0.9-3.1,1.7-0.4,3.1c0.1,0.3,0.1,0.6,0.3,0.9c0.2,2,1.6,1.9,3.1,1.8c0.7,0.6,1.6,1,1.6,2.1c-0.2,0.3-0.5,0.5-0.7,0.8
		c-0.3,0.7-0.6,1.5-0.9,2.2l0,0c-0.4,0.1-1.1,0.2-1.2,0.4c-0.1,0.8,0.7,0.6,1.1,0.8c0,0.3,0,0.6,0.1,0.9c-0.4,1-0.8,1.9-1.2,2.9
		c-0.5,0.3-1.5,0.6-1.5,1c-0.7,6.7-4,10.3-10.4,11.2c-3.1,0.4-6.2,0.2-8.8,2.8c-1.6,1.5-4.3,1.8-6.3-0.4c-0.8-0.9-1.9-1.9-3-1.1
		c-1.8,1.2-0.1,2.1,0.5,3.2c1,1.7,0.6,3.4-1.2,4.2c-1.3,0.5-2.6,3.5-4,1.1c-1.6-2.8-2.9-1-3.7,0c-2.7,3.1-5.4,5.8-9.8,2.6
		c-0.5-0.4-1.9,0.4-2.4,1.8c1.4,0.8,2.8,2,4.4,2.5c1.1,0.4,3-1.5,3.3,1.3l0,0c-1.8,0.5-3.5,1.1-5.3,1.3c-3.8,0.5-7.4,0.8-10.8,3
		c-1.2,0.8-3.8,0.5-4.4,2.2c-0.9,2.2-2.5,2.1-4.2,2.7c-3.6,1.3-8.5-0.6-10.9,4c-0.3,0.5-1.5,0.8-1.7,0.1c-1.6-3.8-4.3-1.2-6.3-0.9
		c-3,0.5-5.7,0.8-8.6-0.9c-3.9-2.2-8.5,1.8-12.9-0.6c-0.4-0.2-3.8,1.7-6.2,0.2c-1.2-0.7-2.5,0.3-3.6,1.1c-1.6,1.2-3.5,1.8-5.6,1.7
		c-3,0-6.6-1-7.1,3.8c0,0.4-1,1-1.6,1c-6.4-0.4-8.4,3.4-8.8,8.9c-0.1,0.8-0.5,2.2-1.2,1.7c-4.6-3.3-4.2,1.3-4.6,3.2
		c-0.6,2.8-2,1.8-3.6,1.6c-2.6-0.4-3.8,0.3-2.7,3.2c0.7,1.9,2,3.9,0.2,6.3c-4.6-5.1-9.7,3.3-15.2-1.1c2.9-0.5,3.4-2.3,2.9-4.5
		c-0.3-1.3-1.1-2.3-2.5-1.7c-3.1,1.3-6-0.2-8.7-0.9c-3.2-0.9-4.1,0.8-5.5,2.7c-2.2,3.1-0.8,6.5-0.3,9.4c0.4,2.3,3.5,1.1,5.7,0.7
		c3-0.6,7.6-4.4,7,3.2c0,0.3,0.5,0.9,0.9,1.1c5.9,2.5,11.7,6.7,17.6,6.9c6.1,0.2,6.2,2.4,6,6.6c-2,0-4,0-6,0.1
		c-7.8-0.9-15.5,0.2-23.3-0.1c-2.4-0.1-4.8-0.4-6.7,2.1c-1.3,1.8-3,0.6-4-1c-3-4.4-8-6.3-11.6-9.9c-0.6-0.6-1.3-0.9-2.2-0.4
		c-4.5,2.3-10.8,0.1-14.2,5.5c-0.2,0.4-1.4,0.6-1.8,0.3c-2.4-1.8-3.6-0.2-5.6,1.1c-2.1,1.4-3.1,3.4-4.7,5c-1,0.9-3.5,1.2-2.3,3.7
		c1.2,2.5,3.6,2.3,5.2,1.5c3.5-1.7,6.5,0.7,9.5,1.2c2.1,0.3,6,3.3,5.3,6.7c-0.6,2.5-0.5,7-5.5,6.4c-0.8-0.1-2.3,0.6-2.7,2.4
		c5-0.6,8.9,1.4,9.3,6.1c0.4,3.6,2,4.6,4.9,4.9c-0.3,1.5-1.3,1.4-2,1.8c-3,1.8-6.4,6.4-7.9-1.3c-0.1-0.4-1.2-1.1-1.5-0.9
		c-5.5,1.8-9.4-2.1-12.9-4.6c-4.1-2.9-6.7-8-9.9-12.2c-0.3-0.4,0-1.3,0.3-1.9c2.1-3.8-2-4.5-3.3-5c-3.4-1.1-1.1,1.8-1.5,3
		c-0.2,0.6-0.7,1.1-1,1.7c-2.6,5.3-1.4,11,0,16c2,7.3,1.5,8.9-5.8,8.8c-0.7,0-1.3,0-2,0.1c-0.3-0.3-0.7-0.7-1-1
		c0.2-3.7-1.2-3.2-3.3-1.2c-3.4,3.2-5.7,7.5-10.6,9.3c-3.9,1.4-7.9,2.4-11.7,3.9c-9.6,3.7-18.5,9.2-28.8,11.4
		c-0.9,0.2-2.9,0.8-1.7,2.2c4.8,5.6-1.2,4.3-3.3,5.4c-6.7,3.4-13.9,3.3-21.2,3c-1.7-0.1-2.6,1.2-3.9,1.9c-3.6,2.2-6.3,6.8-10.6,6.7
		c-5.4-0.1-11.2,0.9-16.4-1.7c-1-0.5-1.8-0.9-2.6,0c-0.9,1-0.3,1.8,0.3,2.7c2,3.4,0.6,4.8-2.8,4.4c-5.6-0.7-11.7,2.2-16.7-2.5
		c-1-0.9-2.2,0.2-3.3,0.3c-10.1,1.1-20.3,0.4-26.5-12c-1-2-3.2-3.5-5.1-3.5c-3.1-0.1-5.7-1.7-8.6-2.2C1,445.3,1,444.7,1,444z
		 M194.3,374.7c0.1-3.1,2.3-4.2,4.2-5.8c2-1.7,3.7-3.7,5.4-5.7c1.8-2.1,0.2-4-0.8-5.9c-0.5-1-1.1-0.8-2-0.3
		C197.8,358.9,193,370.2,194.3,374.7z M399.2,292.9c2.8-0.3,5.2-0.5,7.5-1c0.4-0.1,0.5-1.9-0.3-2.1c-2.3-0.7-4.3,0.9-6.5,1.5
		C399.8,291.4,399.7,291.8,399.2,292.9z M416.3,289.2c-0.4,0.4-0.9,0.6-1,1c-0.1,0.4,0.1,1,0.3,1.2c0.7,0.4,1.2,0,1.2-0.8
		C416.8,290.2,416.5,289.8,416.3,289.2z"/>
	<path fill="#976757" d="M520.8,472.9c-4.5-8.7-9.1-17.3-10.8-27.2c-0.6-3.8-4.5-6.4-5-10.4c-1.6-10.4-6-19.5-12.6-27.5
		c-0.2-1.3-0.3-2.5-0.5-3.8c1.1,0.2,2.3,0.4,3.4,0.7c3.2,0.8,4.6,0,3.1-3.4c-0.6-1.3-0.9-3.1-1.9-3.9c-5-4-10.1-7.7-15.2-11.5
		c-0.5-2.2-2-4.3,0.2-6.4c0.5,3.6,3,5.9,5.6,7.9c2.6,1.9,5.7,3.2,8.5,5c3.9,2.6,7.8,2.4,11.6,0c3.1-1.9,6.6-2,10-2
		c4.3,0,6.2-2.2,6.3-6.6c0-2.6-1.6-5.9-0.1-7.6c5.7-6.8,0.8-8.2-4.4-9.8c-0.8-0.2-1.3-1.1-2.1-1.3c-4.1-1-8.3-4.8-12.4-0.5
		c-1.7,1.7-2.5,4.2-3.9,6.2c-1.2,1.9-2.7,2.4-5.1,1.6c-2.4-0.8-1.7-2-1.6-3.7c0.1-2.8-1-6.3-3.1-7.1c-2.7-1.1-0.6,3.4-2.6,4.2
		c-0.3,0.1-0.6,0.2-0.9,0.3c-0.1-1.4-0.2-2.8-0.3-4.2c0.4-1.1,2.6-1.9,1.3-3.2c-3.3-3.4-1.1-7-0.8-10.5c2.7-1.4,2.9-9.2-0.3-10.8
		c-2.9-1.5-4.9-4-7.9-5.3c-0.1-0.9-0.2-1.8-0.3-2.7c0.4-3.4-0.3-7,1.3-10.3c0.8,0,2,0.4,2.4,0c3.8-4,6.6-0.9,9.6,1.2
		c7.2,4.2,5.2,11,3.9,18.1c3-1.8,3.6-4.7,7.6-4.8c-2.5,2.7-0.8,7.4-6.2,7c-0.8-0.1-1.3,0.4-1.3,1.2c0.1,5.5-3.1,10-4.6,16
		c4.9-2.6,9.1-6.4,14-2c0.7-2.2-0.6-3.3-1-4.7c-0.4-1.2-0.4-2,0.9-2.9c2.9-2,7.5-1.4,8.9-5.7c0.1-0.2,1.4-0.3,1.9,0
		c1.8,0.9,2.6-0.1,3.7-1.3c2.2-2.4,3.6-3,5.7,1c1.7,3.2-0.2,4.4-1.3,6.6c0.8,0.1,1.2,0.2,1.6,0.1c3.9-0.8,2.2,4.6,5.2,4.7
		c-0.5,1.3-2.1,2.5-2.8,2.2c-2.6-1-5.2,0.8-7.7-0.7c-1.7-1-4.7-2.3-5.3,0.8c-0.6,2.7-0.4,6.8,3.5,7.1c3.6,0.2,6.6,1.9,10,2.2
		c3.7,0.3,3.5,2.2,2.8,4.7c-0.4,1.6-1.2,3-2.4,4.3c-1,1.1-1.7,2.7-0.9,4.1c1,1.6,2.3,0.3,3.6,0.1c6.6-1.1,6.3-1.1,7.3,5.6
		c0.3,2.2-1.5,5.5,0.2,6c4.6,1.4,7.4,6.2,12.5,6.2c-0.6,5.4-1.4,10.7-0.6,16.1c-0.1,2-0.2,3.9-0.3,5.9c-1.6-0.4-1.5,1.7-2.6,1.9
		c-2.2-2.9-0.6-6.5-2.4-10.6c-2.7,6.6-0.1,12,0.8,17.1c1.2,6.9,3.5,13.6,4.4,20.6c0.8,6.2,2.4,12.2,8.1,16c0.6,0.9,1,1.8,0.9,2.9
		c-0.8,0.1-1.7,0.1-1.6,1.2c0.1,1.1,1,1.5,2,1.7c2.3,6.8,4.6,13.6,7,20.4c1,2.8,3.5,5.2,2.7,8.6c-4.7,0-9.3,0-14,0
		c-0.4-2.4-2.2-5.2-0.4-7.2c3.3-3.6,2.4-7.9,1.7-11.3c-0.8-3.5-3.9-6.9-6.9-9.2c-2.3-1.8-2.7-4.4-4.6-6.3c-1.1-1.1-0.1-4.3-2.9-3.7
		c-2.4,0.5-3.2,2.7-2.8,5.1c1,6.1-0.5,12.5,2.3,18.4c0.3,0.6,0.4,1.4-0.3,1.7c-0.4,0.2-1.3,0.2-1.4,0c-1.1-3.1-6-4.4-4.2-8.8
		c0.5-1.2,0.3-2.2-0.5-3.2c-4.8-6.3-8-13-5.7-21.2c0.1-0.4-0.1-1-0.4-1.3c-3.4-3.6-2.6-7.2-1.7-11.7c0.6-3.2,3.3-2.3,4.3-4.4
		c2.2-4.6-3.3-8.1-2.4-9.2c2.8-3.4,3.7-6.3,1.8-10.1c-0.1-0.3-0.5-0.4-0.8-0.6c-0.8-0.7-1-1.4,0.2-1.8c1.6-0.7,1.1-0.9,0.3-2.3
		c-2.6-4.4-6.7-5.7-11.1-6.5c-2.7-0.5-6.1-1.7-4.6,3.6c0.4,1.4-0.7,2.4-2,3.1c-1.1,0.6-1.5,1.3-1.6,2.8c-0.1,4.5-3.5,8.7-1.5,13.5
		c0.1,0.3-0.5,1.4-0.9,1.6c-4.3,1.7-2.7,4.7-1.6,7.4c1.6,3.9,4.2,7.4,4.7,11.9c0.2,1.7,1.2,3.9,3.2,1.8c3.4-3.7,4.2-1.1,5.2,1.7
		c2.6,7.4,5.8,14.5,8.6,21.8c2.6,6.8,3,14,5.9,20.6c-2.3,0.3-3.1-1.3-3.9-3.1c-1.5-3.1-2.8-6.4-4.8-9.3
		C525.1,478.7,525.1,474.2,520.8,472.9z"/>
	<path fill="#5D3829" d="M356,498c-5.7,0-11.3,0-17,0c0.2-3.9-2.7-2.8-4.8-3l-0.3-0.3l0.1-0.4c-0.1-1.7,1-2.1,2.5-2.4
		c2.2-0.4,4.3-1.3,3.2-4.3c-0.7-2.1-8.1-6.4-8.6-5.3c-1.5,3.2-5.6,4.9-5,9.2c-4,2.1-9.1,2.3-12.1,6.5c-18.7,0-37.3,0-56,0
		c0.1-0.9,0.2-1.9,0.3-2.8c6-0.7,10-4.5,13.9-8.6c3.7-3.9,8.4-6.8,13.7-5.2c4.4,1.4,8.7,0.6,13.1,1.5c2.7,0.6,5.6,0.4,7.8-2
		c1.6-1.7,3.3-1.8,5.6-0.1c6.4,4.6,7.6,3.9,14-1.3c2.5-2.1,3.8-5.5,7-6.5c4.9-1.6,6-4.7,5.7-9.5c-0.8-11.5,3-22.3,5-33.4
		c2,3.6,1.9,7.6,1.9,11.5c0,6.1,0.2,6.2,5.8,4.8c1.1-0.3,2.3-0.4,3.4-0.2c9.1,1.8,17.6-3.6,26.7-2.1c0.7,0.1,1.7-0.3,2.3-0.8
		c1.8-1.5,3.2-1.1,4.9,0.2c1.4,1.2,3.2,1.6,5.1,1.9c-0.3,0.8-0.7,1.4-1.6,1.7c-6.3,2.2-12.8,3.8-19.4,5.3c-2.7,0.6-5.9,1.3-7.2,4.6
		c-3.7,1.7-7.7,3.1-8,8.1c0.1,1.6,0.3,3.2,0.4,4.8c-3.5,2.7-3.8,6.7-2.6,10.1c1.3,3.5,0.5,6.3-1.2,8.7c-2.3,3.2-1.7,5,1.6,6.6
		C356.1,496.1,356,497.1,356,498z M351.1,459.4c-6.5,0.1-9.9,4-9.1,10.5c0.5,3.9,2.8,5.1,6.2,3.3c2.2-1.2,6.1-9.1,5.7-11.7
		C353.6,460,352.9,459.1,351.1,459.4z"/>
	<path fill="#5D3829" d="M570,498c0.8-3.4-1.6-5.8-2.7-8.6c-2.4-6.8-4.7-13.6-7-20.4c-0.1-1-0.2-2-0.4-3c0.2-1.1-0.3-2-0.9-2.9
		c-0.5-5.4-3.7-10.2-3.4-15.8c1.4-1.3,1.3-2.1-0.7-2.3c-0.1-0.6-0.2-1.2-0.3-1.7c1.8-3.7,2.9-7.8,2.8-11.8
		c-0.2-7.2-2.1-14.4,1.2-21.5c0.3-0.6,0.1-1.8-0.3-2.3c-0.6-0.7-1.5-0.1-2.2,0.3c-1.8,1.1-2.7,3.4-4.9,4.1c-0.8-5.4,0-10.8,0.6-16.1
		c1.2-1,2.2-2.5,4.1-2l0,0c0,0.8-0.2,1.8,0.1,2.5c1.4,2.8,0.4,8.4,6.7,5.7c1.6-0.7,1.8,1.1,2.2,2.5c2.2,7.6-0.3,15.6,1.6,23.3
		c0.5,1.9-1.2,2-2.6,2.1c-4.5,0.4-4.4,4.1-3.3,6.4c1.6,3.5,2.2,6.8,2.2,10.5c0,2.7,0.5,5,4,5.1c2.7,0.1,3.4,1.7,2.4,4.2
		c-0.3,0.9-0.8,2.1,0.8,2.3c1,0.1,1.5-0.8,1.6-1.6c0.8-7.3,0-14.7,0.6-22.1c0.3-4.1-0.4-9-1.5-13.4c-1.1-4.6,0.9-9.1-0.7-13.7
		c-3.8-11.1-3-12.5,6-20.4c1.2-1,1.9-1.5,3.2-1.2c1.8,0.3,1.4,1.9,1.6,3.2c0.4,2.9-1,6,0.9,8.7c0,0.7-0.1,1.3-0.1,2
		c-2,0.3-3.2,1.4-2.5,3.4c1,2.7,0,5.2,0,7.8c0,6.6-1.8,13.5,1.6,19.8c0,0.7-0.1,1.4-0.1,2.1c-1.1,0.6-1.8,1.4-1.7,2.8
		c0.7,5.4,0.9,10.8,2.2,16c1.1,4.5,0.5,9.6,4.2,13.2c2.4,7.4,1.2,15,1.4,22.6c0.1,3.5,0,6.9,0,10.4C581.3,498,575.7,498,570,498z"/>
	<path fill="#B78375" d="M535.9,494.1c-2.9-6.6-3.3-13.8-5.9-20.6c-2.8-7.3-6-14.5-8.6-21.8c-1-2.8-1.7-5.4-5.2-1.7
		c-2,2.1-3-0.1-3.2-1.8c-0.5-4.4-3.1-7.9-4.7-11.9c-1.1-2.7-2.7-5.7,1.6-7.4c0.5-0.2,1.1-1.2,0.9-1.6c-2.1-4.8,1.4-9,1.5-13.5
		c0-1.4,0.5-2.2,1.6-2.8c1.3-0.7,2.4-1.7,2-3.1c-1.5-5.3,1.9-4.1,4.6-3.6c4.4,0.9,8.5,2.2,11.1,6.5c0.8,1.4,1.3,1.6-0.3,2.3
		c-1.1,0.5-0.9,1.2-0.2,1.8c0.2,0.2,0.6,0.3,0.8,0.6c2,3.8,1,6.7-1.8,10.1c-0.9,1.1,4.6,4.7,2.4,9.2c-1,2.2-3.7,1.2-4.3,4.4
		c-0.9,4.5-1.7,8.1,1.7,11.7c0.3,0.3,0.5,0.9,0.4,1.3c-2.3,8.2,0.9,14.9,5.7,21.2c0.8,1,1,2,0.5,3.2c-1.8,4.4,3,5.7,4.2,8.8
		c0.1,0.2,1,0.2,1.4,0c0.7-0.4,0.6-1.1,0.3-1.7c-2.9-5.9-1.4-12.3-2.3-18.4c-0.4-2.4,0.4-4.6,2.8-5.1c2.8-0.6,1.8,2.6,2.9,3.7
		c1.8,1.9,2.2,4.5,4.6,6.3c3,2.3,6.1,5.8,6.9,9.2c0.7,3.4,1.6,7.7-1.7,11.3c-1.8,1.9,0.1,4.8,0.4,7.2c-6.3,0-12.7,0-19,0
		C537.1,496.6,536.7,495.3,535.9,494.1z"/>
	<path fill="#976757" d="M12.2,464.5c-1-0.1-2.1-0.2-3.1-0.3c-2.3-2-5.2-2.1-8.1-2.2c0-5.3,0-10.7,0-16c2.9,0.5,5.5,2.1,8.6,2.2
		c2,0.1,4.2,1.5,5.1,3.5c6.2,12.5,16.4,13.1,26.5,12c1.1-0.1,2.3-1.2,3.3-0.3c5,4.7,11.1,1.8,16.7,2.5c3.4,0.4,4.9-1,2.8-4.4
		c-0.5-0.9-1.2-1.7-0.3-2.7c0.9-0.9,1.7-0.5,2.6,0c5.2,2.6,10.9,1.5,16.4,1.7c4.3,0.1,7-4.5,10.6-6.7c1.3-0.8,2.2-2,3.9-1.9
		c7.3,0.3,14.5,0.4,21.2-3c2.1-1,8.1,0.2,3.3-5.4c-1.2-1.4,0.8-2,1.7-2.2c10.3-2.2,19.2-7.6,28.8-11.4c3.8-1.5,7.9-2.5,11.7-3.9
		c4.9-1.8,7.2-6,10.6-9.3c2-1.9,3.4-2.5,3.3,1.2c-1.2,1.1-2.7,2.1-3.5,3.4c-3.4,5.3-6.4,10.6-12.1,14.3c-2.3,1.5-4.9,1.6-6.8,3.3
		c-8.4,7.1-19.1,8.9-29.2,11.7c-9.1,2.5-18.4,5.1-28.1,5.1c-3.1,0-3.9,1.9-4.2,4.4c-0.7,5.9-2.7,7.1-8.7,5.6
		c-1.1-0.3-2.8-1.4-3.2-0.2c-1.4,4.4-4.8,4.2-8.2,4.6c-1.8,0.2-2,2-1.9,3.6c-3.8-0.5-7.3-3.2-11.4-1.6c-2.5-0.1-5.1-0.1-7.6-0.2
		c-2-2.5-4.6-2.3-7.4-1.8c-0.5,0-1,0-1.6,0c-1-1.6-2.6-1.3-4-1.2c-7.8,0.7-15-1.3-22.2-3.9C16.1,464.5,14.2,463.1,12.2,464.5z"/>
	<path fill="#976757" d="M258.3,495.2c-0.1,0.9-0.2,1.9-0.3,2.8c-0.7,0-1.3,0-2,0c-0.1-1.3-0.8-2-2.1-2.1c0.2-1.6,1.1-3,2.5-3.4
		c5.1-1.6,4.7-5.7,4.6-9.7c-0.1-2.2-1.5-3.5-3.1-2.2c-2.1,1.7-4.8,1.1-6.9,2.5c2.3-5.4,7.3-6.3,12.3-6.9c5.4-0.8,11-2.2,16.3,0.8
		c1,0.5,3.4-1.5,3.7,0.6c0.4,2.7-2.4,1.1-3.7,1.8c-1,0.5-2.4,1-3.3,0.6c-3.9-1.6-5.3,1.2-7,3.7c-2.5,3.6-5.3,7.1-9.2,9.3
		C259.1,493.4,257.9,493.6,258.3,495.2z"/>
	<path fill="#B78375" d="M358.4,469.8c-0.1-1.6-0.3-3.2-0.4-4.8c2-1.8,3,0.5,4.5,1c2.2,4.6,7.4,6.3,10.4,10.2
		c0.8,1.2,1.5,2.5,2.3,3.7c-0.2,1.4,0.7,1.9,1.9,2.2c-0.3,5.3-0.7,10.6-1,15.9c-0.7,0-1.3,0-2,0c0-0.7-0.1-1.3-0.1-2
		c0.2-2.7,2.3-5.4,0.2-8.2c-0.7-6.2-3.3-9.3-9.5-10.9c-1.8-0.5-3-1.4-3.3-3.2c-0.3-1.5-0.4-3-2.1-3.6
		C358.9,469.9,358.6,469.9,358.4,469.8z"/>
	<path fill="#5D3829" d="M208,498c-0.4-1.2-0.8-2.4-1.2-3.6c0.3-1.9-0.1-4,2.4-5c2.6-1,4,0.3,5.5,2.1c5.2,6.2,12.4,4.8,18.8,3.8
		c2.6-0.4,4.9-1.2,7.4-0.2c0,1,0.1,1.9,0.1,2.9C230,498,219,498,208,498z"/>
	<path fill="#784E3E" d="M535.9,494.1c0.8,1.2,1.2,2.5,1.1,3.9c-2.7,0-5.3,0-8,0c0-1,0-2,0.1-3c1.2-2.4,0.5-4-1.9-5
		c-0.3-0.2-0.4-0.4-0.5-0.7c0.4-1.5,0.6-2.9-1.4-3.4c-1.8-4.2-4.7-8.1-4.6-13c4.3,1.3,4.4,5.9,6.5,8.8c2,2.8,3.3,6.1,4.8,9.3
		C532.8,492.7,533.6,494.3,535.9,494.1z"/>
	<path fill="#25191C" d="M373.9,496c0,0.7,0.1,1.3,0.1,2c-6,0-12,0-18,0c0-0.9,0.1-1.9,0.1-2.8c0.7,0,1.3-0.1,2-0.1
		c2.3,1.4,4.1,0.1,5.9-1c0.7,0,1.3-0.1,2-0.1C369,493.1,371,496.4,373.9,496z"/>
	<path fill="#976757" d="M241,498c0-1-0.1-1.9-0.1-2.9c0.6-1.7,0.7-3.7,2.2-5.1c2.5,0.9-1.8,4.6,2,5.1c0,1,0,2-0.1,2.9
		C243.7,498,242.3,498,241,498z"/>
	<path fill="#B78375" d="M1,462c2.9,0.1,5.7,0.2,8.1,2.2c-3,1.4-5.4-1-8.1-1.2C1,462.7,1,462.3,1,462z"/>
	<path fill="#784E3E" d="M245,498c0-1,0-2,0.1-2.9c1-0.1,1.9-0.1,2.9-0.2c1.3,0.6,2.1,1.6,2.1,3.1C248.3,498,246.7,498,245,498z"/>
	<path fill="#976757" d="M250,498c0-1.5-0.8-2.4-2.1-3.1c1.9-2.6,1.9-2.6,4.1,1c0,0.7,0,1.4,0,2C251.3,498,250.7,498,250,498z"/>
	<path fill="#784E3E" d="M335,498c-0.3-1-0.6-2-0.8-3c2.1,0.2,5-0.9,4.8,3C337.7,498,336.3,498,335,498z"/>
	<path fill="#784E3E" d="M252,498c0-0.7,0-1.4,0-2c0.6,0,1.3-0.1,1.9-0.1c1.3,0.1,2,0.8,2.1,2.1C254.7,498,253.3,498,252,498z"/>
	<path fill="#25191C" d="M716.9,71.9c-1.1-3.9-0.9-7.4,3-9.9c1.7-3.2,4.4-5.9,4.6-9.8c-0.9-3-3.4-3-5.9-2.8c0.2-6.4,7.7-11.7,2.6-19
		c1.3-1.2,2.7,0.5,4.2,0.7c0.1-0.8-0.2-1.7,0.9-2c0-0.6-0.1-1.1-0.1-1.7c-0.3-0.8-0.3-1.6-0.1-2.3c-0.1-2.5-0.3-5.1-0.4-7.6
		c-0.8,0.3-1.6,0.6-2.4,0.9c-0.1,1.2-0.8,1.6-1.9,1.4c-0.4,0.4-0.9,0.8-1.3,1.2c0.3,3.6-4.6,4.1-4.5,7.6c-0.6,0-1.6,0.2-1.8-0.1
		c-4.2-4.7-9.4-2.6-14.4-2.5c-1.2,0-3.1,2.1-3.7-0.4c-0.4-1.8,1.5-2.3,2.8-3c0.8-0.4,1.7-0.8,2.3-1.8c-3.7-0.9-6.9,0.6-9.4,2.9
		c-2.2,2.1-2.4,4.6-0.9,8c1.1,2.7,2.8,6.1,1.5,10c-0.6,2,1.4,5.1,1.7,7.9c0.2,1.3,0.4,2.5-0.9,2.9c-9.2,2.6-14.2,11.6-22.9,14.9
		c-0.6,0.2-1.3,1.3-1.5,1.2c-6.5-3.5-8.3,3.6-11.6,5.9c-3.1,2.2-6.8,4.5-9.8,8c3.6,0.7,6.8,1.5,9.5,2.8c-1.8,9.4-7.8,13.2-16.6,16.3
		c-6.1,2.2-12,2.3-17.9,3.6c-0.3,0.1-0.6,0.2-0.9,0.4c-6.2,2.6-9.3,2-13.9-2.4c-2.6-2.5-4.1-5.5-8.8-6.8c-4.1-1.1-9-5.1-12.4-9.3
		c-2.5-3.1-6.1-5.5-7.6-10.2c3.1,0.8,4.5,2.7,5.7,4.5c1.4,2.1,3.2,3.8,5,5.5c1.3,1.3,3,3.6,4.8,1.8c1.5-1.5-0.4-3.4-1.9-4.6
		c-2.3-1.8-3.8-4.5-6.9-5.5c-2.2-0.7-1.8-2.9-1.9-4.7c-1.5-3.3-2.2-6.7-2.5-10.2c-0.1-2.6-0.2-5.2-0.4-7.9c-0.2-0.6-0.4-1.3-0.6-1.9
		c-0.5-0.6-1-1.3-1.5-1.9c-0.3-0.4-0.6-0.7-0.9-1.1c-0.3-0.3-0.6-0.7-0.9-1c-1-0.4-2-0.9-3-1.3c1.1,6.5,0.1,13.2,2.5,19.6
		c0.6,1.6,1.5,3.4-2.1,3.2c-2.5-0.1-4.7,1.2-2.5,5.1c3.5,6.2,2.2,10.4-4.2,10.4c-5.4,0.1-9.9-2.2-10.9,5.4c-0.1,0.6-1.5,0.7-2.1,0
		c-0.9-1-0.6-2.2,0-3.2c0.5-0.9,1.9-1.8,0.7-3c-1.4-1.4-1.8,0.7-2.7,1.1c-1.5,0.7-2.8,0.5-4.3,0c-2-0.7-4-0.5-5.4,1.4
		c-1.3,1.7-0.9,3.3,0.2,5c1.5,2.6,1.9,5.6,3.4,8.4c2.2,3.9-2.8,5.7-5.3,8c-0.1,0.7-0.2,1.3-0.3,2c-2.4,3.6,2.9,8.5-2.1,11.8
		c-0.5,0.3,0.2,2.7,0.4,4.2c0.3,0,0.6,0.1,0.9,0.1c9.4,3,18.3,7.1,25.2,14.5c2.2,2.3,9.8,2.9,11.6,0.3c3.2-4.5,6.7-2.9,10.5-2
		c7.7,1.8,15.4,2.5,23-0.4c5.2-2,8.2-6.4,10.4-11c1.6-3.2,2.5-2.7,3.9-0.6c2.6,3.8,5.9,2.2,7.2-0.2c2.3-4.2,5-4.9,9.1-3.5
		c0.3-0.1,0.7-0.1,1,0c1.5-2.7,1-7,6.2-6.5c1.5,0.2,1.2-3.4,3.4-3.7c3.2-8.6,10.6-12.6,18.3-16.1c0.3-0.2,0.7-0.5,1-0.7
		c1-0.4,2-0.9,3-1.3c0.3-0.2,0.7-0.5,1-0.7c3-1.1,6-2.2,9-3.3c0.3-0.2,0.6-0.5,1-0.7c11.8-5.1,23.2-11,33-19.4
		C716.8,72.4,716.8,72.2,716.9,71.9z"/>
	<path fill="#784E3E" d="M581.9,398c-2-2.7-0.5-5.8-0.9-8.7c-0.2-1.3,0.2-2.8-1.6-3.2c-1.3-0.2-2,0.2-3.2,1.2c-9,7.9-9.8,9.3-6,20.4
		c1.6,4.6-0.4,9.1,0.7,13.7c1.1,4.4,1.8,9.3,1.5,13.4c-0.6,7.4,0.3,14.7-0.6,22.1c-0.1,0.8-0.6,1.7-1.6,1.6
		c-1.5-0.2-1.1-1.4-0.8-2.3c0.9-2.5,0.2-4.1-2.4-4.2c-3.5-0.1-4-2.5-4-5.1c0-3.7-0.7-7-2.2-10.5c-1-2.3-1.1-6.1,3.3-6.4
		c1.4-0.1,3.1-0.2,2.6-2.1c-1.9-7.7,0.6-15.6-1.6-23.3c-0.4-1.4-0.7-3.2-2.2-2.5c-6.3,2.7-5.3-2.9-6.7-5.7c-0.3-0.7-0.1-1.6-0.1-2.5
		c0.7-0.1,1.6-0.1,1.5-1.2c0-0.1-0.2-0.3-0.3-0.3c-1.1-0.1-1.1,0.8-1.2,1.5c-1.9-0.4-2.9,1.1-4.1,2c-5.2,0-7.9-4.8-12.5-6.2
		c-1.7-0.5,0.1-3.8-0.2-6c-1-6.7-0.7-6.7-7.3-5.6c-1.2,0.2-2.6,1.4-3.6-0.1c-0.9-1.4-0.2-3,0.9-4.1c1.2-1.3,2-2.7,2.4-4.3
		c0.7-2.5,0.9-4.5-2.8-4.7c-3.4-0.2-6.5-1.9-10-2.2c-3.8-0.3-4-4.4-3.5-7.1c0.6-3.1,3.6-1.8,5.3-0.8c2.5,1.5,5.2-0.4,7.7,0.7
		c0.7,0.3,2.3-0.9,2.8-2.2c-3.1-0.1-1.4-5.5-5.2-4.7c-0.4,0.1-0.9-0.1-1.6-0.1c1.2-2.2,3-3.4,1.3-6.6c-2.1-4-3.5-3.3-5.7-1
		c-1.1,1.2-1.9,2.2-3.7,1.3c-0.5-0.3-1.8-0.2-1.9,0c-1.4,4.3-6,3.8-8.9,5.7c-1.3,0.9-1.3,1.7-0.9,2.9c0.5,1.4,1.8,2.5,1,4.7
		c-4.9-4.4-9.1-0.6-14,2c1.5-6,4.8-10.6,4.6-16c0-0.7,0.5-1.2,1.3-1.2c5.5,0.4,3.7-4.3,6.2-7c-4,0.1-4.6,3-7.6,4.8
		c1.2-7,3.3-13.9-3.9-18.1c1-0.8,0.9-2,0.9-3.1c3.2-3.2,6.9-6,7.9-10.7c0.4-2,1.7-2.6,3.1-3.3c0.7,3.4,3.8,7.3-1.1,9.7
		c-3.5,1.7-2.9,4.3-2.6,7.5c0.6-0.7,1.2-1.8,1.5-1.7c4.9,1.2,5.5-1.5,5.6-5.4c0-1.4,0.8-2.4,3-0.6c2.8,2.4,8.8,3.1,10.1,1.4
		c2.9-3.7,3.4-2.5,4.4,0.6c0.6,1.9,3.1,0.8,3.6,2.5c-1.4,1.6-4.3,0.8-4.8,3.3c2.3,1.8,4.8-1.5,6.6,0.1c3.1,2.7,5.3,0.1,8-0.4
		c5.5-0.8,5.3-6.1,8.2-8.9c0.9-0.9,2.1-1.9,0.9-3.4c-1-1.3-2.2-2-3.9-1.7c-1,0.2-2,0.9-2.8,0.7c-3.6-1.1-6.2-3.8-10.9-3.8
		c-5,0-9.8-3.5-15.7-1.8c-3.1,0.9-6.3,2.6-9.9,1.8c1.7-3.7,8.1-8.1,11.1-7.5c1.2,0.2,0.7,1.6,0.9,2.5c-0.4,0.2-1.4-0.5-1.1,0.7
		c0.3-0.2,0.7-0.5,1-0.7c1.8-0.1,3.5-1.5,5.3-0.9c4.6,1.5,9.3,0.9,13.8-0.2c4-1,7,0.1,9.3,2.8c1.2,1.3,2.1,2,3.8,2.4
		c5.5,1.3,10.8,9.3,9.5,14.6c-0.7,3.1,0.5,3.2,2.9,3.3c6.9,0.2,9.4,2.7,8.9,9.5c-0.1,1.8,0.3,2,1.8,2.6c4.3,1.6,12-0.2,14.9-4.1
		c4.9-6.7,9.5-13.6,13.1-21.1c0.6-1.3,0.9-2.9,1.6-4.2c1.8-3,4.1-5.2,7.5-2.3c1.4,1.2,2.8,1.6,4.5,1.5c0,0.7,0,1.3,0,2
		c-3,1.1-2.3,3-1,5c-5.6,4.5-9,10.5-11.7,17c-3.3,7.8-10.4,12.7-15.6,19.1c-0.7,0.9-2.5,1.6-3.5,1.4c-2.1-0.4-0.4-2.1-0.5-3.2
		c-0.2-1.4-0.7-2.9-1.4-4.2c-0.6-1-2.1-1-2.1,0.4c0.1,3-2.2,6.1-1.3,8.3c1.7,4.4-0.7,3.4-3.1,3.7c-3.2,0.4-4.3,5.2-8.4,4.4
		c0.1,0.6,0.4,1.7,0.2,1.9c-2.6,1.4,1,3.9-1,5.5c-2.8,2.2-4.1,5.4-4.6,8.9c-0.3,2.2-1.5,3.7-4,3.6c-9-0.3-10.9,1.5-10.9,9.9
		c0,1.6,0.4,3.2,1.8,3.8c1.7,0.8,3.1-0.6,3.5-1.9c1.1-3.4,3.5-2.8,6-2.4c1.5,0.3,2.9,0.5,4.4,0.8c8.4,0.4,16.2-1.8,23.8-5.2
		C584.1,386.7,585.8,392.6,581.9,398z M515.6,336c3.1,0,5.5-3.5,5.3-7.7c-0.1-2.9-3.4,0.6-3.7-1.9c-3.4,0.6-5.1,3.3-5.7,6
		C511.1,334.4,513.1,336.3,515.6,336z"/>
	<path fill="#976757" d="M479.4,182.9c0-3.6,0-7.2,0-10.8c3.8,2.1,7.8,4.8,12.1,4c6.5-1.2,8.6-8.1,13.4-11.7
		c0.3-0.3,0.4-1.5,0.1-1.9c-2.6-3.4,1.1-5.5,2.3-7.1c3.7-5,9.5-8.4,7-16.4c-0.9-2.9,0.7-6.6-0.7-10.1c-0.9-2.2,1.2-1.7,2.4-1.9l0,0
		c2.8,6.1,3.9,6.3,9.2,3c2.7-1.7,3-5.8,6.7-6c0.4,2.1-0.6,3.9-0.8,5.8c-0.2,1.8,0.1,4.7,1.8,4.5c6.1-0.7,3.4,3.1,3.7,5.8
		c0.3,2.4-1.1,5.8,2.7,7.1c6.9,2.3,11.4,9,18.8,10.6c0.3,0.1,0.4,0.8,0.6,1.3c-1,1-1.9,0.1-2.8,0c-1.4-0.2-3-0.2-3.3,1.4
		c-0.4,1.8,1.5,1.3,2.4,1.7c1,0.4,2.2,1.6,1.5,2.1c-2.9,1.9-0.8,5-2,6.9c-1.7,2.7-0.1,3.6,1.7,3.6c4.1,0,4.1,2.4,3.8,5.2
		c-2.3,0.4-4.6,0.8-6.9,1.2c-3.7,0.3-6.8-1.1-9.8-3.1c3.8,4.4,7.5,8.8,13.6,10c0.2,1.9,1.9,2.2,3.1,3c0,1.9,1.4,2,2.8,2.2
		c3.6,3.6,7.8,6.4,12.1,9c0.1,1.2,0.7,1.9,2,1.9c1.5,1.5,3.4,0.8,5.1,0.9c0.8,1.3,2.5,1.3,3.4,2.6c2.8,3.9,7,5.1,11.6,5.3l0,0
		c0.1,1.3,0.4,2.5,1.9,1c0.7,0.3,1.3,0.7,2,1c-0.1,5.6-3.2,8-8.6,7.4c-5.2-0.6-9.8-2.2-14.3-5.1c-6.2-4-14.2-3.6-20.5-7.8
		c-1.5-1-3.6-1-3.6-3.4c3.7,1.3,7.5-0.8,11.2,0.2c0.9,0.2,1.9,1.1,2.5-0.3c0.4-1.1-0.4-1.7-1.1-2.5c-2-2.4-3.8-4.9-5.8-7.2
		c-1.9-2.2-4.5-3.5-7.1-4.8c-1.5,3.2-5.4,2.8-7.6,4.7c-2.8,2.5-5,2-8.1,0.7c-1.8-0.8-3.1-3.5-5.6-2.1c-2.8,1.6,0.4,3.9-0.6,5.8
		c-0.1,0.1,0,0.3,0,0.5c-2.7,2.6-5.2-3.1-7.9-0.1c-1.1-0.2-2.2-0.6-3.4-0.7c-4.2-0.2-6.7-3.8-10.2-5.3c-6.2-2.7-12.5-3.7-19.2-4.4
		c-3.5-0.4-6.5-1.8-9.2,1.4c-1.3-1.6-1.5-3.5-1.2-5.5C481,185,481.5,183.4,479.4,182.9z M533.9,183.9c-0.2-2,2.1-2.4,2.6-4.1
		c-1.4-0.8-2.7-1.9-4.2-2.4c-1.5-0.6-3.8-1.1-4.6,0.3c-1,1.7,0.7,2.8,2.3,3.6c0.9,0.5,1.3,1.8,2,2.8c-0.4,1.4-2.6,2.2-1.2,4.3
		c2.2,3.1,5.3,0,7.7,1.5c0.1,0.1,1-0.5,1-0.8c-0.1-2.2-2.2-2.6-3.6-3.6C535.3,184.9,534.6,184.4,533.9,183.9z M526.7,191.1
		c-0.3-0.4-0.7-0.8-0.8-1.2c-0.9-5.2-5.5-6.7-9.2-9.1c-1.2-0.8-2.9-3.1-4.1-1c-1,1.8-0.2,4.5,2.3,5c2.7,0.5,3.2,3.6,3.2,4.4
		c-0.3,3.9,3.2,3.1,4.8,4.2C523.8,194.3,525.9,193,526.7,191.1z"/>
	<path fill="#25191C" d="M628.5,258.2c0,0.9,0.1,1.8,0.1,2.7c-2.7-0.1-4.2,0.8-3.7,3.9c0.2,1.7-0.5,3.5-0.8,5.2
		c-3.3,1.9-5.2-1.6-7.9-2.1c-2.3-9.8-9.1-16-17.8-19.3c-4.9-1.9-9.5-3.7-13.3-7.2c-2.4-2.2-5-3.7-8-4.5c-7.9-3.9-16.2-7-25-8.3
		c-1.8-1.6-4.2-1.8-6.3-2.6c-8.1-3.1-16.8-4.3-24.7-8.1c2.1-0.6,2.2-0.9,0.1-2c-2.4-1.2-5.8-0.8-7.1-4c0.1-0.1,0.1-0.3,0.2-0.4
		c-0.1,0.1-0.2,0.3-0.2,0.4c-4.9,0.6-9.1-2.9-11.3-5.3c-3.3-3.6-6.1-6.8-11.2-7.6c2.6-1.4,5-1.2,7.6-0.5c8.2,2.2,16.4,4.6,25,4.5
		c15.8,5.2,31.3,11.4,47.5,15.7c6.4,1.7,11.6,6.8,18.7,6.3c3.2-0.2,6.2,0.9,9.4,1.1c2.9,0.2,4.1,2.3,6,4.5
		c4.9,5.6,10.5,10.5,13.9,17.2c1,2,2.4,2.5,4.4,2.3C627.5,251.6,626.1,255.9,628.5,258.2z"/>
	<path fill="#B78375" d="M624.1,270c0.3-1.7,1-3.5,0.8-5.2c-0.4-3.2,1-4,3.7-3.9c-0.2,4.7,1.5,8.9,3.5,13c0.6,1.2,0.8,2.5,0.9,3.8
		c0.7,6.5-1.1,12.9,0.3,19.4c0.1,0.3-0.9,0.8-1.3,1.2c-0.4-1-1.1-1.6-2.2-1.5c-2.1-3.2-5.1-3.4-6.4,0c-1.7,4.3-4.2,8.2-4.6,13
		c-0.2,2.4-0.5,4.5,1.9,5.3c3,1,3.2-2.1,4.1-3.7c1.4-2.7,1.5-6.1,4.8-7.6c0.7,0,1.4,0.1,2,0.1c-0.7,3.8-2.2,7.3-4.4,10.4
		c-5.5,7.8-8.8,16.6-11.6,25.6c-1,3.3-2.2,6.5-5,8.9c-5,0.1-3.8,4.3-4.7,7.1c-1.3,2.5-3.4,3.9-6.1,4.5c0.8-2.4-3.1-4.3-0.5-7.2
		c2.6-2.7,0.9-4.2-2.3-3.8c-1.3,0.2-2.2-0.1-3.2-0.6c-0.1-2.2,1.7-3.1,2.9-4.4c2.1-2.3,4.9-4.8,4.8-7.9c-0.1-6,2.4-10.8,5.5-15.4
		c2.1-0.8,3.8-2.1,4.6-4.3c2.4-3.3,2.6-7.4,4.4-10.9c1.2-0.9,2.6-2.1,1.1-3.5c-1.4-1.3-2.6,0.1-3.5,1.4c-0.3,0-0.7,0-1,0.1
		c0-0.7,0-1.3,0-2c1.7-3.4,0.2-6.5-1.9-8.6c-1.7-1.7-4.6-2-7.3-0.1c-2.3,1.6-2.7-0.6-2.7-2.4c0.1,0,0.2-0.1,0.3-0.2
		c0.1,0,0.1-0.2,0.1-0.3c-0.1,0.1-0.3,0.3-0.4,0.4c-1.1-0.2-3.5-1.1-2.2-1.6c4.1-1.4,5.5-8.2,11.4-5.9c1.1,0.4,2,0,2.4-1
		c0.2-0.5,0-1.2-0.1-1.8c-2.6,0.7-3.6-2-5.5-2.7c-1.2-0.4-3.6,0.8-3.3-1.6c0.2-1.8,2.4-1.3,3.8-1.4c1.1-0.1,2.5,0.4,3.1-0.9
		c0.8-1.5-0.7-2.4-1.3-3.5c-1.3-2.8-4.9-2.9-6.4-5c-2.7-3.8-7-3.9-10.5-4.2c-3.1-0.3-4.6-1.5-6.8-3.3c-3.9-3.1-3.2-8.8-7.3-11.5
		c-0.5-0.3,0.3-2.7-1.3-0.9c-0.6,0.7-1,1.3-1.9,0.6c-0.9-0.7-1.4-2-0.7-2.6c2-1.9,0.8-4.9,2.7-6.7c3.1,0.8,5.6,2.3,8,4.5
		c3.8,3.5,8.4,5.3,13.3,7.2c8.7,3.3,15.5,9.5,17.8,19.3c-0.1,3.4,0.3,6.3,4.8,6.4c1,0,2.2,1.4,3,2.4c2.3,2.7,4.6,5.4,7.2,8.5
		c1.2-2.3,1.8-4.7,0.1-5.8C627.8,277,626.9,272.8,624.1,270z"/>
	<path fill="#B78375" d="M531.9,124c-3.8,0.2-4.1,4.3-6.7,6c-5.3,3.3-6.4,3.1-9.2-3c0.9-0.1,2,0.3,2.5-0.9c0.1-0.2-0.4-0.9-0.8-0.9
		c-1.3-0.2-1.6,0.8-1.7,1.8c-1.2,0.2-3.3-0.3-2.4,1.9c1.4,3.4-0.2,7.2,0.7,10.1c2.5,8.1-3.3,11.4-7,16.4c-1.2,1.6-5,3.7-2.3,7.1
		c0.3,0.4,0.2,1.6-0.1,1.9c-4.7,3.6-6.9,10.6-13.4,11.7c-4.3,0.8-8.3-1.9-12.1-4c-1.1-5.4-0.2-10.1,4.4-13.8
		c4.7-3.8,8.2-8.5,10.3-14.3c1.9-5.2,7-8.1,9.2-13.3c4.1-9.7,11-17.4,18.6-24.5c4.4-4.1,8.6-8.5,11-14.2c0.2,0.6,0.4,1.3,0.6,1.9
		c-3.4,5.9-1.1,12.2-1.1,18.3C532.2,116.1,532.1,120,531.9,124z"/>
	<path fill="#784E3E" d="M533.5,93.9c-0.2-0.6-0.4-1.3-0.6-1.9c0.3-0.9,0.6-1.9,0.9-2.8c1.7-0.4,1-2.4,2.1-3.2
		c1.7,3.1,3,6.2,1.2,9.8c-0.4,0.7-0.6,2.2-0.3,2.4c5.6,2.7,2.4,7.9,3.4,11.9c-0.1,0.7-0.2,1.3-0.3,2c-1.7,0.1-3.1,1.3-3,2.7
		c0.1,3.7-1.9,7-1.8,10.7c0,2.2,1.1,2.9,3.1,2.6c0.3,0,0.6,0.1,0.9,0.1c-0.2,1.7,0.5,2.6,2.2,3.3c4.7,1.9,8,5.1,10.8,9.5
		c2.2,3.5,6.8,6.2,10.8,6.1c4.3-0.1,4.7,3.1,6.6,4.9c1.7,1.7,0,3.9-1,5.8c-0.7,1.3-3.1,0.9-2.7,2.9c2.4,1.2,7.1-0.3,6,4.7
		c-1.5,7.4,1,11.4,8,11.8c0.7,0,1.3,0.3,1.9,0.4c3.6,0.7,7.4,1.3,10.9,2.2c3.3,0.8,6.8,1.9,10,3.3c1.7,0.8,2.7,3.2,3.9,4.9
		c1.2,1.9,0.1,3.6-1.1,5c-1.5,1.8-2.6-0.1-3.8-0.6c-2.2-0.9-3.7-2.9-5.6-4c-4.4-2.6-8-6.6-14.5-3c-3.5,2-10,5-12.9-2.5
		c-0.1-0.3-1.4-0.6-1.7-0.4c-3.3,2-4.7-0.9-6.7-2.4c0.3-2.9,0.2-5.3-3.8-5.2c-1.7,0-3.4-0.8-1.7-3.6c1.2-1.9-0.9-5,2-6.9
		c0.6-0.4-0.6-1.7-1.5-2.1c-0.9-0.4-2.8,0.1-2.4-1.7c0.3-1.6,1.9-1.6,3.3-1.4c0.9,0.1,1.8,1,2.8,0c-0.2-0.5-0.3-1.2-0.6-1.3
		c-7.3-1.7-11.8-8.3-18.8-10.6c-3.8-1.3-2.5-4.6-2.7-7.1c-0.3-2.7,2.5-6.5-3.7-5.8c-1.7,0.2-2.1-2.7-1.8-4.5
		c0.2-1.9,1.3-3.8,0.8-5.8c0.1-3.9,0.3-7.9,0.4-11.8c2-2.8,3.1-15.2,1.5-18.1C533.9,94,533.6,93.9,533.5,93.9z"/>
	<path fill="#B78375" d="M549.1,51c0-2-0.1-4.2,1.6-5.5c6.6-5.1,10.3-12.7,16.6-18.1c4.6-4,9.8-6.4,15.4-8.4c7-2.4,13.8-5.3,21-7.3
		c7.1-2,14.1-1,21.1-1.7c3.4-0.3,6.9,0.5,10.3,0.8c-0.7,3.6-1.9,6-6.4,4.3c-2-0.7-4.5-0.3-4.6,2.9c-0.1,0.2-0.3,0.2-0.5,0.3
		c-0.5,0.2-1.1,0.3-1.6,0.5c-1.3,0.1-2.6,0.1-3.9,0.2c-2.9-1.7-4.7-0.9-6.4,2c-3.7,6.2-10.4,6.8-16.5,7.2c-3.8,0.2-7.4-1.1-10.1,2.8
		c-0.6,0.8-2.1,1.7-3,1.5c-3.9-0.6-7,2.2-11,1.9c-2.5-0.2-6.5,1.2-7.2,5.3c-4.4-0.4-6.5,2.7-8.2,5.9C554.1,48.5,552.3,50.5,549.1,51
		z"/>
	<path fill="#B78375" d="M628.5,258.2c-2.4-2.2-1-6.6-4.6-8.2c-0.1-1.3-0.2-2.7-0.2-4c2.6-9.4,4.7-18.8,6.1-28.4
		c0.4-2.8-1.2-5.8-4.8-6.6c-0.3-0.1-0.6-0.2-0.9-0.2c-0.4-3.7-0.5-7.4-2.2-10.8c0-1,0-2,0-3c0.7-1.9,2.6-3.9-0.8-5.2
		c-0.1-1-0.1-1.9-0.2-2.9c-1.4-4.3-0.2-9.4-3.9-13.1c0-0.6,0-1.2,0-1.8c6.2-3,6.9-2.8,9.9,2.3c3.2-4.8,4.9-10.3,7.3-15.4
		c0.4,6.4-0.1,12.8-2.1,18.9c-1.3,3.7-1.9,7.2-0.8,11.1c1.4,5.3-0.3,10.8,0.5,16.2c1.4,9.5-0.4,19-1.6,28.4
		c-0.7,5.4-0.8,10.6-0.6,16C629.8,253.8,629.5,256.1,628.5,258.2z"/>
	<path fill="#784E3E" d="M549.1,51c3.2-0.5,5-2.5,6.6-5.3c1.7-3.2,3.8-6.2,8.2-5.9c1.8-0.7,3.2-2.3,5.4-1.9c1.1,0.2,2.7-0.1,3,1.2
		c0.4,1.7-1,1.6-2.3,1.5c-1-0.1-0.9,0.8-0.9,1.4c0,1.1,0.6,1,1.5,1.2c5.9,1.3,7.3,3.1,7.3,8.8c-0.3-0.4-0.6-0.7-0.9-1.1
		c-0.3-0.3-0.6-0.7-0.9-1c-1-0.4-2-0.9-3-1.3c-0.9-2.7-2.6-1.6-4.3-1.1C567,48.2,566,50,564,50c-0.3-1.2,1.7-2.6,0.2-3.6
		c-1.6-1-2.9,0.5-3.6,1.7c-2,3.6-5.6,5.7-8.3,9.2c4.1,1,6.4-0.6,7.7-3.8c0.8-1.9,1.4-3.8,4-3.5c-0.3,0.8-0.3,1.8-0.9,2.3
		c-2.8,2.7-1.6,5.8-1.1,8.8c0.5,3.1,3.2,1.5,4.9,2.1c1.8,0.7,2.5,2.2,2.8,3.8c0.4,2-1.4,2.4-2.8,2.8c-2.5,0.7-4.3,1.5-3.1,4.7
		c0.5,1.4-4.1,4.3-5.7,3.8c-4.9-1.6-9.2-6.5-15.1-2.9c-0.2,0.1-0.8-0.5-1.2-0.8c0.7-3.3,2.1-6,5.1-7.8c2.9-0.3,5.8-0.6,8.7-0.9
		c1-0.1,2.1-0.2,2.1-1.5c-0.1-1.7-1.5-1.6-2.6-1.3c-1.7,0.5-3.4,1-5.3,0.8c-0.2-2.9,1.8-6.5-2.5-8.1c0.2-0.6,0.4-1.1,0.5-1.7
		C549.4,53.6,549.1,52.3,549.1,51L549.1,51z"/>
	<path fill="#784E3E" d="M521,218c7.9,3.8,16.6,5,24.7,8.1c2.1,0.8,4.5,0.9,6.3,2.6c0,0.5,0,0.9-0.1,1.4l0,0
		c-1.7-0.2-2.4,1.5-4.4,1.6c-5.6,0.1-10.3-2.4-15.1-4.6c-1.9-0.9-4.1-2.6-6-1.6c-4.9,2.5-8.2-4.1-12.9-1.8c-1.5-4.3-6.8-1-7.8-3.2
		c-2.9-5.9-8.4-4-12.7-5.6c-0.2-0.1-0.4-0.5-0.6-0.7c0-1.8,2.7-0.3,2.6-2.4c-3.3-1.5-6.8-3.1-10.2-4.6c-2.3-2.4-5.9,0.2-8.2-2.1
		c0.3-1,1.3-1,2.1-1.1c2.4,0.5,2.4-2.6,4.2-2.9c2.4,3.7,7.3,2.2,10.2,5c0.7,0.7,2.6-0.2,3.5,1.1C502.6,215.7,512.5,215.4,521,218z"
		/>
	<path fill="#976757" d="M634.3,161c-2.4,5.2-4.1,10.7-7.3,15.4c-3-5.1-3.7-5.2-9.9-2.3c-0.4-2.9-0.9-5.9-1.1-8.8
		c-0.1-1.8,0.3-4.1,2.6-4c1.7,0.1,4.1,0.2,4.3,3.1c0.1,1.2-0.6,3.6,1.8,3c1.9-0.5,5.1,0.8,5.2-3c0.3-7.8,5.3-14.3,5.7-21.9
		c0.2-3.1,3-5.2,2.3-8.3c1.7-1.7,0.7-4,1.2-5.9c1.8-0.4,1.9-1.7,1.8-3.2c1.5-2.7,1-7,6.2-6.5c1.5,0.2,1.2-3.4,3.4-3.7
		c-1.5,4.3-1.2,9.6-6.7,11.6c-0.4,0.1-0.7,1.1-0.7,1.7C643.1,139.8,639,150.5,634.3,161z M619.9,166.2c-0.3,0.7-0.7,1.1-0.7,1.4
		c0,0.3,0.5,0.6,0.8,0.9c0.2-0.4,0.7-0.7,0.7-1.1C620.8,167.1,620.3,166.7,619.9,166.2z"/>
	<path fill="#25191C" d="M583.6,380.9c-7.6,3.3-15.4,5.6-23.8,5.2c-0.3-5.4,2-8.4,7.3-10.6c3.6-1.5,8.4-0.4,10.9-4.5
		c4.7-0.1,9-2,13.6-2.7c-0.1,0.3,0.1,0.5,0.3,0.5C589.2,372.9,586.4,376.9,583.6,380.9z"/>
	<path fill="#784E3E" d="M697.1,15c1-0.2,2-0.4,3-0.6c1.6,1.3,3.2-0.9,4.8-0.1c0.1,1.5,0.1,3,0.2,4.5c-5.8-3-11.5,0.5-17.2,0.6
		c-0.3,0-0.9,1-1,1.6c-0.4,4.6-3.7,5.5-7.4,6.1c-2,0.3-4.1,0.9-5.6,2.8c-1.6,1.9-3.2,1.1-4.3-0.9c-0.7-1.4-1.4-2.9-2.4-5.1
		c-3,6.1-7.3,6.2-12.1,3.1c4.2-2.2,9.7-1.4,13.1-5.6c8.7-2.1,17.3-4.1,26-6.2C695.2,16.4,696.2,16.2,697.1,15z"/>
	<path fill="#B78375" d="M725.7,45.6c-0.3,0.4-0.4,1.6-0.1,1.8c0.7,0.4,1.1,0.8,1.5,1.1c1.4-6.1,1.9-12.3-0.1-18.5
		c-0.3-0.3-0.6-0.6-0.9-0.9c-1.1,0.4-0.7,1.3-0.9,2C726.1,35.9,729.3,40.7,725.7,45.6z"/>
	<path fill="#B78375" d="M718.7,71.5c0.8-0.9,1.6-1.9,2.4-2.8c0.8-3,1.7-5.9,2.7-8.9c1-3,1.9-5.9,2.7-8.9c-0.7,0.4-1.6,0.8-2,1.2
		c-0.2,3.9-2.9,6.7-4.6,9.8C722.9,65.6,718.8,68.4,718.7,71.5z"/>
	<path fill="#976757" d="M592,368.8c-0.3-0.1-0.4-0.2-0.3-0.5c0.2-3.3-2.1-2.1-3.7-2.1c-1,0.1-2.3,1.2-2.8-0.7
		c-0.4-1.6,4-9.2,5.6-9.5c4.8-0.8,3.9-3.2,2.1-6.1c0.4-0.3,0.8-0.7,1.1-1c1,0.5,1.9,0.8,3.2,0.6c3.1-0.4,4.8,1.1,2.3,3.8
		c-2.7,2.9,1.3,4.8,0.5,7.2C594.9,361,594.5,366,592,368.8z"/>
	<path fill="#B78375" d="M668.1,21.5c-3.4,4.1-8.9,3.3-13.1,5.6c-1.3,0-2.7,0-4,0c-3-2.9-6.8,0.8-9.9-1.1c-1.2-0.9-1.6-2.7-3.4-2.9
		c0-0.3,0-0.5,0-0.8c0.1-2.2,2.6-2.2,3.4-3.7c2.6,1,5.3,2,8.2,1.3c0,0-0.1,0-0.1,0c0.5,1.1,1,0.3,1.5,0
		C656.1,23.9,662.1,22.9,668.1,21.5z"/>
	<path fill="#B78375" d="M704.9,14.2c-1.6-0.7-3.1,1.4-4.8,0.1c7.4-3.3,14.8-6.9,23-2.3c2.3,1.3,3.7,2.7,2.3,5.4
		c-0.8,0.3-1.6,0.6-2.4,0.9c-0.3-0.3-0.6-0.6-1-0.9c-0.3-1.5-1.3-2.8-2.6-2.4C714.4,16.6,709.8,14.4,704.9,14.2z"/>
	<path fill="#B78375" d="M547.4,55.9c4.3,1.7,2.3,5.2,2.5,8.1c-1.2,0.8-2.8,1.1-2.9,2.9c-3,1.8-4.4,4.5-5.1,7.8
		c-4.4,2.5-4.6,7.2-6,11.3c-1.1,0.8-0.4,2.8-2.1,3.2c0.8-8.3,4.1-15.7,9.3-21.9C546.1,63.7,547.8,60.4,547.4,55.9z"/>
	<path fill="#784E3E" d="M585.5,465.1c-3.7-3.6-3.1-8.8-4.2-13.2c-1.3-5.2-1.5-10.7-2.2-16c-0.2-1.3,0.5-2.2,1.7-2.8
		c3.1,6.6,1.7,13.9,3.1,20.8C584.7,457.5,585,461.3,585.5,465.1z"/>
	<path fill="#976757" d="M640.9,18.7c-0.8,1.5-3.3,1.5-3.4,3.7c-3.8-3.8-7.8-6.8-13.5-4.3c0.1-3.2,2.6-3.6,4.6-2.9
		c4.5,1.6,5.7-0.8,6.4-4.3c1.6-0.9,3.3-1,5-0.1C639.1,13.5,636.2,16.5,640.9,18.7z"/>
	<path fill="#784E3E" d="M580.9,431c-3.4-6.4-1.6-13.2-1.6-19.8c0-2.6,1-5.1,0-7.8c-0.7-2,0.5-3.1,2.5-3.4
		C581.5,410.3,581.2,420.6,580.9,431z"/>
	<path fill="#784E3E" d="M640.9,18.7c-4.8-2.1-1.9-5.2-0.9-7.9c4.1,2,6.3,5.9,9.1,9.2C646.2,20.6,643.6,19.6,640.9,18.7z"/>
	<path fill="#B78375" d="M483.1,201c-1.8,0.3-1.8,3.4-4.2,2.9c2.4-4.1,2.9-8.1,0.9-12.6c-1.1-2.5-1.3-5.5-0.4-8.3
		c2.2,0.5,1.6,2.1,1.4,3.6c-0.2,2-0.1,3.9,1.2,5.5c-0.1,1.5,0.4,2.8,1.4,3.9c-0.1,0.7-0.1,1.4-0.2,2.1
		C483.2,199,483.2,200,483.1,201z"/>
	<path fill="#976757" d="M606,356c0.9-2.8-0.3-7,4.7-7.1C610.5,352.2,609.3,354.8,606,356z"/>
	<path fill="#976757" d="M631.7,304c-0.7,0-1.4-0.1-2-0.1c0.1-2.3,0.1-4.6,0.2-7c1.1,0,1.8,0.5,2.2,1.5
		C633.9,300.4,633.2,302.2,631.7,304z"/>
	<path fill="#B78375" d="M549.1,51.1c0.1,1.2,0.3,2.5-1.1,3.1C547.2,52.8,547.2,51.6,549.1,51.1z"/>
	<path fill="#B78375" d="M697.1,15c-0.9,1.2-1.9,1.4-3,0.3C695,14.3,696,14.2,697.1,15z"/>
	<path fill="#5D3829" d="M669,98.7c0.3-0.2,0.7-0.5,1-0.7C669.9,98.5,669.6,99,669,98.7z"/>
	<path fill="#5D3829" d="M683,92.7c0.3-0.2,0.6-0.5,1-0.7C683.9,92.5,683.7,93,683,92.7z"/>
	<path fill="#784E3E" d="M650.5,19.9c-0.5,0.3-1,1.1-1.5,0C649.5,19.4,650,19.4,650.5,19.9z"/>
	<path fill="#5D3829" d="M673,96.7c0.3-0.2,0.7-0.5,1-0.7C673.9,96.5,673.7,97,673,96.7z"/>
	<path fill="#976757" d="M283,378c0.2-4.2,0.1-6.4-6-6.6c-5.9-0.2-11.8-4.4-17.6-6.9c-0.4-0.2-1-0.7-0.9-1.1c0.7-7.6-4-3.8-7-3.2
		c-2.1,0.5-5.3,1.6-5.7-0.7c-0.5-2.9-1.9-6.3,0.3-9.4c1.4-2,2.3-3.6,5.5-2.7c2.7,0.7,5.6,2.2,8.7,0.9c1.4-0.6,2.2,0.5,2.5,1.7
		c0.5,2.2,0,3.9-2.9,4.5c5.4,4.4,10.6-4,15.2,1.1c1.8-2.4,0.5-4.5-0.2-6.3c-1.1-2.9,0-3.7,2.7-3.2c1.6,0.3,3,1.2,3.6-1.6
		c0.4-1.9,0-6.5,4.6-3.2c0.7,0.5,1.1-0.8,1.2-1.7c0.4-5.5,2.4-9.4,8.8-8.9c0.5,0,1.5-0.6,1.6-1c0.5-4.8,4.1-3.8,7.1-3.8
		c2.1,0,4-0.5,5.6-1.7c1.1-0.8,2.4-1.9,3.6-1.1c2.4,1.5,5.8-0.4,6.2-0.2c4.4,2.5,9-1.6,12.9,0.6c2.9,1.7,5.6,1.4,8.6,0.9
		c2-0.3,4.7-2.9,6.3,0.9c0.3,0.6,1.5,0.4,1.7-0.1c2.5-4.6,7.3-2.7,10.9-4c1.7-0.6,3.3-0.5,4.2-2.7c0.7-1.7,3.2-1.5,4.4-2.2
		c3.4-2.2,7.1-2.5,10.8-3c1.8-0.2,3.5-0.9,5.3-1.3c0.4,0.3,0.7,0.5,1.1,0.8c0.1-0.1,0.2-0.3,0.2-0.4c-0.4-0.1-0.9-0.2-1.3-0.4
		c-0.2-2.8-2.2-0.9-3.3-1.3c-1.6-0.6-3-1.7-4.4-2.5c0.6-1.4,1.9-2.1,2.4-1.8c4.5,3.2,7.1,0.5,9.8-2.6c0.9-1,2.1-2.8,3.7,0
		c1.4,2.3,2.7-0.6,4-1.1c1.8-0.7,2.2-2.4,1.2-4.2c-0.6-1.1-2.3-2-0.5-3.2c1.1-0.8,2.2,0.2,3,1.1c2,2.2,4.7,2,6.3,0.4
		c2.6-2.6,5.7-2.4,8.8-2.8c6.4-0.9,9.7-4.5,10.4-11.2c0-0.4,1-0.7,1.5-1c1.4,5.4,2.7,10.8,4.1,16.2c0.9,3.4,3.1,6.5,2.5,10.7
		c-2.3-1.7-4.3-2.6-6,0.1c1.1,2.2,4.1-0.3,5,2.6c-7.9,0.3-6.5,6.5-6.9,11.3c-0.4,4,4,3.3,6,4.9c-0.5,1.4-1.5,1.9-2.4,1.9
		c-4.1,0-7.2,1.9-9,5.3c-1.7,3.3-3.9,3.4-7,2.3c-1.6-0.5-3.3-2.1-5.1-0.5c-0.3,0.3-0.7,1-0.5,1.2c1.3,2,3.3,0.6,5,1.1
		c0.3,0.1,0.4,0.4,0.7,0.6c-2.7,2.1-2.7,2.1-2.2,3.2c1.4,2.5-0.1,5.7-2.7,5c-3.9-1.2-9.2,1.2-11.8-4.1c-0.5-1-2-0.7-2.3,0.4
		c-1.4,5.7-7.2,7.4-10.6,11.2c-2.4,2.6-6.8,2.2-9.4,0.1c-3.1-2.6-5-1.2-5.7,1.1c-1.4,4.7-4.5,4.3-8.1,4.1c-4.8-0.3-9.3-3.7-14.3-0.9
		c-1.1,0.6-1.8-0.5-2.3-1.4c-0.6-1.1-0.4-1.8,0.6-2.5c0.7-0.5,1.8-1.1,0.6-2.8c-1.9,1-4.5,1.6-5.7,3.2c-1.9,2.5-4.2,2.3-5.5,0.9
		c-3.5-3.6-8.2-2.2-12.2-3.6c-3.4-1.2-7.6,0.2-9.1,4.1c-1.2,3.2-1.5,7,3.4,8.2c0.9,0.2,2,1,1.8,2.1c-0.9,6,4.6,6.9,7.4,6.6
		c7.9-1,11.7,4.8,17,8.4l0,0c-4.1,0.2-7.9-2.7-12.2-0.6c-1.6,0.8-1.5-1-1.8-2.1c-0.8-3.5-3.2-4.5-5.2-2c-3.3,4.3-7,2.5-10.9,1.6
		c-5.2-1.2-9.9-5.8-15.3-3.7C292.7,378.3,287.9,377.8,283,378z M405.4,341.6c0.5-3,1.3-4.7-0.7-6.4
		C403.9,337.2,403.7,338.8,405.4,341.6z M337.6,354.1c1.2-0.1,2-0.1,2.7-0.4c0.9-0.4,1.8-1,0.9-2.3
		C339.6,351.5,338.7,352.5,337.6,354.1z M297.4,335.6c0.9,0.1,1.3-0.2,1.1-0.7c-0.2-0.5-0.8-0.9-1.3-1.1c-0.6-0.3-1,0.1-0.8,0.6
		C296.6,334.9,297.1,335.3,297.4,335.6z M309.4,364.3c0.3,0.1,0.6,0.4,0.8,0.3c0.2-0.1,0.3-0.5,0.4-0.8c-0.3-0.1-0.6-0.4-0.8-0.3
		C309.6,363.6,309.5,364,309.4,364.3z"/>
	<path fill="#976757" d="M552,230c0-0.5,0-0.9,0.1-1.4c8.8,1.3,17,4.4,25,8.3c-1.8,1.8-0.6,4.9-2.7,6.7c-0.7,0.6-0.2,1.9,0.7,2.6
		c0.9,0.7,1.3,0.1,1.9-0.6c1.6-1.8,0.9,0.6,1.3,0.9c4.1,2.7,3.5,8.3,7.3,11.5c2.2,1.8,3.7,3,6.8,3.3c3.5,0.3,7.8,0.4,10.5,4.2
		c1.5,2.2,5.1,2.3,6.4,5c0.5,1.1,2,2,1.3,3.5c-0.7,1.3-2,0.8-3.1,0.9c-1.5,0.1-3.6-0.4-3.8,1.4c-0.3,2.4,2.1,1.2,3.3,1.6
		c2,0.7,2.9,3.3,5.5,2.7c0,0.6,0.3,1.3,0.1,1.8c-0.4,1-1.3,1.5-2.4,1c-5.9-2.3-7.2,4.4-11.4,5.9c-1.3,0.4,1.1,1.3,2.2,1.6l0,0
		c0.1,1.8,0.4,4,2.7,2.4c2.7-1.9,5.6-1.7,7.3,0.1c2.1,2.1,3.6,5.2,1.9,8.6c-1.7,0-3.1-0.3-4.5-1.5c-3.4-2.9-5.7-0.7-7.5,2.3
		c-0.7,1.3-1,2.8-1.6,4.2c-3.6,7.5-8.2,14.4-13.1,21.1c-2.8,3.9-10.6,5.7-14.9,4.1c-1.5-0.6-1.9-0.8-1.8-2.6c0.5-6.7-2-9.2-8.9-9.5
		c-2.4-0.1-3.6-0.2-2.9-3.3c1.3-5.3-4-13.3-9.5-14.6c-1.8-0.4-2.6-1.1-3.8-2.4c-2.4-2.6-5.3-3.7-9.3-2.8c-4.4,1.1-9.2,1.7-13.8,0.2
		c-1.9-0.6-3.5,0.7-5.3,0.9l0,0c-0.1-0.9,0.3-2.3-0.9-2.5c-3.1-0.6-9.5,3.8-11.1,7.5l0,0c-1.4,0.7-2.7,1.3-3.1,3.3
		c-1,4.7-4.8,7.5-7.9,10.7c-0.6-0.6-1.7-1.5-1.6-1.7c2.4-3.7,1.4-9.4,6.6-11.3c2.6-1,1.8-1.7,0.3-2.9c-3.3-2.6-2.8-6.6,1-8.2
		c0.8-0.3,1.6-0.6,1.5-1.6c-0.2-1.3-1.6-1.7-2.2-1.2c-3,2.6-7.8-1.3-10.2,2.9c-0.3,0.6-1.2,0.8-1.7,0.3c-0.4-0.4-0.6-1.3-0.5-1.8
		c0.5-1.5,1.2-3,1.8-4.5c2.1-0.6,4.1-1.3,6.3-1.1c1.2,0.1,3-0.3,2.5-1.6c-1.2-3.4-2-6.5,0.6-9.5c-4.1-4.2-1.2-8.2,0.3-12.3
		c0.4-1,0.3-2-0.6-2.7c-1-0.9-2.2-1-3.1-0.1c-1.5,1.5-3.2,1.5-5.3,1.7c-7,0.7-11.4,8.9-7.4,14c2.7,3.5,5.7,6.7,5.8,11.4
		c-2.8,1.8-4.2-0.8-5.8-2c-1.5-1.2-2.7-3-3.5-4.7c-2-4.9-5.3-5.2-9.5-3.3c-1.2,0.6-3.3,2.3-2.7-1.3c0.2-1.5-1-1.4-2-1.5
		c-1.3-0.2-3.2,2-3.8,0.1c-0.8-2.6-3.9-4.9-1.5-9c0.1-0.4-0.2-0.1-0.2,0.3c-0.1,1,0.6,0.1,0.8,0.3c0.2-0.3,0.4-0.7,0.6-1
		c-0.3-0.1-0.5-0.2-1.2,0.4c-2.4,1.3-4.7,2.2-5.8-0.5c-1.2-2.8-0.8-6,1.2-7.9c1.6-1.5,4.4-0.4,5.2,1.8c1.4,3.7,4.9,4.2,7.6,6
		c1.6,1,3.3,0.4,4.4-1c1.1-1.4,2.2-3.2,1.5-4.9c-3-7.1-0.6-13.8,6.1-16.3c-2.8-2.5-1.2-7-4.2-9.4c-0.1-0.1,0-0.9,0.1-0.9
		c3.3-0.1,3.1-3.6,5-4.9c1.4-1,2.3-0.9,1.1-3c-1.4-2.4,2.1-1.7,2.9-3.6c-1.9-0.8-3.9-1.9-6-2.4c-1.8-0.4-3.4-1.1-3.5-2.9
		c-0.1-2.2,2.4-1.6,3.5-1.7c4-0.4,5.6-1.6,2.8-5.3c1.4-2,3.8,1.1,4.9-1.2c3.4,1.6,6.8,3.1,10.2,4.6c0,2.2-2.6,0.7-2.6,2.4
		c0.2,0.2,0.3,0.6,0.6,0.7c4.3,1.6,9.9-0.3,12.7,5.6c1,2.2,6.4-1,7.8,3.2c4.6-2.3,8,4.3,12.9,1.8c1.9-1,4,0.7,6,1.6
		c4.8,2.2,9.4,4.7,15.1,4.6C549.6,231.5,550.3,229.8,552,230c0.1,0.7,0.3,1.5,0.4,2.2c0.1-0.1,0.3-0.1,0.4-0.3
		C553.1,231.1,552.8,230.4,552,230z M561,274c-2.1,0.5-4.3,1.4-6.1-0.7c1.4-0.8,4,0.5,4.1-2.3c0.4-0.2,1.4,0.5,1.1-0.7
		c-0.3,0.3-0.7,0.5-1,0.8c-3.1,0.9,0.9-5.1-3.2-3.3c-0.7,0.3-1.4,1.3-2.1,0.2c-0.6-1,0.1-2,0.9-2.5c1.4-1,2.8-2.1,4.7-2.5
		c3-0.7,6-1.8,8.4-3.8c1.7-1.4,0.5-1.8-0.8-2l0,0c-0.2-1,0.4-2.6-1.4-2.7c-3.9-0.2-9.2-1.9-9.6-4.2c-0.9-5-6-2.8-7.3-6
		c-0.1-0.3-0.4-0.6-0.5-0.9c-0.7-1.6-0.5-4.1-3-3.9c-2.2,0.2-0.5,3.1-1.9,4c-6.6-1.9-12.4-5.5-19.1-6.7c-1-0.2-2.2-0.9-2.7,0.1
		c-2.4,5.1-8.4,5.2-11.9,8.5c-1.9,1.8-7.4,2.2-4.7,6.8c2.6,4.3,1,5.8-3.6,6.5c5.6,4.1,4,9.9,3.8,14.9c-0.2,7.5,1.7,9.7,9.3,8.2
		c1.8-0.4,4.3-0.4,5.7,0.2c2.2,0.9-0.8,2.2-0.9,3.5c-0.1,1,0.4,1.6,1.3,1.7c4.9,0.3,9.9,2.6,14.5-0.2c2-1.2,3.9,2.7,4.6,0.1
		c1.1-3.9,3.2-2.4,4.6-1.2c2.3,2-0.7,3.1-2.2,5.3c4.6-1.3,7.8,1.3,11.3,1.1c0.4,1.9-2.2,1.7-1.7,3.5c1.4,1,2.9,0.4,4.3,0.6l0,0
		c1.4,3.9,3.7,1.2,4.9,0.3c3.1-2.4,5.6-5.6,9.7-6.4c1.4-0.3,1.2-1.7,1.3-2.9c0.3-3.8-4.3-10-8.6-10.4
		C560.9,276.4,561.1,275.5,561,274c0.1,0,0.3-0.1,0.4-0.1c0.1,0,0.1-0.2,0.1-0.3C561.3,273.7,561.1,273.9,561,274z M579.5,290.5
		c-0.1,0-0.7,0-0.7,0c-0.5,3.3-7.6,3.9-3.8,9c0.7,0.9,0.7,1.6-0.1,2.6c-1.3,1.6-1.5,3.3,0.3,4.7c1.9,1.5,3.8,2.5,6,0.4
		c1.5-1.5,3.2-2.4,4.8,0.1c0.8,1.4,2.4,2.1,3.9,1.3c1.5-0.8,2.6-1.8,2.6-4.2c-0.1-2.9,0.1-6.3,2.9-8.6c0.8-0.7,2.2-2.2,0.8-3.4
		c-1.3-1.1-2.4,0.3-3.3,1.3c-0.8,0.8-1.5,1.8-2.4,2.5c-2,1.6-3.6,3.1-4.9-1C584.9,293,582.6,290.9,579.5,290.5z M576.1,311.1
		c-0.6,0.4-1.7,0.6-1.6,1.8c0,0.8,0.8,0.9,1.5,0.8c0.9-0.1,1.5-0.7,1.7-1.5C577.7,311.4,577,311.2,576.1,311.1z"/>
	<path fill="#784E3E" d="M283,378c4.9-0.2,9.6,0.2,14.6-1.7c5.4-2.2,10.2,2.5,15.3,3.7c3.9,0.9,7.6,2.7,10.9-1.6
		c2-2.6,4.4-1.5,5.2,2c0.2,1.1,0.2,2.9,1.8,2.1c4.3-2.2,8.2,0.7,12.2,0.6c-0.8,3.3-2.9,1.6-4.7,1.3c-1.2-0.2-3.3-0.6-2.6,1.3
		c0.9,2.3,2.5,5.1,5.7,4.5c2.1-0.4,4-1.5,6.2-0.5c1,0.4,2-0.5,2.2-1.5c0.2-0.7-0.1-1.6-0.2-2.4c-3,1-3.8-3.2-6.5-2.7
		c-5.2-3.6-9-9.4-17-8.4c-2.7,0.3-8.3-0.6-7.4-6.6c0.2-1.1-0.9-1.8-1.8-2.1c-4.9-1.2-4.5-5-3.4-8.2c1.5-3.9,5.7-5.3,9.1-4.1
		c4,1.4,8.7-0.1,12.2,3.6c1.3,1.4,3.7,1.6,5.5-0.9c1.2-1.6,3.8-2.2,5.7-3.2c1.2,1.7,0.1,2.2-0.6,2.8c-1,0.7-1.2,1.5-0.6,2.5
		c0.5,0.9,1.2,2,2.3,1.4c5-2.7,9.6,0.6,14.3,0.9c3.6,0.2,6.7,0.6,8.1-4.1c0.7-2.3,2.6-3.7,5.7-1.1c2.6,2.1,7,2.5,9.4-0.1
		c3.5-3.8,9.2-5.4,10.6-11.2c0.3-1.2,1.8-1.5,2.3-0.4c2.6,5.3,7.9,2.9,11.8,4.1c2.5,0.8,4-2.4,2.7-5c-0.6-1-0.6-1,2.2-3.2
		c-0.2-0.2-0.4-0.5-0.7-0.6c-1.6-0.5-3.7,0.9-5-1.1c-0.1-0.2,0.2-1,0.5-1.2c1.8-1.5,3.6,0,5.1,0.5c3.1,1.1,5.2,1,7-2.3
		c1.8-3.5,4.9-5.3,9-5.3c0.9,0,1.9-0.5,2.4-1.9c-2-1.6-6.3-0.9-6-4.9c0.4-4.8-1-10.9,6.9-11.3c-0.9-2.9-3.9-0.5-5-2.6
		c1.6-2.7,3.6-1.8,6-0.1c0.6-4.2-1.6-7.3-2.5-10.7c-1.4-5.4-2.7-10.8-4.1-16.2c0.4-1,0.8-1.9,1.2-2.9c2.9-0.2,1.1,4,3.8,4
		c-2.5,2.9,0.6,2.8,1.8,2.9c3.3,0.4,12.3-5.6,13.7-9l0.2-0.1c1.9,2.5,2.1,5.4,1.9,8.8c-4-4.1-12.5-0.1-16.5,7.3
		c-0.1-0.7,0.2-1.6-0.6-2.2c-0.7,1.2-0.7,2.3,0.6,3.2c0.7,0.7,1.4,1.4,2.1,2.1c0.3,0,0.6,0,0.9,0c-0.8,2.3-2.5,4.7,1,6.2
		c-0.3,2.9,0.5,4.7,3.8,3.4c2.6-1,3.2,0.2,3.3,2.4c-0.7,0.3-1.4,0.6-2.2,0.9c-2.7-1.1-1.7,1-1.8,2.1c-0.1,0.7-0.3,1.5-0.4,2.2
		c-3.4,5.7-0.3,10.8,7.2,12.1c0,3.4,4.1,2.5,5.2,4.9c1.2,2.5,3.2,1.7,5,0.5c3.6,2.5,4.9,6.8,7.7,9.9c5.3,5.9,10.1,12.2,15.1,18.3
		c-0.1,10-6.4,15.4-16.5,14.2c-0.3,0-0.8,0-1,0.2c-3,3.2-5.8,0.6-7.9-0.8c-4.1-2.7-7.8-6.1-12.9-6.9c-1-0.2-1.7-1.2-1.5-2.3
		c0.2-1.3,1.3-1.4,2.3-1.4c3.1,0.1,5.9-0.8,8.8-1.7c2.5-0.7,4.7-2.9,7.6-0.5c0.8,0.7,2.7,0.2,3.5-1.1c0.9-1.3,0.9-2.9,0.1-4.3
		c-0.4-0.8-2-1.4-2-2.1c-0.2-5.8-1.9-2.5-4.3-1.2c-1.9,1-4.7,0.4-7.1,0.6c0.2-6.6-4-6.4-8.7-5.9c-0.8,0.1-1.7-0.9-2.6-1.3
		c-1.4-0.6-2.9,0.3-2.3,1.4c2.3,4.4-1.7,3.9-3.6,5c-0.3-0.5-0.4-1.4-0.8-1.5c-1.1-0.2-1.1,0.8-1.2,1.5c-4.4,1.1-8.7,2.4-12,5.7
		c-1.5,1.6-3.1,2.1-3.7,0c-1.2-4.1-2.6-1.7-3.9-0.4c-1.3,1.2-2.6,1.9-4.4,1.8c-1.6-0.1-3.4,0.1-3.6,1.9c-0.5,3.9-3.3,3.5-5.6,2.9
		c-2.8-0.7-5-0.3-7.5,1.2c-2.1,1.3-4.5,2.1-6.4-0.8c-1.2-1.9-3.2-1.9-3.7,0.2c-1.3,5.7-6.5,4.9-10.2,6.4c-1.7,0.7-4.7-0.3-4.6,2.5
		c0,2,1.9,3.8,4,4.6c1.7,0.7,3.2,1.1,3.8,3.4c0.9,3.9,7.6,6.8,11.2,4.8c4-2.3,8.7-2.1,12.8-3.9c2.6-1.1,4.4,0.9,5.8,2.8
		c1.4,1.9,1.7,4-0.2,5.8c-1.2,1.1-1.5,2.5-2.1,3.9c-1.9,4.6-5.5,5.6-10,4.6c-1.7-0.4-3.4-0.6-5.1-0.9c2.9,3.6,3.6,9.7,10,8.6
		c1.3-0.2,2.3,0.4,2.3,1.9c0,1.6-1,1.9-2.3,2c-1.5,0.1-3.1,0-3.1,2.6c3-0.3,6-1.3,9.3,0.1c-7.7,5.8-16.6,6.5-25.1,7.8
		c-7.3,1.1-11.2-0.7-12.4-5.6c-0.9-3.6-2.7-4.1-5.7-3.9c-2.5,0.1-5,0-7.5,0c-1.1,0-2.3,0.1-3-1.3c-1.8-4-6.5-4.6-9-7.9
		c-0.4-0.5-1.1-0.6-1.8-0.3c-5.1,2-10.3-0.3-12.5-5.5c-1.2-2.8-13.4-12.1-15.2-10.8c-3.8,2.8-7.3,0.4-10.8,0.6
		c-6,0.3-12,0.5-17.8-1.6c-1.2-0.4-3-1.1-3.6,0.7c3.2,4.3,9.2,1.7,12.4,5.7c-0.3,0.5-0.7,0.9-1,1.4c-1.9-0.6-3.7-1.8-5.6-1.8
		c-2.6,0-5.3,1.1-7.6-0.5c-2.2-1.5-4.5-1.8-7-1.8c-1.6,0-3.5,0.4-3.7-2.1c-0.2-2.1,0-3.9,2.3-5c1.9-0.9,3.9-0.7,5.8-0.8
		c1.6-0.1,3.5,0.5,3.9-1.9C279,378.1,281,378,283,378z"/>
	<path fill="#976757" d="M277.1,378.1c-0.4,2.4-2.3,1.9-3.9,1.9c-2,0.1-3.9-0.1-5.8,0.8c-2.2,1.1-2.4,2.9-2.3,5
		c0.2,2.5,2.1,2.2,3.7,2.1c2.5-0.1,4.8,0.2,7,1.8c2.3,1.6,5,0.5,7.6,0.5c1.9,0,3.7,1.2,5.6,1.8c0.8,4.2,4.7,3.7,9.1,5.1
		c-5.3,0.9-5.1,5.1-7.6,6.9c-3.4,2.6-7.7,2.7-11.7,2.9c-4.4,0.2-7.6,2.2-9.5,5.9c-1,1.9-2.1,2.4-3.8,2.2c-3.5-0.5-6.6,2-7.6,3.8
		c-1.9,3.6-5.1,4.3-7.9,5.9c-1.3,0.7-3.3,1.3-3.6,2.4c-1.6,4.7-5.4,3.1-8.5,3.4c-1.3,0.1-2.6-0.3-3.9-0.4c0.1-1.7,1.5-1.7,2.7-2.1
		c2.2-0.8,4.7-1.6,4.3-4.8c0.3-1,2.6-1.3,1.4-2.5c-1.4-1.3-2.5,0.1-3.3,1.4c-0.7,0-1.3,0-2-0.1c-0.1-0.3-0.1-0.8-0.3-0.9
		c-2-1.1-15.3,1.7-16.6,3.5c-0.2,0.3-0.1,1-0.2,1.4c-1.2,0.8-2.5,1.2-4,1.1c-1.6-1.7-2.6-1.2-3.1,0.9c-0.6,0-1.3,0.1-1.9,0.1
		c-1.4-0.6-2.2-2.2-4.3-1.5c-4.3,1.5-8.6,2.8-10.7,7.4c-0.3,0-0.7,0-1,0c-0.4-1.1-1.3-2.1-0.7-3.3c1.4-3.2-1.1-4.4-3-4.3
		c-3.2,0.3-6.2-1.1-9.3-0.4c-1-1.3-2-2.6-3.1-3.9c0-1,0-2,0-3c0.7,0,1.3-0.1,2-0.1c7.4,0.1,7.8-1.5,5.8-8.8c-1.4-5-2.5-10.7,0-16
		c0.3-0.6,0.8-1.1,1-1.7c0.3-1.2-2-4.1,1.5-3c1.3,0.4,5.4,1.2,3.3,5c-0.3,0.5-0.5,1.5-0.3,1.9c3.2,4.2,5.7,9.3,9.9,12.2
		c3.5,2.4,7.4,6.4,12.9,4.6c0.4-0.1,1.5,0.5,1.5,0.9c1.5,7.7,4.9,3,7.9,1.3c0.7-0.4,1.7-0.3,2-1.8c-2.8-0.3-4.5-1.3-4.9-4.9
		c-0.5-4.7-4.4-6.8-9.3-6.1c0.4-1.8,1.9-2.5,2.7-2.4c5.1,0.6,5-3.9,5.5-6.4c0.8-3.4-3.1-6.4-5.3-6.7c-3-0.4-6-2.9-9.5-1.2
		c-1.6,0.8-4,0.9-5.2-1.5c-1.2-2.5,1.3-2.7,2.3-3.7c1.7-1.5,2.6-3.6,4.7-5c2-1.3,3.2-2.9,5.6-1.1c0.4,0.3,1.5,0.1,1.8-0.3
		c3.4-5.3,9.7-3.1,14.2-5.5c0.9-0.5,1.6-0.2,2.2,0.4c3.6,3.7,8.6,5.6,11.6,9.9c1.1,1.6,2.7,2.7,4,1c1.9-2.5,4.3-2.2,6.7-2.1
		C261.5,378.3,269.3,377.2,277.1,378.1z"/>
	<path fill="#25191C" d="M481,359c-5-6.1-9.8-12.4-15.1-18.3c-2.8-3.2-4.2-7.4-7.7-9.9c0-3.4-3.1-5.1-4.3-7.8c6-6.8,6-12.7,0.1-17
		c0,0,0,0,0,0c0-2.3-0.1-4.5,0-6.8c0.1-3-1.4-3.7-4-3c-4.7,0.7-8.7,2.7-12,6c-3.5-1.5-1.9-3.9-1-6.2c4.9-1.8,10-3.1,13.3-7.5
		c-5.1,1.8-10.3,3.5-14.2,7.5c-0.7-0.7-1.4-1.4-2.1-2.1c0-0.3,0-0.7,0-1c4-7.3,12.5-11.4,16.5-7.3c0.2-3.4,0-6.2-1.9-8.8
		c0-1-0.1-2-0.1-3l0.1-0.4l-0.4-0.3c-1.3-2.4-0.4-5.5-2.4-7.7c-1.2,0.9-0.1,2.8-1.5,3.1c-1.5,0.3-1.5-1.4-2.1-2.3
		c-1.5-2.4-0.9-4.8-0.2-7.2c1,0,2,0,3,0c0.1,1.3-0.3,2.9,1.8,3c2.1,4.3,4.1,8.6,6.2,13c0.2,3.6,2.2,6.6,2.9,10.1
		c0.7,2.8,0.9,5.8,3.2,7.9c0,0.8,0.3,1.5,1.1,1.9c0.1,0.8-0.2,1.8,0.2,2.4c6,9.2,9.6,19.6,15.3,29c0.8,1.3,1.5,2.6,3.2,2.9
		c0.1,0.9,0.2,1.8,0.3,2.7c-0.1,2.3,0.9,4.6,2.6,5.7c3.9,2.6,5,6.3,5.5,10.5c-0.3,3.5-2.5,7.1,0.8,10.5c1.3,1.3-0.9,2.1-1.3,3.2
		C484.2,362.4,482.7,360.6,481,359z"/>
	<path fill="#784E3E" d="M179,419.1c0,1,0,2,0,3c-2.2,1.5-3.8,3.4-5.2,5.8c-1.2,2.3-2.4,4.8-4.9,6.5c-6.7,4.7-12.9,10-19.6,14.5
		c-2.1,1.4-4.7,3.3-7.6,3c-4.2-0.4-8.2,0.4-11.1,3.2c-5.4,5.1-15.9,1.1-18.6,10.6c0,0.1-0.3,0.2-0.5,0.2c-4-0.2-3.4,2.7-3.4,5.1
		c-1,0.7-2,0.7-3,0.2c0-1,1.6-2.1,0-3c-4.3-2.3-11.7,1.7-11.9,6.5c-6.6,2.2-13.2,1.8-19.8,0.5c-0.4-0.4-0.8-0.9-1.1-1.3
		c-0.1-1.6,0.1-3.4,1.9-3.6c3.5-0.4,6.9-0.2,8.2-4.6c0.4-1.2,2.1,0,3.2,0.2c6,1.5,7.9,0.3,8.7-5.6c0.3-2.6,1.1-4.4,4.2-4.4
		c9.7,0,18.9-2.6,28.1-5.1c10.1-2.8,20.8-4.6,29.2-11.7c2-1.7,4.6-1.8,6.8-3.3c5.7-3.7,8.7-9,12.1-14.3c0.9-1.3,2.3-2.3,3.5-3.4
		C178.3,418.4,178.6,418.7,179,419.1z"/>
	<path fill="#976757" d="M448.5,273.9c0,1,0.1,2,0.1,3c0,0-0.2,0.1-0.3,0.1c-1.4-2-2.9-0.7-4.3,0c-3.8,2-7.5,4-11.2,6.1
		c-2.6-0.1-0.9-4.2-3.8-4c-0.1-0.3-0.1-0.6-0.1-0.9c0-0.4,0-0.8,0-1.2c0,0,0,0,0,0c1.8-0.1,2.5-0.7,0.9-2.2c0.2-0.3,0.5-0.5,0.7-0.8
		c1,0,2,0.1,2.1-1.3c0.2-4.6-1.8-6.6-6.7-6.6c-0.7-7.6,0.3-14.5,5.9-20.3c2.1-2.2,1.7-6,4.8-8.4c-0.1,2.8,1.9,4.3,2.3,6.6
		c-2.5,3.1-5.5,5.7-8.9,7.8c-1.1,0.7-1.5,2.1-0.9,3.1c0.8,1.4,2.3,0.4,3-0.1c2.5-1.6,5-3.1,8.6-2.8c-3.9,4-8.8,6-12.8,9.2
		c-0.1,1.3-0.8,2.7,1.2,3.2c4.5-0.5,7.6-4.3,11.9-5.3c0.2,0.1,0.5,0.2,0.7,0.2c-0.7,2.4-1.3,4.8,0.2,7.2c0.6,0.9,0.6,2.6,2.1,2.3
		c1.4-0.3,0.3-2.2,1.5-3.1c2,2.2,1.1,5.3,2.4,7.7C448.1,273.5,448.2,273.7,448.5,273.9z"/>
	<path fill="#784E3E" d="M487,286.9c-0.1-4.8-3.1-7.9-5.8-11.4c-3.9-5.1,0.4-13.4,7.4-14c2.1-0.2,3.7-0.2,5.3-1.7
		c0.9-0.9,2.1-0.9,3.1,0.1c0.8,0.8,0.9,1.7,0.6,2.7c-1.5,4.1-4.4,8.1-0.3,12.3c-2.6,3-1.8,6.1-0.6,9.5c0.5,1.3-1.3,1.7-2.5,1.6
		c-2.2-0.2-4.3,0.6-6.3,1.1C487.6,287,487.3,287,487,286.9z"/>
	<path fill="#976757" d="M460.1,294.9c-0.8-0.4-1.1-1.1-1.1-1.9c1.2-0.7,0.9-2,1.1-3.1c3.7,2,7.8,3.7,8,8.9c0.1,1.4,0.4,2,2.2,1.4
		c2.2-0.7,2.3-0.5,2.9,3.5c3.1-8.6,9.3-6.3,14.9-5.8l0,0c-2.7,3.8-3.2,8.9-7,12c0-1.2,0-2.3-0.1-3.5c-0.1-1.1,0.6-2.6-1-3
		c-1.4-0.3-2.1,1.2-2.2,2.2c-0.4,4.1-4.6,7.9-1,12.5c0.8,1,0.1,3.1,0.1,4.7c-1.7-3.2-4.7-6.2-5.2-9.1c-1-6-5.1-10.3-6.7-15.8
		C464.4,296.1,462.8,294.4,460.1,294.9z"/>
	<path fill="#784E3E" d="M460.1,294.9c2.7-0.6,4.3,1.2,4.8,3.2c1.5,5.5,5.6,9.8,6.7,15.8c0.5,2.9,3.5,5.9,5.2,9.1
		c0-1.6,0.7-3.7-0.1-4.7c-3.6-4.6,0.6-8.4,1-12.5c0.1-1,0.8-2.5,2.2-2.2c1.6,0.3,0.9,1.9,1,3c0.1,1.2,0.1,2.3,0.1,3.5
		c-0.3,3-0.6,5.9-0.9,8.9c-1.6,3.3-0.9,6.9-1.3,10.3c-1.7-0.3-2.4-1.6-3.2-2.9c-5.7-9.3-9.3-19.8-15.3-29
		C460,296.8,460.2,295.7,460.1,294.9z"/>
	<path fill="#784E3E" d="M428.1,261c4-3.2,8.9-5.2,12.8-9.2c-3.6-0.4-6.1,1.2-8.6,2.8c-0.7,0.5-2.2,1.5-3,0.1
		c-0.6-1-0.2-2.4,0.9-3.1c3.4-2.1,6.4-4.7,8.9-7.8c2.9,3.6,4.7,7.8,6,12.2c0,1,0,2-0.1,3c-1,0-2,0-3,0c-0.3,0-0.5-0.1-0.7-0.2
		c0.2-0.9,0.9-2.2,0.5-2.7c-1-1.4-2,0.1-2.8,0.6c-3.2,2-6,4.6-9.9,5.2C428.7,261.6,428.4,261.3,428.1,261z"/>
	<path fill="#976757" d="M194.3,374.7c-1.3-4.5,3.5-15.8,6.7-17.7c0.9-0.5,1.5-0.7,2,0.3c1,1.8,2.6,3.7,0.8,5.9
		c-1.7,2-3.4,4.1-5.4,5.7C196.6,370.4,194.3,371.6,194.3,374.7z"/>
	<path fill="#976757" d="M455.8,285.1c-0.7-3.4-2.7-6.5-2.9-10.1c0.9,0.1,2.4-0.9,2.7,0c1.3,3.9,2.2,8,3.3,12
		C457.9,286.4,456.9,285.7,455.8,285.1z"/>
	<path fill="#5D3829" d="M426,266c4.9,0,6.8,2,6.7,6.6c-0.1,1.5-1.1,1.3-2.1,1.3c0-1.1-0.9-1.5-1.6-2.1c-0.2-2-1.7-1.9-3.1-1.8
		c-0.1-0.3-0.2-0.6-0.3-0.9C425.8,268.1,425.9,267.1,426,266L426,266z"/>
	<path fill="#976757" d="M399.2,292.9c0.5-1.1,0.6-1.5,0.8-1.6c2.1-0.7,4.1-2.2,6.5-1.5c0.8,0.2,0.6,2.1,0.3,2.1
		C404.4,292.4,402,292.6,399.2,292.9z"/>
	<path fill="#784E3E" d="M455.8,285.1c1,0.6,2.1,1.3,3.1,1.9c0.4,1,0.8,1.9,1.1,2.9c-0.2,1.1,0.1,2.3-1.1,3.1
		C456.7,290.9,456.5,287.9,455.8,285.1z"/>
	<path fill="#976757" d="M444.9,259.1c0-1,0-2,0.1-3c1.6-0.2,1.9,1.5,3,2l0,0c-0.1,1.4,0.5,3.1-1.2,4.1
		C444.7,262,445.1,260.4,444.9,259.1z"/>
	<path fill="#784E3E" d="M425.9,270c1.4,0,2.9-0.2,3.1,1.8C427.6,272,426.1,272.1,425.9,270z"/>
	<path fill="#976757" d="M416.3,289.2c0.3,0.6,0.6,1,0.6,1.4c0,0.7-0.5,1.2-1.2,0.8c-0.3-0.2-0.4-0.8-0.3-1.2
		C415.3,289.9,415.8,289.6,416.3,289.2z"/>
	<path fill="#976757" d="M426,266c-0.1,1-0.2,2.1-0.4,3.1C422.9,267.8,424.5,266.9,426,266z"/>
	<path fill="#784E3E" d="M429.9,274.8c1.6,1.6,0.8,2.1-0.9,2.2C429.3,276.2,429.6,275.5,429.9,274.8z"/>
	<path fill="#976757" d="M448,258c0.2-0.7,0.1-1.6,1.2-1.5c0.1,0,0.3,0.2,0.3,0.3C449.6,257.9,448.7,257.9,448,258
		C448,258,448,258,448,258z"/>
	<path fill="#784E3E" d="M429,277c0,0.4,0,0.8,0,1.2c-0.4-0.2-1.3,0-1.1-0.8C427.8,277.2,428.6,277.1,429,277z"/>
	<path fill="#976757" d="M488,298c0.1-0.1,0.3-0.3,0.4-0.4c0,0.1,0,0.2-0.1,0.3C488.3,297.9,488.1,298,488,298
		C488,298,488,298,488,298z"/>
	<path fill="#5D3829" d="M481,359c1.6,1.6,3.1,3.4,5.8,2.8c0.1,1.4,0.2,2.8,0.3,4.2c0,0-0.4,0-0.4,0c-3.3-0.1-3.3,2.7-4,4.8
		c-0.9,2.8-2,5.5-5.2,6.1c-6.2,1.2-11.5,7.5-18.6,3.2c-0.2-0.1-0.7,0-1,0.1c-0.9,0.4-2.1,0.5-2.3,1.6c-0.2,1.3,1.2,1.8,2,1.7
		c4.9-0.1,8.4,3.8,13,4.3c1.5,0.2,3,0.8,1.8,2.5c-2,2.7-3.4,5.2,0.1,7.5c2.7,1.8,1.7,5.9,5,7.1c4.8,1.8,9.9,1.7,14.8,2.8
		c6.6,8.1,11.1,17.1,12.6,27.5c-3.2-1.8-6.3-0.8-9.5,0.2c-4.4,1.4-8.7,3.4-13.5,2.4c-2.5-1.1-5.1-2.8-6,1.7
		c-8.7,0.8-17.3,0.6-26,0.2c-0.2-2.7,1.1-4,3.9-3.9c1.6,0.1,3.2,0.1,4.3-2c-3.7,0.1-6.8-0.6-10-1.6c-7.4-2.4-12,0.7-12.2,7.6
		c-3,0-6,0-9,0c-0.3-2.7-2.5-1.7-4-2c-2.9-0.7-5.7-1.7-8.7-1.9c-7.9-0.7-15.8-1.4-22.1-7.2c-0.7-0.6-1.8-0.7-2.8-0.9
		c-8.5-2.2-17.3-2.3-25.9-1.8c-6.8,0.4-11.6-1.8-16.2-6.7c-1.9-2-3.9-5.6-7.8-5.3c-0.7-0.1-1.4-0.3-2.2-0.4
		c-3.9-7.3-10-12.3-17.3-15.4c-9.6-4-19.5-7.2-30-7.7c-3.2-4-9.2-1.4-12.4-5.7c0.6-1.8,2.4-1.1,3.6-0.7c5.8,2.1,11.8,2,17.8,1.6
		c3.6-0.2,7,2.2,10.8-0.6c1.8-1.3,14,8,15.2,10.8c2.1,5.1,7.4,7.5,12.5,5.5c0.7-0.3,1.4-0.3,1.8,0.3c2.4,3.3,7.2,3.9,9,7.9
		c0.6,1.4,1.8,1.3,3,1.3c2.5,0,5,0.1,7.5,0c2.9-0.1,4.8,0.4,5.7,3.9c1.2,4.9,5,6.7,12.4,5.6c8.5-1.3,17.4-1.9,25.1-7.8
		c-3.2-1.4-6.3-0.4-9.3-0.1c0-2.6,1.7-2.5,3.1-2.6c1.3-0.1,2.3-0.5,2.3-2c0-1.5-1.1-2.1-2.3-1.9c-6.5,1-7.1-5-10-8.6
		c1.7,0.3,3.4,0.6,5.1,0.9c4.5,1,8,0,10-4.6c0.6-1.4,0.9-2.8,2.1-3.9c2-1.8,1.7-3.9,0.2-5.8c-1.4-1.9-3.1-3.9-5.8-2.8
		c-4.1,1.8-8.8,1.6-12.8,3.9c-3.6,2-10.3-0.9-11.2-4.8c-0.5-2.3-2.1-2.7-3.8-3.4c-2.1-0.8-4-2.6-4-4.6c-0.1-2.8,2.9-1.8,4.6-2.5
		c3.7-1.5,8.9-0.6,10.2-6.4c0.5-2.2,2.5-2.1,3.7-0.2c1.9,2.9,4.4,2.1,6.4,0.8c2.4-1.6,4.6-1.9,7.5-1.2c2.2,0.6,5.1,1.1,5.6-2.9
		c0.2-1.8,2-2,3.6-1.9c1.8,0.1,3.2-0.6,4.4-1.8c1.3-1.3,2.7-3.7,3.9,0.4c0.6,2.1,2.2,1.6,3.7,0c3.3-3.3,7.6-4.6,12-5.7l0,0
		c0.1,0.9-0.3,2.3,0.8,2.4c1.7,0.2,1-1.5,1.2-2.4l0,0c1.9-1.2,5.9-0.6,3.6-5c-0.6-1.1,0.9-2,2.3-1.4c0.9,0.4,1.8,1.4,2.6,1.3
		c4.6-0.5,8.9-0.7,8.7,5.9c2.4-0.1,5.2,0.5,7.1-0.6c2.4-1.3,4.2-4.6,4.3,1.2c0,0.7,1.5,1.3,2,2.1c0.7,1.4,0.7,2.9-0.1,4.3
		c-0.8,1.3-2.7,1.8-3.5,1.1c-2.9-2.4-5.1-0.2-7.6,0.5c-2.9,0.8-5.7,1.8-8.8,1.7c-1,0-2.1,0.1-2.3,1.4c-0.2,1.1,0.5,2.1,1.5,2.3
		c5.2,0.8,8.8,4.2,12.9,6.9c2.1,1.4,5,4,7.9,0.8c0.2-0.2,0.6-0.2,1-0.2C474.6,374.4,480.9,369,481,359z"/>
	<path fill="#25191C" d="M339.5,414.1c3.9-0.3,5.9,3.3,7.8,5.3c4.6,4.9,9.4,7.1,16.2,6.7c8.7-0.5,17.4-0.4,25.9,1.8
		c0.9,0.2,2.1,0.3,2.8,0.9c6.3,5.8,14.2,6.4,22.1,7.2c2.9,0.3,5.8,1.3,8.7,1.9c0,0.6,0,1.2-0.1,1.9c-2.3,0-4.6,0.1-6.9,0.1
		c-4.9-1.6-9,1.5-13.5,2.3c-0.3,0-0.3,1.1-0.4,1.8l-0.3,0.3c0,0-0.4,0-0.4,0c-1.1-0.7-2.3-0.3-3.4,0c-1.6-2-1.7-0.4-1.9,0.8
		c-0.7,0.1-1.3,0.2-2,0.3c-1.8-0.3-3.6-0.7-5.1-1.9c-1.6-1.3-3.1-1.7-4.9-0.2c-0.6,0.5-1.6,0.9-2.3,0.8c-9.1-1.5-17.6,3.9-26.7,2.1
		c-1.1-0.2-2.3,0-3.4,0.2c-5.5,1.4-5.7,1.2-5.8-4.8c0-4,0.1-7.9-1.9-11.5c-0.3-0.7-0.6-1.4-0.8-2c-0.2-1.6-0.3-3.2-0.5-4.8
		c0.3-1.2-0.2-2-1.3-2.5c-0.3-0.6-0.6-1.1-0.9-1.7c-0.3-0.9-0.6-1.9-0.9-2.8C339.6,415.4,339.6,414.8,339.5,414.1z"/>
	<path fill="#784E3E" d="M394.1,445.3c0.7-0.1,1.3-0.2,1.9-0.3c0.6-0.3,1.3-0.5,1.9-0.8c1.1-0.3,2.3-0.6,3.4,0
		c-5.8,3.1-9.1,8.3-11.7,14.1c-0.5,1.2-1.1,2.4-2.5,3c-1.1-2.2,1.6-3.8,1.2-6.7c-2.4,1.7-5,1.8-6.4,4.2c-1-0.1-2.1-0.2-3.1-0.2
		c-1.7-1.1-1.8,0.2-1.9,1.4l0,0.1c-1.3,0-2.7-0.1-4-0.1c-0.4-2.1,3.1-2.1,2.3-4.8c-3.1,0.6-6.2,1.2-9.4,1.8c1.3-3.3,4.5-4,7.2-4.6
		c6.5-1.5,13-3.1,19.4-5.3C393.4,446.7,393.9,446.2,394.1,445.3z"/>
	<path fill="#784E3E" d="M436,439.9c0.2-6.9,4.8-10,12.2-7.6c3.2,1.1,6.3,1.8,10,1.6c-1.2,2-2.8,2-4.3,2c-2.8-0.1-4,1.2-3.9,3.9
		C445.3,440.4,440.7,440.4,436,439.9z"/>
	<path fill="#5D3829" d="M375.2,479.9c-0.8-1.2-1.5-2.5-2.3-3.7c2.6-2.7,3.7-5.5-0.1-9.2c4.3,0.6,7.3,0,10.4-0.9
		c0.6,2.7-2.9,4.4-1.9,7.2c0,0.4-0.1,0.6-0.5,0.7c-3.4,0.8-2.6,3.4-2.3,5.7c0,0-0.2,0.4-0.2,0.4C377.2,480,376.2,480,375.2,479.9z"
		/>
	<path fill="#784E3E" d="M402,444.1c0.1-0.6,0.2-1.7,0.4-1.8c4.5-0.9,8.6-4,13.5-2.3C411.7,442.7,406.6,442.4,402,444.1z"/>
	<path fill="#784E3E" d="M381.1,473.3c-1-2.8,2.5-4.5,1.9-7.2c0.4-1.3,0.8-2.6,1.2-4c0.8,0,1.6-0.1,2.5-0.1
		C385.6,466.1,384.8,470.4,381.1,473.3z"/>
	<path fill="#5D3829" d="M386.8,462c-0.8,0-1.6,0.1-2.5,0.1c-0.2-1.5-1.6-2.1-2.3-3.2c1.4-2.4,4-2.5,6.4-4.2
		c0.4,2.9-2.3,4.5-1.2,6.7C387.3,461.7,387.1,461.9,386.8,462z"/>
	<path fill="#784E3E" d="M476,439.7c0.9-4.5,3.5-2.8,6-1.7C480.2,439.3,478.1,439.4,476,439.7z"/>
	<path fill="#784E3E" d="M378.4,479.7c-0.3-2.3-1.1-4.9,2.3-5.7C380.5,476.1,379.9,478.1,378.4,479.7z"/>
	<path fill="#B78375" d="M527.2,490c2.4,1,3.1,2.6,1.9,5C527.2,493.8,527.1,491.9,527.2,490z"/>
	<path fill="#784E3E" d="M422.9,439.9c0-0.6,0-1.2,0.1-1.9c1.5,0.2,3.6-0.7,4,2C425.6,440.4,424.3,440.5,422.9,439.9z"/>
	<path fill="#B78375" d="M525.3,485.9c2,0.5,1.8,1.9,1.4,3.4C525,488.6,525.1,487.3,525.3,485.9z"/>
	<path fill="#784E3E" d="M375.2,479.9c1,0,2,0.1,3,0.1c-0.4,0.7-0.7,1.4-1.1,2.1C375.9,481.9,375,481.4,375.2,479.9z"/>
	<path fill="#784E3E" d="M343.3,427.9c0.3,0.7,0.6,1.4,0.8,2c-2.1,11.1-5.8,21.9-5,33.4c0.3,4.8-0.8,7.9-5.7,9.5
		c-3.2,1-4.4,4.5-7,6.5c-6.4,5.2-7.6,5.9-14,1.3c-2.3-1.7-4-1.5-5.6,0.1c-2.3,2.5-5.1,2.6-7.8,2c-4.3-0.9-8.7-0.1-13.1-1.5
		c-5.3-1.6-9.9,1.3-13.7,5.2c-3.9,4.1-8,7.9-13.9,8.6c-0.4-1.6,0.7-1.8,1.8-2.4c3.9-2.2,6.7-5.7,9.2-9.3c1.7-2.5,3.1-5.3,7-3.7
		c0.9,0.4,2.3-0.1,3.3-0.6c1.3-0.6,4.1,1,3.7-1.8c-0.3-2.2-2.7-0.1-3.7-0.6c-5.4-3-10.9-1.5-16.3-0.8c-4.9,0.7-9.9,1.6-12.3,6.9
		c0,0,0,0,0,0c-2.1-0.2-3.7,0.4-4.1,2.8c-1.9,0.8-3.3,2.1-3.8,4.2c-1.5,1.4-1.6,3.3-2.2,5.1c-2.6-1-4.8-0.2-7.4,0.2
		c-6.5,1-13.6,2.4-18.8-3.8c-1.5-1.8-2.8-3.1-5.5-2.1c-2.5,1-2,3.1-2.4,5c-3.7-4-4.6-9.5-7.1-14.2c1.1-2.9,0-5.5-0.7-8.2
		c1.9,0.2,2.3,1.7,2.8,3.1c1.6,5.5,7.6,8.8,13.4,9.6c5,0.7,10.1-1.5,14.9,1.2c4.1,2.2,13.7-0.3,16.4-4.2c0.8-1.2,3-2.4,1.8-4.2
		c-1.3-1.9-3.4-1.3-5.4-0.6c-7.1,2.4-13.2,0.4-17.8-5.8c-1.1-1.5-2.2-2.7-4.2-3.1c-6.3-1.3-7.4-4.6-4.2-10.4
		c2.5-4.4,5.2-8.5,9.9-12.1c-6.9-1-11.4-0.3-14.5,5.5c-1.3,2.5-4.3,4.9-8.4,2.6c-2.7-1.6-8.7,2-8.4,4.8c0.4,3.2-1,6.6,0.7,9.7
		c-1.4-0.1-2.3-1.1-2.3-2.2c-0.2-4.3-3.3-5.7-6.6-6.9c1.1-1.8,2.4-3.5,1.9-5.8c1.9-1.4,0.7-2.8,0-4.2c-0.3-1.9-0.7-3.9-1-5.8
		c2.6-2.1,2.7-0.3,3.1,1.8c1.3,5.7,3.4,6.3,7.3,2.2c3.4-3.5,6.7-7.6,11.2-9.2c2.7-1,4.5-5.5,8.4-2.9c0,0.7,0,1.3,0.1,2
		c-0.4,0.3-0.7,0.6-1.1,0.9c-2,0.3-3.3,2-2.3,3.3c1.1,1.4,3.6,1.3,5.3-0.4c1,0,2,0,3,0c4.7,0.6,8.8,2.9,12.9,5.1
		c-0.1,1.4,0.4,2.7,1.1,3.9c1.2,2.5,4.7,3.1,5.3,6.3c0.3,1.2,1.1,2.5-0.9,2.3c-4.2-0.4-5.2,2.2-6.9,5.4c-2.1,4,1.5,4,2.4,3.6
		c3.3-1.9,5.9-2.9,7.4,1.9c0.1,0.2,1.2,0.2,1.8,0c2.6-0.7,5.3-0.5,7.8-2.5c3.6-2.8,7.4-0.2,11.3,0.6c10.2,2,20.7,2.7,31.3,1.6
		c-0.9,1.4-2.3,2.6-2.7,4.1c-0.5,2.2-0.3,6.5,1.4,6c3.7-1.1,8-1.7,11-3.6c4.6-2.8,8.9-3.8,14-3.7c4.6,0.1,10-0.9,12-4.6
		c2.3-4.2,5-8.7,4.9-14.3C337,444.3,339.9,436,343.3,427.9z"/>
	<path fill="#5D3829" d="M218,435c-3.9-2.6-5.7,1.9-8.4,2.9c-4.5,1.6-7.8,5.6-11.2,9.2c-4,4.1-6,3.5-7.3-2.2
		c-0.5-2.1-0.5-3.9-3.1-1.8c-3.9,0.1-2.8-2.9-3-5c-0.2-3.2-2.3-4.9-4.8-5.8c-2.5-0.9-2.7,2-3.5,3.4c-2.3,3.7-6,5.8-9.3,8.2
		c-2.1,1.5-3.1,2.2,0.1,3.3c1,0.3,1.5,1.3,1.7,2.3c-1.9,1.6-4.8,1.6-6.3,3.9c-11.6,2.4-23.2,5.1-33.8,10.8c-5,2.7-10.2,4.5-15.8,5.5
		c-0.3-1.1-1-1.8-2.1-1.5c-1.2,0.3-1.1,1.5-1.1,2.5c-0.7,0.1-1.3,0.2-2,0.3c0.1-2.4-0.6-5.3,3.4-5.1c0.2,0,0.4-0.1,0.5-0.2
		c2.8-9.5,13.2-5.5,18.6-10.6c2.9-2.8,6.9-3.6,11.1-3.2c2.9,0.3,5.5-1.5,7.6-3c6.7-4.6,13-9.9,19.6-14.5c2.5-1.7,3.7-4.2,4.9-6.5
		c1.3-2.5,3-4.3,5.2-5.8c1,1.3,2,2.6,3.1,3.9c0.9,1.8,10.8,8.3,12.7,8.3c0.1,0,0.2-0.2,0.3-0.4c0.3,0,0.7,0,1,0
		c3.9,0.8,6.8-2,9.5-3.6c1.8-1.1,5,1,5.5-2.4c0.6,0,1.3-0.1,1.9-0.1c1.1,0.1,2.3,0.3,3.1-0.9c1.5,0.2,2.7-0.3,4-1.1
		c6.1,0.2,11.1-3.8,17.1-4.1c0.7,0,1.3,0,2,0.1c0.4,0.8,1.1,1.1,1.9,1.1c0.4,3.2-2.1,4-4.3,4.8c-1.2,0.5-2.5,0.4-2.7,2.1
		c-4,1.1-7.7,3-11.8,3.3c-1.5-1.8-1.8-0.7-2.1,0.8C219.4,434.4,218.7,434.7,218,435z"/>
	<path fill="#B78375" d="M162.8,453.5c1.5-2.3,4.3-2.3,6.3-3.9c3-0.3,5.3,1.8,7.9,2.5c0.8,2.4,3.3,2,5,3c1.7,1.3,3.4,2.5,5.1,3.8
		c3.3,1.2,6.3,2.6,6.6,6.9c0.1,1.1,1,2.1,2.3,2.2c0.5,1.8,2,2.7,3.1,3.9c0.7,2.7,1.7,5.4,0.7,8.2c-3.1-2.5-3.7-6.5-5.5-9.7
		c-3.5-6.4-8.8-9.5-14.8-13C173.9,454.4,168.8,453.2,162.8,453.5z"/>
	<path fill="#B78375" d="M12.2,464.5c2-1.4,3.9,0,5.6,0.6c7.2,2.6,14.4,4.7,22.2,3.9c1.4-0.1,3-0.4,4,1.2
		c-5.6,1.2-11.2,1.1-16.6-0.4C22.3,468.4,17.3,466.3,12.2,464.5z"/>
	<path fill="#5D3829" d="M93,474.7c0.2-4.8,7.6-8.8,11.9-6.5c1.7,0.9,0,2,0,3c-2,0.6-4,1.2-6,1.8c-1.2-1.4-1.7-0.7-2,0.7
		C95.7,474.2,94.5,474.9,93,474.7z"/>
	<path fill="#B78375" d="M72,473.9c0.4,0.4,0.8,0.9,1.1,1.3c-4.7,1.3-8.6-1-12.6-2.9C64.7,470.8,68.2,473.4,72,473.9z"/>
	<path fill="#B78375" d="M45.6,470.3c2.7-0.5,5.4-0.7,7.4,1.8C50.2,472.9,47.8,472.1,45.6,470.3z"/>
	<path fill="#784E3E" d="M110,470.7c0-1,0-2.1,1.1-2.5c1.1-0.3,1.8,0.5,2.1,1.5C112.3,470.6,111.3,471.1,110,470.7z"/>
	<path fill="#784E3E" d="M97,473.7c0.3-1.3,0.8-2.1,2-0.7C98.5,473.6,97.8,473.9,97,473.7z"/>
	<path fill="#B78375" d="M487.1,366.1c0.3-0.1,0.6-0.2,0.9-0.3c2.1-0.8-0.1-5.2,2.6-4.2c2.1,0.8,3.3,4.3,3.1,7.1
		c-0.1,1.7-0.7,2.9,1.6,3.7c2.4,0.8,3.9,0.3,5.1-1.6c1.3-2.1,2.2-4.5,3.9-6.2c4.1-4.3,8.3-0.6,12.4,0.5c0.8,0.2,1.3,1.1,2.1,1.3
		c5.1,1.6,10,3,4.4,9.8c-1.5,1.8,0.1,5,0.1,7.6c-0.1,4.4-2,6.5-6.3,6.6c-3.3,0-6.9,0.1-10,2c-3.8,2.3-7.7,2.6-11.6,0
		c-2.7-1.8-5.8-3.1-8.5-5c-2.7-1.9-5.1-4.3-5.6-7.9c1.9-4.4,5.2-8.3,5.3-13.4L487.1,366.1z"/>
	<path fill="#25191C" d="M486.7,366c-0.1,5.1-3.4,9-5.3,13.4c-2.2,2.1-0.7,4.2-0.2,6.4c0.1,8.1,6.3,12.6,10.7,18.2
		c0.2,1.3,0.3,2.5,0.5,3.8c-4.9-1.1-10-1-14.7-2.8c-3.3-1.2-2.3-5.3-5-7.1c-3.5-2.3-2.1-4.8-0.1-7.5c1.2-1.7-0.3-2.3-1.8-2.5
		c-4.6-0.6-8.2-4.4-13-4.3c-0.8,0-2.2-0.5-2-1.7c0.1-1.1,1.4-1.3,2.3-1.6c0.3-0.1,0.7-0.3,1-0.1c7.1,4.3,12.4-2,18.6-3.2
		c3.2-0.6,4.2-3.4,5.2-6.1C483.3,368.7,483.3,365.9,486.7,366z"/>
	<path fill="#B78375" d="M554.8,443.3c0.1,0.6,0.2,1.2,0.3,1.7c0.2,0.8,0.5,1.6,0.7,2.3c-0.3,5.6,2.8,10.4,3.4,15.8
		c-5.7-3.8-7.3-9.8-8.1-16c-0.9-7-3.2-13.7-4.4-20.6c-0.9-5.1-3.4-10.5-0.8-17.1c1.8,4.1,0.3,7.7,2.4,10.6c1.1-0.2,1-2.3,2.6-1.9
		C552.7,426.4,551.5,435.2,554.8,443.3z"/>
	<path fill="#25191C" d="M554.8,443.3c-3.2-8.1-2-16.9-3.8-25.3c0.1-2,0.2-3.9,0.3-5.9c2.2-0.7,3.1-3,4.9-4.1
		c0.7-0.4,1.6-1.1,2.2-0.3c0.4,0.5,0.6,1.7,0.3,2.3c-3.3,7-1.4,14.3-1.2,21.5C557.7,435.5,556.6,439.6,554.8,443.3z"/>
	<path fill="#5D3829" d="M491.9,404c-4.4-5.6-10.7-10-10.7-18.2c5.1,3.8,10.2,7.6,15.2,11.5c1,0.8,1.3,2.6,1.9,3.9
		c1.6,3.4,0.2,4.2-3.1,3.4C494.1,404.4,493,404.2,491.9,404z"/>
	<path fill="#784E3E" d="M487.3,348.1c-0.6-4.2-1.6-7.9-5.5-10.5c-1.7-1.1-2.6-3.3-2.6-5.7c2.9,1.3,5,3.8,7.9,5.3
		C490.1,338.9,490,346.7,487.3,348.1z"/>
	<path fill="#B78375" d="M560,466c0.1,1,0.2,2,0.4,3c-1-0.2-1.9-0.7-2-1.7C558.2,466.1,559.2,466.1,560,466z"/>
	<path fill="#784E3E" d="M366,494c-0.7,0-1.3,0.1-2,0.1c-2.5-1.8-5.3-2.5-8.5-2.8c0,2.2,3,1.8,2.6,3.9c-0.7,0-1.3,0.1-2,0.1
		c-3.3-1.5-3.9-3.4-1.6-6.6c1.8-2.5,2.5-5.2,1.2-8.7c-1.2-3.4-0.9-7.4,2.6-10.1c0.3,0,0.5,0.1,0.8,0.2c-0.1,0.7-0.2,1.3-0.2,2
		c-1.7,12.2,0.4,17.7,11.7,16c0.8-0.1,1.7,0.1,2.5,0.1C372.3,492,366.9,490.3,366,494z"/>
	<path fill="#25191C" d="M351.1,459.4c1.8-0.4,2.5,0.6,2.8,2.1c0.4,2.5-3.5,10.5-5.7,11.7c-3.4,1.8-5.7,0.6-6.2-3.3
		C341.2,463.5,344.6,459.6,351.1,459.4z"/>
	<path fill="#25191C" d="M333.9,494.3c-2.3-2-4.7-3.3-7.9-2.8c-0.6-4.3,3.5-6,5-9.2c0.5-1.1,7.9,3.2,8.6,5.3c1.1,3-1,3.8-3.2,4.3
		C335,492.2,333.9,492.6,333.9,494.3z"/>
	<path fill="#976757" d="M366,456.9c3.1-0.6,6.3-1.2,9.4-1.8c0.8,2.7-2.7,2.7-2.3,4.8c0,0.5-0.1,1-0.1,1.5c-0.7,0-1.3,0-2,0
		c-1.6-1-1.8,0-1.9,1.3c-2.8-0.2-4.9,1.1-6.5,3.3c-1.5-0.5-2.5-2.8-4.5-1C358.2,459.9,362.2,458.5,366,456.9z"/>
	<path fill="#25191C" d="M555.7,447.4c-0.2-0.8-0.5-1.6-0.7-2.3C557,445.3,557.2,446.1,555.7,447.4z"/>
	<path fill="#B78375" d="M243.1,490c0.5-2.1,1.9-3.4,3.8-4.2c2-0.1,3.7-0.4,4.1-2.8c0,0,0,0,0,0c2.1-1.4,4.7-0.8,6.9-2.5
		c1.6-1.3,3,0,3.1,2.2c0.1,4,0.6,8.1-4.6,9.7c-1.4,0.5-2.4,1.8-2.5,3.4c-0.6,0-1.3,0.1-1.9,0.1c-2.1-3.7-2.2-3.7-4.1-1
		c-1,0.1-1.9,0.1-2.9,0.2C241.3,494.6,245.6,491,243.1,490z"/>
	<path fill="#976757" d="M373,488.1c-0.8,0-1.7-0.2-2.5-0.1c-11.3,1.8-13.4-3.8-11.7-16c0.1-0.7,0.2-1.3,0.2-2
		c1.7,0.6,1.8,2.1,2.1,3.6c0.3,1.8,1.6,2.8,3.3,3.2c6.2,1.6,8.9,4.7,9.5,10.9C373.7,487.9,373.4,488,373,488.1z"/>
	<path fill="#25191C" d="M362.5,466c1.6-2.2,3.7-3.4,6.5-3.3c0.1,1.3,0.7,2.6,2.1,1.8c1.4-0.8-0.1-2-0.2-3.1c0.7,0,1.3,0,2,0
		c2.5,2.7,3.5,1.2,4.1-1.4c0,0,0-0.1,0-0.1c0.9,0,1.7-0.3,1.9-1.4c1,0.1,2.1,0.2,3.1,0.2c0.7,1.2,2.1,1.7,2.3,3.2
		c-0.4,1.3-0.8,2.6-1.2,4c-3,1-6.1,1.5-10.4,0.9c3.8,3.7,2.8,6.6,0.1,9.2C369.8,472.4,364.7,470.7,362.5,466z"/>
	<path fill="#5D3829" d="M373,488.1c0.3-0.1,0.7-0.2,1-0.3c2.2,2.8,0,5.5-0.2,8.2c-2.9,0.4-4.9-2.9-7.9-2
		C366.9,490.3,372.3,492,373,488.1z"/>
	<path fill="#5D3829" d="M358.1,495.1c0.4-2-2.6-1.7-2.6-3.9c3.1,0.3,6,1.1,8.5,2.8C362.2,495.3,360.4,496.5,358.1,495.1z"/>
	<path fill="#5D3829" d="M639.2,128.2c-0.5,1.9,0.5,4.2-1.2,5.9c-4.1,1.1-6.1,7.7-11.8,4.8c0,0-0.2,0.2-0.3,0.4
		c-1.2,2.5-2.7,4.5-5.6,5.2c-0.9,0.2-1.5,1.4-0.2,2.2c0.8,0.5,2.8-0.1,2.3,1.8c-0.3,1.3-1.8,1.1-2.9,1.5c-2.7,1-5.2,2.4-8.1,0.1
		c-0.8-0.7-2.8-0.7-4.1,0.8c3,1.9,8.4,2.8,3.2,7.8c-0.7,0.7,0.7,1.7,1,2.6c1.8,4.9,0.2,9.4-4.4,12c4.1,1.5,7,3.9,7.3,8.3
		c0.4,5,2.4,9.2,6.3,12.4c0,1-0.1,1.9-0.1,2.9c-4,2.6-4.3,3.6-1.7,6c0.3,1,0.6,2,1,3c0,0.8,0.2,1.5,0.9,2c0,2.2,0.8,3.4,3.2,2.8
		c0.3,0.1,0.6,0.2,0.9,0.2c0,1,0,2,0,3c-0.6,4.2-3.6,6.3-7.1,7.8c-3.7,1.6-6.4,0.6-9-2.4c-2-2.3-4.4-4.5-7.8-4.5
		c-0.7-0.3-1.3-0.7-2-1c-0.4-0.8-1.1-1-1.9-1c0,0,0,0,0,0c0.2-2.9,0.3-5.7,0.8-8.6c0.6-3.2-2.5-4-3.8-5.8c-0.9-1.3-4.9,0.2-5.1,1
		c-0.9,3.9-4.8,3.5-6.9,5.4c-1.7-0.2-3.6,0.6-5.1-0.9c0.1-1.4-0.6-2.1-2-1.9c-4.4-2.6-8.5-5.4-12.1-9c0.3-2.3-1.3-2.2-2.8-2.2
		c-1.2-0.8-2.9-1.1-3.1-3c0.1-2,0.4-3.9-2.5-4.2c-1.5-0.2-1.4-1.5-1.3-2.7c2.3-0.4,4.6-0.8,6.9-1.2c2,1.5,3.4,4.4,6.7,2.4
		c0.4-0.2,1.6,0.1,1.7,0.4c3,7.5,9.4,4.5,12.9,2.5c6.5-3.6,10.1,0.4,14.5,3c2,1.2,3.4,3.1,5.6,4c1.3,0.5,2.3,2.4,3.8,0.6
		c1.1-1.4,2.3-3.1,1.1-5c-1.1-1.8-2.2-4.2-3.9-4.9c-3.2-1.4-6.7-2.5-10-3.3c-3.5-0.9-7.2-1.5-10.9-2.2c-0.6-0.1-1.3-0.4-1.9-0.4
		c-7-0.5-9.6-4.5-8-11.8c1-4.9-3.6-3.5-6-4.7c-0.4-2.1,2-1.7,2.7-2.9c1.1-2,2.8-4.2,1-5.8c-1.9-1.8-2.3-5-6.6-4.9
		c-4,0.1-8.5-2.6-10.8-6.1c-2.8-4.4-6.2-7.6-10.8-9.5c-1.7-0.7-2.4-1.5-2.2-3.3c9.4,3,18.3,7.1,25.2,14.5c2.2,2.3,9.8,2.9,11.6,0.3
		c3.2-4.5,6.7-2.9,10.5-2c7.7,1.8,15.4,2.5,23-0.4c5.2-2,8.2-6.4,10.4-11c1.6-3.2,2.5-2.7,3.9-0.6c2.6,3.8,5.9,2.2,7.2-0.2
		c2.3-4.2,5-4.9,9.1-3.5C639.6,126,638.9,127,639.2,128.2z"/>
	<path fill="#5D3829" d="M651,27.1c1.3,0,2.7,0,4,0c4.8,3,9.1,2.9,12.1-3.1c1,2.2,1.7,3.7,2.4,5.1c1,2,2.7,2.8,4.3,0.9
		c1.5-1.9,3.6-2.5,5.6-2.8c3.8-0.6,7-1.5,7.4-6.1c0.1-0.6,0.6-1.6,1-1.6c5.7-0.1,11.4-3.6,17.2-0.6c1.6,0.2-0.6,3.9,2.6,2.8
		c4-1.4,8.1,0.2,12.1-0.6c0.3,3.6-4.6,4.1-4.5,7.6c-0.6,0-1.6,0.2-1.8-0.1c-4.2-4.7-9.4-2.6-14.4-2.5c-1.2,0-3.1,2.1-3.7-0.4
		c-0.4-1.8,1.5-2.3,2.8-3c0.8-0.4,1.7-0.8,2.3-1.8c-3.7-0.9-6.9,0.6-9.4,2.9c-2.2,2.1-2.4,4.6-0.9,8c1.1,2.7,2.8,6.1,1.5,10
		c-0.6,2,1.4,5.1,1.7,7.9c0.2,1.3,0.4,2.5-0.9,2.9c-9.2,2.6-14.2,11.6-22.9,14.9c-0.6,0.2-1.3,1.3-1.5,1.2
		c-6.5-3.5-8.3,3.6-11.6,5.9c-3.1,2.2-6.8,4.5-9.8,8c3.6,0.7,6.8,1.5,9.5,2.8c-1.8,9.4-7.8,13.2-16.6,16.3c-6.1,2.2-12,2.3-17.9,3.6
		c-0.3,0.1-0.6,0.2-0.9,0.4c-6.2,2.6-9.3,2-13.9-2.4c-2.6-2.5-4.1-5.5-8.8-6.8c-4.1-1.1-9-5.1-12.4-9.3c-2.5-3.1-6.1-5.5-7.6-10.2
		c3.1,0.8,4.5,2.7,5.7,4.5c1.4,2.1,3.2,3.8,5,5.5c1.3,1.3,3,3.6,4.8,1.8c1.5-1.5-0.4-3.4-1.9-4.6c-2.3-1.8-3.8-4.5-6.9-5.5
		c-2.2-0.7-1.8-2.9-1.9-4.7c3.4-2.7,9.7-2,11.2,1.5c0.9,2,2.5,3.8,3.3,5.6c1.4,3.3,2.8,4.9,6,3.1c2.5-1.4,5.6,2.7,7.5-1.2
		c1.3,0.1,2.6,0.2,3.9,0.2c0.4,0.7,0.8,2,1.2,2c4.6,0,9.6,1.9,13.7-1c2-1.4,5.8-2.4,5.5-5.2c-0.5-4.4,4-3.6,4.3-3.4
		c3.2,2.7,6.2,0.7,8.6-0.8c4.2-2.6,9.4-3.9,11.8-8.8c1-0.4,2-0.8,2.9-1.2c3.2,2.2,5.1-1.1,7.5-1.9c1.2-0.4,1.8-1.9,1.5-3.4
		c-0.3-1.6-1.7-1.3-2.8-1.5c-1.5-0.3-4.4-0.6-3.2-2.4c1.7-2.8,0.3-6.8,3.9-8.7c2.2-1.2,0.1-2.9,0.1-4.4c0.1-1.5-1.3-2.8-2.6-2.3
		c-3.5,1.3-6.8-0.7-10.3,0l-0.1-0.1c-0.2-1.4,1.3-3.7-1.7-3.6c-3.2,0.1-7.4-3.2-9,2.6c0,1.7-0.4,3.2-2.2,4c-6.1,0.6-11.2,3.4-16,6.9
		c-0.1,0.2-0.1,0.3-0.2,0.5c0.1-0.1,0.2-0.3,0.3-0.4c2.9-0.7,6-2.6,6.3,3.2c0.1,3,3.5,2.3,4.9,0.8c2.4-2.6,3.1-1.3,5.6,0.3
		c3.5,2.3-2.3,3.6,0.4,4.9c0.1,2.2-1,3.1-3.1,2.9c-3.6,2.5-7.6,3.4-11.5,1.2c-1.9-1.1-3.6-1.2-5.5-1.3c-3,1.5-6-0.4-9,0
		c-0.8-2.1-4.2,0.4-4.7-2.5c-0.6-3.1-2.5-2.4-4.4-1.4c-2.3,1.2-3.8,3.1-5.5,4.9c-1.3,1.3-3.2,1.6-4.5,0.5c-1.4-1.2,0.4-2.5,1.1-3.3
		c2.3-2.9,5.4-5.2,9-5.9c3.2-0.6,4.5-2.3,5.2-5.1c4.3,1.4,6.2-0.6,6.8-4.6c1-6.2,3.9-11.8,5.5-17.8c2.6,0.1,3.2,4,6.8,2.8
		c-2.1,3.1-4.6,5.1-4.2,8.4c-1.7,0.1-3.7-0.4-4,2.4c-0.5,5.1-2.4,9.5-6.8,12.6c-1.5,1.1-1.4,2.3,0.1,3c1.3,0.6,2.2,4,3.6,2
		c2-2.8,4.8-2.9,7.9-3.6c-5-4.2-1.7-8.4-0.9-12.5c3.5,2.9,8.2,2.7,10.9-0.3c1.2-1.3,0.1-1.6-0.9-1.9c-0.1-4.8,4.1-4.3,7.5-5.3
		c-2.5-0.9-4-2.6-6.3-2.7c-1.2,0-2.3-1.1-1.7-2.4c1-2-0.2-4.3,1.2-6.2c1.8,0.1,2.2,2,3.4,2.9c0.5,3.7,4.9,3.4,6.6,6.6
		C647.1,29.4,648.8,28.1,651,27.1z M633.6,96.9c3.5-2.6,7-1.4,10.4-0.3c3.7,1.2,5.1-1.5,6.9-3.4c1.7-1.7,1-4.2-0.4-5.4
		c-2-1.6-4.7-1-7,0C639.3,89.7,635.8,92.2,633.6,96.9z"/>
	<path fill="#976757" d="M624.4,26.8c-1.6,6-4.5,11.6-5.5,17.8c-0.6,3.9-2.5,6-6.8,4.6c-1.2-0.8-4.1,2.3-4-1.3
		c0.1-2.4,0.9-6.2,4-5.7c5.3,0.9,4.1-2.1,3.4-4.7c-0.7-2.5-0.6-4.2,2.4-4.6c0.1,0.1,0.3,0.2,0.4,0.2c-0.1-0.1-0.3-0.2-0.4-0.2
		c-0.2-1,0.1-3.1-1.3-2.5c-2.9,1.2-7.5,3-7.8,4.9c-0.7,5.4-7.8,8.1-5.3,14.3c0.3,0.7-0.6,1-1.3,1.1c-6.2,1.5-11.5,7.1-12.3,12.9
		c-0.4,3.2-2.9,4.4-6,2.6c-1.3-0.7-2-2.2-3.6-2.5c-0.1-2.6-0.2-5.2-0.4-7.9c2.2,0.1,2.4,2,3,3.5c0.7,2,2.3,1.5,3.7,1.5
		c0.8,0,2.2-0.3,1.6-1.1c-1.5-2.1,0.5-2.9,1.2-4.2c1.9-3.9-1.1-7-2.5-9.9c-0.7-1.5-3.6,1.9-5.8,2.4c-1.5,0.4-1.4,1.7-0.7,2.8
		c1.3,1.7,1.7,3-1.2,3.1c-0.5-0.6-1-1.3-1.5-1.9c0.1-5.7-1.3-7.5-7.3-8.8c-0.9-0.2-1.6-0.2-1.5-1.2c0-0.6-0.1-1.4,0.9-1.4
		c1.2,0.1,2.6,0.1,2.3-1.5c-0.3-1.3-1.8-1-3-1.2c-2.2-0.4-3.6,1.2-5.4,1.9c0.8-4,4.7-5.5,7.2-5.3c4,0.4,7.2-2.4,11-1.9
		c0.9,0.1,2.4-0.7,3-1.5c2.7-3.9,6.3-2.6,10.1-2.8c6.1-0.4,12.8-1,16.5-7.2c1.7-2.9,3.5-3.7,6.4-2c-1.7,2.4-1.4,5.2,0.1,7.3
		c0.6,0.8,3.4,0.9,4.9-0.6C623.5,26.1,624,26.5,624.4,26.8z"/>
	<path fill="#5D3829" d="M535.8,85.9c1.4-4.1,1.6-8.8,6-11.3c0.4,0.3,1,0.9,1.2,0.7c5.9-3.5,10.2,1.3,15.1,2.9
		c1.6,0.5,6.2-2.4,5.7-3.8c-1.2-3.3,0.7-4,3.1-4.7c1.4-0.4,3.2-0.8,2.8-2.8c-0.3-1.6-1-3.2-2.8-3.8c-1.7-0.6-4.3,0.9-4.9-2.1
		c-0.5-3-1.8-6.1,1.1-8.8c0.5-0.5,0.6-1.5,0.9-2.3c0,0,0,0,0,0c2,0.1,3-1.8,4.7-2.3c1.7-0.5,3.4-1.6,4.3,1.1
		c1.1,6.5,0.1,13.2,2.5,19.6c0.6,1.6,1.5,3.4-2.1,3.2c-2.5-0.1-4.7,1.2-2.5,5.1c3.5,6.2,2.2,10.4-4.2,10.4
		c-5.4,0.1-9.9-2.2-10.9,5.4c-0.1,0.6-1.5,0.7-2.1,0c-0.9-1-0.6-2.2,0-3.2c0.5-0.9,1.9-1.8,0.7-3c-1.4-1.4-1.8,0.7-2.7,1.1
		c-1.5,0.7-2.8,0.5-4.3,0c-2-0.7-4-0.5-5.4,1.4c-1.3,1.7-0.9,3.3,0.2,5c1.5,2.6,1.9,5.6,3.4,8.4c2.2,3.9-2.8,5.7-5.3,8
		c-1-4,2.1-9.2-3.4-11.9c-0.2-0.1,0-1.7,0.3-2.4C538.8,92.2,537.6,89.1,535.8,85.9z"/>
	<path fill="#784E3E" d="M618,33c-3,0.4-3.1,2-2.4,4.6c0.7,2.5,1.9,5.6-3.4,4.7c-3.2-0.5-3.9,3.3-4,5.7c-0.2,3.6,2.7,0.5,4,1.3
		c-0.6,2.8-2,4.5-5.2,5.1c-3.6,0.7-6.7,3-9,5.9c-0.7,0.8-2.5,2.1-1.1,3.3c1.3,1.1,3.3,0.8,4.5-0.5c1.7-1.8,3.2-3.8,5.5-4.9
		c1.9-1,3.9-1.7,4.4,1.4c0.5,2.9,3.8,0.4,4.7,2.5c-1.1,1.3-2.5,2.2-4.3,1.8c-0.9-0.2-2.1-1-2.4,0.5c-0.6,3.2-3.1,3.9-5.6,5
		c-1.3,0.6-3.1,1.7-2.1,3.3c1.1,1.9,0.8,6.1,2.8,5.6c4.6-1,5.3,1.9,6.6,4.7c-1.9,3.9-5-0.2-7.5,1.2c-3.3,1.8-4.6,0.2-6-3.1
		c-0.7-1.7-2.3-3.5-3.3-5.6c-1.6-3.5-7.9-4.2-11.2-1.5c-1.5-3.3-2.2-6.7-2.5-10.2c1.6,0.3,2.4,1.7,3.6,2.5c3,1.8,5.5,0.6,6-2.6
		c0.8-5.8,6.1-11.4,12.3-12.9c0.7-0.2,1.6-0.4,1.3-1.1c-2.5-6.3,4.7-9,5.3-14.3c0.2-2,4.9-3.7,7.8-4.9C618.1,29.9,617.8,32,618,33
		L618,33z"/>
	<path fill="#784E3E" d="M724.5,52.2c0.5-0.5,1.3-0.8,2-1.2c0.2-0.8,0.4-1.7,0.6-2.5c-0.3-0.3-0.8-0.7-1.5-1.1
		c-0.2-0.1-0.2-1.4,0.1-1.8c3.6-5,0.3-9.7-0.5-14.6c-1.5-0.2-2.8-1.9-4.2-0.7c5.1,7.3-2.3,12.6-2.6,19
		C721.1,49.2,723.5,49.2,724.5,52.2z"/>
	<path fill="#B78375" d="M579.4,54.1c2.9-0.1,2.4-1.4,1.2-3.1c-0.8-1-0.9-2.4,0.7-2.8c2.2-0.6,5.1-4,5.8-2.4c1.4,2.9,4.3,6,2.5,9.9
		c-0.6,1.3-2.6,2.1-1.2,4.2c0.6,0.8-0.9,1.1-1.6,1.1c-1.4,0-3,0.5-3.7-1.5c-0.5-1.5-0.8-3.3-3-3.5C579.8,55.3,579.6,54.7,579.4,54.1
		z"/>
	<path fill="#976757" d="M719.8,21c-4,0.8-8.1-0.8-12.1,0.6c-3.2,1.1-0.9-2.6-2.6-2.8c-0.1-1.5-0.1-3-0.2-4.5
		c4.8,0.1,9.5,2.4,14.5,0.9c1.3-0.4,2.3,0.9,2.6,2.4c-0.6,0.6-1.2,1.3-1,2.3C720.6,20.2,720.2,20.6,719.8,21z"/>
	<path fill="#5D3829" d="M538.1,127.9c-2,0.3-3.1-0.3-3.1-2.6c-0.1-3.7,1.9-7,1.8-10.7c0-1.4,1.3-2.6,3-2.7
		c-2.4,3.6,2.9,8.5-2.1,11.8C537.2,124.1,537.9,126.5,538.1,127.9z"/>
	<path fill="#5D3829" d="M718.6,71.7c0,0,0.1-0.1,0.1-0.1c0.1-3.2,4.3-5.9,1.2-9.5c-3.8,2.4-4,6-3,9.9
		C717.4,71.9,718,71.8,718.6,71.7z"/>
	<path fill="#784E3E" d="M639.2,128.2c-0.4-1.2,0.4-2.1,0.8-3.2c0.3-0.1,0.7-0.1,1,0C641.1,126.4,641.1,127.8,639.2,128.2z"/>
	<path fill="#5D3829" d="M721.1,19.8c-0.2-1,0.3-1.6,1-2.3c0.3,0.3,0.6,0.6,1,0.9C722.9,19.6,722.2,20,721.1,19.8z"/>
	<path fill="#5D3829" d="M576,50c0.3,0.3,0.6,0.7,0.9,1C576.7,50.7,576.3,50.3,576,50z"/>
	<path fill="#5D3829" d="M594,348.9c-0.4,0.3-0.8,0.7-1.1,1c-1.6,0.1-2.4,1.5-3.6,2.4c-6.6,4.5-6,13.3-11.2,18.7
		c-2.5,4.1-7.3,3.1-10.9,4.5c-5.3,2.2-7.6,5.2-7.3,10.6c-1.5-0.3-2.9-0.5-4.4-0.8c-2.5-0.4-4.9-1.1-6,2.4c-0.4,1.3-1.8,2.7-3.5,1.9
		c-1.4-0.7-1.8-2.2-1.8-3.8c0-8.4,1.9-10.2,10.9-9.9c2.5,0.1,3.6-1.5,4-3.6c0.5-3.5,1.8-6.7,4.6-8.9c2.1-1.6-1.6-4.1,1-5.5
		c0.2-0.1-0.1-1.2-0.2-1.9c4,0.9,5.1-3.9,8.4-4.4c2.4-0.3,4.8,0.7,3.1-3.7c-0.8-2.2,1.4-5.3,1.3-8.3c0-1.4,1.5-1.4,2.1-0.4
		c0.7,1.2,1.2,2.7,1.4,4.2c0.2,1.1-1.5,2.8,0.5,3.2c1.1,0.2,2.8-0.5,3.5-1.4c5.2-6.4,12.3-11.3,15.6-19.1c2.7-6.5,6.1-12.5,11.7-17
		c0.7-1,1.4-2,2.1-2.9c0.7,0,1.4,0,2.2,0c-1.8,3.5-2,7.7-4.4,10.9c-3-0.1-5.3,0.5-4.6,4.3c-3.1,4.7-5.7,9.4-5.5,15.4
		c0.1,3.1-2.7,5.5-4.8,7.9C595.6,345.9,593.8,346.8,594,348.9z"/>
	<path fill="#5D3829" d="M504,303c3.5,0.8,6.8-1,9.9-1.8c5.9-1.7,10.7,1.8,15.7,1.8c4.7,0,7.3,2.7,10.9,3.8c0.8,0.2,1.9-0.5,2.8-0.7
		c1.7-0.3,2.9,0.4,3.9,1.7c1.2,1.5,0,2.5-0.9,3.4c-2.8,2.8-2.6,8.1-8.2,8.9c-2.7,0.4-5,3-8,0.4c-1.9-1.6-4.3,1.7-6.6-0.1
		c0.5-2.6,3.3-1.7,4.8-3.3c-0.5-1.7-3-0.6-3.6-2.5c-0.9-3.1-1.4-4.3-4.4-0.6c-1.3,1.7-7.3,1-10.1-1.4c-2.1-1.8-2.9-0.8-3,0.6
		c-0.1,3.9-0.7,6.6-5.6,5.4c-0.3-0.1-0.9,1-1.5,1.7c-0.3-3.2-0.9-5.8,2.6-7.5C507.8,310.3,504.7,306.4,504,303
		C504,303,504,303,504,303z"/>
	<path fill="#5D3829" d="M515.6,336c-2.5,0.3-4.5-1.6-4.1-3.6c0.6-2.7,2.3-5.4,5.7-6c0.3,2.5,3.6-1.1,3.7,1.9
		C521.1,332.5,518.8,336,515.6,336z"/>
	<path fill="#976757" d="M614,306c-0.7,1-1.4,2-2.1,2.9c-1.3-2-2-3.8,1-5c0.3,0,0.7-0.1,1-0.1C614,304.6,614,305.3,614,306z"/>
	<path fill="#5D3829" d="M556,394c0.1-0.7,0.1-1.6,1.2-1.5c0.1,0,0.3,0.2,0.3,0.3C557.6,393.9,556.8,393.9,556,394
		C556,394,556,394,556,394z"/>
	<path fill="#976757" d="M516,298c-0.3,0.2-0.7,0.5-1,0.7C514.6,297.5,515.7,298.3,516,298C516,298,516,298,516,298z"/>
	<path fill="#784E3E" d="M601,215c3.5,0,5.9,2.2,7.8,4.5c2.6,3,5.3,4,9,2.4c3.5-1.6,6.5-3.6,7.1-7.8c3.7,1.9,3.5,4.4,0.6,6.7
		c-2.9,2.3-3.8,4.8-2.1,8.1c0.4,0.9,0.9,1.8-0.5,2.7c-1.1-2-2.7-3.4-5.9-3.1c2.4,2.1,2.2,4.4,2.5,6.9c0.4,3.5,0.5,8,4.2,10.5
		c0.1,1.3,0.2,2.7,0.2,4c-2,0.2-3.4-0.3-4.4-2.3c-3.4-6.8-9-11.7-13.9-17.2c-1.9-2.2-3.1-4.3-6-4.5c-3.1-0.2-6.1-1.3-9.4-1.1
		c-7.1,0.5-12.3-4.6-18.7-6.3c-16.1-4.3-31.6-10.5-47.5-15.7c0-0.7,0-1.3,0-2c2.7-3,5.2,2.7,7.9,0.1c1.4,1.6,3.3,0.7,5,1.1
		c1.9,2.9,4.3,4.7,8.1,4c1.7,0,3.3,0,5,0c0.1,0.8,0.3,1.6,1.3,1.7c1.3,0.1,1.6-0.8,1.7-1.8c0.3,0,0.6,0,0.9,0c0,2.4,2.2,2.4,3.6,3.4
		c6.3,4.2,14.3,3.9,20.5,7.8c4.5,2.9,9,4.5,14.3,5.1C597.8,223,600.9,220.6,601,215z"/>
	<path fill="#5D3829" d="M524,201c0,0.7,0,1.3,0,2c-8.6,0.2-16.8-2.3-25-4.5c-2.5-0.7-5-0.9-7.6,0.5c5.1,0.8,7.9,4,11.2,7.6
		c2.3,2.4,6.5,5.9,11.3,5.3l0,0c1.3,3.1,4.7,2.7,7.1,4c2.1,1.1,1.9,1.5-0.1,2c-8.5-2.6-18.4-2.3-24.1-11c-0.9-1.4-2.8-0.4-3.5-1.1
		c-2.9-2.8-7.8-1.3-10.2-5c0-1,0.1-2,0.1-2.9c1.8-0.5,2-1.2,0.2-2.1c-1-1.1-1.5-2.4-1.4-3.9c2.7-3.2,5.6-1.8,9.2-1.4
		c6.7,0.7,13.1,1.7,19.2,4.4c3.5,1.5,6,5.1,10.2,5.3C521.8,200.4,522.9,200.7,524,201z"/>
	<path fill="#B78375" d="M554,206c-0.3,0-0.6,0-0.9,0c-1.1-1.4-2.1-1.4-3,0.1c-1.7,0-3.3,0-5,0c1.6-3.7,6-1.1,8.3-4
		c-5.5,0-11,0-16.4,0c-1.7-0.4-3.6,0.5-5-1.1c0-0.2,0-0.4,0-0.5c1-1.9-2.2-4.2,0.6-5.8c2.5-1.4,3.8,1.3,5.6,2.1
		c3,1.3,5.3,1.8,8.1-0.7c2.1-2,6-1.5,7.6-4.7c2.6,1.3,5.2,2.5,7.1,4.8c2,2.3,3.8,4.9,5.8,7.2c0.7,0.8,1.5,1.4,1.1,2.5
		c-0.6,1.4-1.6,0.6-2.5,0.3C561.5,205.2,557.7,207.3,554,206z"/>
	<path fill="#784E3E" d="M582,205c2.1-1.9,6-1.5,6.9-5.4c0.2-0.8,4.3-2.4,5.1-1c1.2,1.9,4.4,2.7,3.8,5.8c-0.5,2.8-0.5,5.7-0.8,8.6
		c-4.6-0.2-8.8-1.5-11.6-5.3C584.5,206.3,582.8,206.3,582,205z"/>
	<path fill="#784E3E" d="M526.7,191.1c-0.7,1.9-2.8,3.2-3.8,2.4c-1.6-1.2-5.1-0.4-4.8-4.2c0.1-0.7-0.4-3.9-3.2-4.4
		c-2.6-0.5-3.3-3.3-2.3-5c1.2-2.1,2.9,0.2,4.1,1c3.7,2.3,8.3,3.8,9.2,9.1C526,190.3,526.4,190.7,526.7,191.1z"/>
	<path fill="#784E3E" d="M553.1,181.2c0,1.1-0.2,2.5,1.3,2.7c2.9,0.3,2.6,2.2,2.5,4.2c-6.1-1.2-9.8-5.6-13.6-10
		C546.4,180.1,549.4,181.5,553.1,181.2z"/>
	<path fill="#784E3E" d="M532,184c-0.6-0.9-1.1-2.3-2-2.8c-1.6-0.8-3.3-1.9-2.3-3.6c0.8-1.4,3.1-0.9,4.6-0.3
		c1.5,0.6,2.8,1.6,4.2,2.4c-0.5,1.7-2.8,2.1-2.6,4.1C533.3,183.9,532.7,184,532,184z"/>
	<path fill="#B78375" d="M532,184c0.6,0,1.3-0.1,1.9-0.1c0.7,0.5,1.3,1,2,1.5c1.4,1,3.5,1.4,3.6,3.6c0,0.3-0.8,0.9-1,0.8
		c-2.4-1.4-5.6,1.6-7.7-1.5C529.4,186.2,531.6,185.5,532,184z"/>
	<path fill="#784E3E" d="M560,191c1.5,0,3-0.1,2.8,2.2C561.4,193,560,192.9,560,191z"/>
	<path fill="#784E3E" d="M597.1,213c0.8,0,1.6,0.2,1.9,1C597.4,215.5,597.2,214.3,597.1,213z"/>
	<path fill="#784E3E" d="M574.9,202.1c1.4-0.1,2.1,0.5,2,1.9C575.7,204,575,203.4,574.9,202.1z"/>
	<path fill="#784E3E" d="M624.1,270c2.8,2.8,3.7,7,7.2,9.4c1.7,1.1,1.1,3.5-0.1,5.8c-2.6-3.1-4.8-5.8-7.2-8.5c-0.9-1-2-2.4-3-2.4
		c-4.5-0.1-4.9-3-4.8-6.4C618.9,268.4,620.8,271.9,624.1,270z"/>
	<path fill="#5D3829" d="M514,212c0.1-0.1,0.2-0.3,0.2-0.4C514.2,211.7,514.1,211.9,514,212C514,212,514,212,514,212z"/>
	<path fill="#784E3E" d="M614,306c0-0.7-0.1-1.4-0.1-2.1c0.8-1.3,2-2.7,3.5-1.4c1.5,1.4,0.1,2.6-1.1,3.5
		C615.5,306,614.8,306,614,306z"/>
	<path fill="#784E3E" d="M607.2,321.2c-0.7-3.8,1.7-4.4,4.6-4.3C611,319.1,609.3,320.4,607.2,321.2z"/>
	<path fill="#976757" d="M601,291c0.1-0.1,0.3-0.3,0.4-0.4c0,0.1,0,0.2-0.1,0.3C601.3,290.9,601.1,291,601,291
		C601,291,601,291,601,291z"/>
	<path fill="#976757" d="M533.5,93.9c0.1,0.1,0.4,0.1,0.4,0.2c1.6,2.9,0.5,15.3-1.5,18.1C532.4,106,530.1,99.8,533.5,93.9z"/>
	<path fill="#976757" d="M516,127c0.1-1,0.4-2,1.7-1.8c0.3,0,0.8,0.7,0.8,0.9C518,127.3,516.9,126.9,516,127
		C516,127,516,127,516,127z"/>
	<path fill="#25191C" d="M624.4,26.8c-0.5-0.4-0.9-0.7-1.4-1c0-2.2,0.1-4.3,0.1-6.5c0.2-0.3,0.3-0.6,0.3-0.9c0.2,0,0.4-0.1,0.5-0.3
		c5.8-2.6,9.8,0.5,13.5,4.3c0.1,0.3,0.1,0.5,0,0.8c-1.4,1.9-0.2,4.2-1.2,6.2c-0.6,1.3,0.4,2.4,1.7,2.4c2.3,0.1,3.8,1.8,6.3,2.7
		c-3.4,1-7.6,0.4-7.5,5.3c-1.5,0.1-3.2,2.5-4.3,0.6c-0.5-0.9-2.3-2.6-0.8-4.2c0.5-0.5,2.5-0.3,1.2-1.7c-0.8-0.9-2.1-0.6-3.1,0.4
		c-1.1,1-1.3,2.7-2.9,3.3L627,38c-0.3-3.3,2.1-5.3,4.2-8.4C627.6,30.8,627.1,26.9,624.4,26.8z"/>
	<path fill="#784E3E" d="M623.2,19.3c0,2.2-0.1,4.3-0.1,6.5c-1.5,1.5-4.3,1.4-4.9,0.6c-1.5-2.1-1.8-4.8-0.1-7.3
		c1.3-0.1,2.6-0.1,3.9-0.2C622.4,19,622.8,19.1,623.2,19.3z"/>
	<path fill="#976757" d="M623.2,19.3c-0.4-0.1-0.9-0.2-1.3-0.4c0.5-0.2,1-0.3,1.6-0.5C623.5,18.7,623.4,19,623.2,19.3z"/>
	<path fill="#784E3E" d="M620.8,194.1c-3.9-3.2-5.8-7.4-6.3-12.4c-0.4-4.4-3.3-6.8-7.3-8.3c4.6-2.6,6.1-7.1,4.4-12
		c-0.3-0.9-1.8-1.9-1-2.6c5.2-5-0.1-5.9-3.2-7.8c1.3-1.5,3.3-1.5,4.1-0.8c2.9,2.3,5.4,0.9,8.1-0.1c1.1-0.4,2.6-0.2,2.9-1.5
		c0.5-1.9-1.5-1.3-2.3-1.8c-1.3-0.8-0.7-2,0.2-2.2c2.9-0.7,4.4-2.8,5.6-5.2c0.1-0.1,0.2-0.4,0.3-0.4c5.8,2.8,7.7-3.7,11.8-4.8
		c0.7,3.1-2.1,5.2-2.3,8.3c-0.4,7.6-5.4,14.2-5.7,21.9c-0.1,3.8-3.4,2.6-5.2,3c-2.4,0.6-1.8-1.7-1.8-3c-0.2-2.9-2.6-3-4.3-3.1
		c-2.3-0.1-2.7,2.2-2.6,4c0.1,2.9,0.7,5.9,1.1,8.8c0,0.6,0,1.2,0,1.8c-1.6,6.4-0.2,11,3.9,13.1c0.1,1,0.1,1.9,0.2,2.9
		C621,192.6,620.9,193.4,620.8,194.1z"/>
	<path fill="#976757" d="M623.6,246c-3.8-2.5-3.8-7-4.2-10.5c-0.3-2.5-0.1-4.8-2.5-6.9c3.2-0.3,4.8,1,5.9,3.1c1.5-0.9,1-1.8,0.5-2.7
		c-1.7-3.4-0.7-5.9,2.1-8.1c2.9-2.3,3.1-4.8-0.6-6.7c0-1,0-2,0-3c3.6,0.7,5.2,3.8,4.8,6.6C628.4,227.2,626.2,236.6,623.6,246z"/>
	<path fill="#976757" d="M621,189c-4.1-2.1-5.5-6.7-3.9-13.1C620.8,179.6,619.6,184.7,621,189z"/>
	<path fill="#976757" d="M620,206c-0.3-1-0.6-2-1-3c0.8-1.2,0.9-3,2.9-3c1.7,3.4,1.9,7.1,2.2,10.8c-2.4,0.7-3.2-0.6-3.2-2.8
		C622.5,206.5,621.3,206.2,620,206z"/>
	<path fill="#784E3E" d="M621.9,200c-2,0-2.1,1.8-2.9,3c-2.6-2.4-2.4-3.4,1.7-6c0.4,0,0.8,0,1.2,0.1C621.9,198,621.9,199,621.9,200z
		"/>
	<path fill="#976757" d="M621.9,197c-0.4,0-0.8,0-1.2-0.1c0-1,0.1-1.9,0.1-2.9c0.1-0.7,0.2-1.5,0.4-2.2
		C624.5,193.1,622.7,195.2,621.9,197z"/>
	<path fill="#976757" d="M564,50c-2.6-0.3-3.2,1.6-4,3.5c-1.3,3.2-3.6,4.8-7.7,3.8c2.7-3.5,6.3-5.6,8.3-9.2c0.7-1.2,2-2.7,3.6-1.7
		C565.7,47.4,563.7,48.7,564,50C564,50,564,50,564,50z"/>
	<path fill="#976757" d="M547,66.9c0.1-1.8,1.7-2.1,2.9-2.9c1.8,0.1,3.5-0.3,5.3-0.8c1.1-0.3,2.5-0.4,2.6,1.3
		c0.1,1.3-1.1,1.4-2.1,1.5C552.7,66.3,549.9,66.6,547,66.9z"/>
	<path fill="#B78375" d="M619.9,166.2c0.4,0.6,0.8,0.9,0.8,1.3c0,0.4-0.4,0.7-0.7,1.1c-0.3-0.3-0.8-0.6-0.8-0.9
		C619.2,167.2,619.6,166.8,619.9,166.2z"/>
	<path fill="#784E3E" d="M578,371c5.2-5.4,4.6-14.2,11.2-18.7c1.2-0.8,2-2.2,3.6-2.4c1.9,2.9,2.7,5.4-2.1,6.1
		c-1.6,0.3-6,7.9-5.6,9.5c0.5,1.9,1.7,0.7,2.8,0.7c1.6-0.1,3.9-1.2,3.7,2.1C587,369,582.7,370.8,578,371z"/>
	<path fill="#784E3E" d="M651,27.1c-2.1,1-3.9,2.3-3.3,5.6c-1.7-3.2-6.1-2.9-6.6-6.6C644.2,27.9,647.9,24.2,651,27.1z"/>
	<path fill="#784E3E" d="M483.4,195.9c1.8,0.9,1.6,1.6-0.2,2.1C483.3,197.3,483.4,196.6,483.4,195.9z"/>
	<path fill="#784E3E" d="M405.4,341.6c-1.7-2.8-1.5-4.4-0.7-6.4C406.7,336.9,405.9,338.7,405.4,341.6z"/>
	<path fill="#784E3E" d="M337.6,354.1c1.1-1.6,2.1-2.6,3.7-2.7c0.9,1.3,0,1.9-0.9,2.3C339.6,354,338.8,353.9,337.6,354.1z"/>
	<path fill="#B78375" d="M297.4,335.6c-0.2-0.3-0.8-0.7-1-1.2c-0.2-0.5,0.2-0.9,0.8-0.6c0.5,0.3,1.1,0.6,1.3,1.1
		C298.7,335.4,298.3,335.7,297.4,335.6z"/>
	<path fill="#784E3E" d="M309.4,364.3c0.1-0.3,0.2-0.7,0.4-0.8c0.2-0.1,0.5,0.2,0.8,0.3c-0.1,0.3-0.2,0.7-0.4,0.8
		C310,364.7,309.7,364.4,309.4,364.3z"/>
	<path fill="#B78375" d="M385,312c0.4,0.1,0.9,0.2,1.3,0.4c-0.1,0.1-0.2,0.3-0.2,0.4C385.7,312.5,385.4,312.2,385,312
		C385,312,385,312,385,312z"/>
	<path fill="#B78375" d="M556,296c-1.4-0.2-3,0.4-4.3-0.6c-0.5-1.8,2.1-1.6,1.7-3.5c-3.5,0.2-6.7-2.5-11.3-1.1
		c1.5-2.2,4.5-3.3,2.2-5.3c-1.4-1.2-3.6-2.7-4.6,1.2c-0.7,2.6-2.6-1.3-4.6-0.1c-4.6,2.8-9.6,0.5-14.5,0.2c-1-0.1-1.4-0.7-1.3-1.7
		c0.1-1.3,3.1-2.6,0.9-3.5c-1.4-0.6-3.8-0.5-5.7-0.2c-7.6,1.4-9.5-0.7-9.3-8.2c0.2-5,1.8-10.8-3.8-14.9c4.6-0.7,6.2-2.2,3.6-6.5
		c-2.8-4.6,2.7-5,4.7-6.8c3.5-3.3,9.4-3.4,11.9-8.5c0.5-1,1.8-0.3,2.7-0.1c6.7,1.2,12.5,4.9,19.1,6.7c1.4-0.9-0.3-3.8,1.9-4
		c2.5-0.2,2.3,2.4,3,3.9c0.1,0.3,0.4,0.6,0.5,0.9c1.2,3.2,6.4,1,7.3,6c0.4,2.4,5.7,4.1,9.6,4.2c1.8,0.1,1.2,1.6,1.4,2.7
		c-0.4,0.1-0.9,0.2-1.3,0.4c0.1,0.1,0.2,0.3,0.2,0.4c0.4-0.3,0.7-0.5,1.1-0.8c1.3,0.3,2.5,0.6,0.8,2c-2.5,2-5.4,3.1-8.4,3.8
		c-1.9,0.5-3.3,1.5-4.7,2.5c-0.7,0.5-1.5,1.5-0.9,2.5c0.6,1.1,1.4,0.1,2.1-0.2c4.1-1.8,0.1,4.1,3.2,3.3l0,0
		c-0.2,2.9-2.8,1.5-4.1,2.3c1.9,2.1,4,1.2,6.1,0.7l0,0c0.1,1.5-0.1,2.4,2.3,2.6c4.4,0.3,9,6.5,8.6,10.4c-0.1,1.1,0.1,2.6-1.3,2.9
		c-4.2,0.8-6.7,4-9.7,6.4C559.7,297.2,557.4,299.9,556,296c0.9-0.1,2,0.3,2.5-0.9c0.1-0.2-0.5-0.9-0.8-0.9
		C556.4,294,556.1,295,556,296z"/>
	<path fill="#B78375" d="M579.5,290.5c3.1,0.4,5.3,2.6,6.1,4.8c1.4,4.1,2.9,2.6,4.9,1c0.9-0.7,1.6-1.7,2.4-2.5
		c0.9-0.9,2-2.4,3.3-1.3c1.4,1.1,0,2.7-0.8,3.4c-2.8,2.3-2.9,5.7-2.9,8.6c0.1,2.4-1.1,3.4-2.6,4.2c-1.5,0.8-3.1,0.1-3.9-1.3
		c-1.6-2.6-3.2-1.6-4.8-0.1c-2.2,2.1-4.1,1.1-6-0.4c-1.9-1.4-1.6-3.1-0.3-4.7c0.8-1,0.8-1.7,0.1-2.6c-3.8-5.1,3.2-5.7,3.8-9
		C578.8,290.4,579.4,290.5,579.5,290.5z"/>
	<path fill="#B78375" d="M576.1,311.1c1,0.1,1.6,0.3,1.5,1.2c-0.1,0.9-0.8,1.4-1.7,1.5c-0.7,0.1-1.4,0-1.5-0.8
		C574.4,311.7,575.5,311.5,576.1,311.1z"/>
	<path fill="#B78375" d="M458.7,264.4c0.4,0.1,0.6,0.3,0.9,0.4c-0.2,0.3-0.4,0.7-0.6,1c-0.2-0.2-0.9,0.8-0.8-0.3
		C458.1,265.2,458.5,264.8,458.7,264.4z"/>
	<path fill="#784E3E" d="M552,230c0.8,0.4,1.1,1.1,0.8,1.9c0,0.1-0.3,0.2-0.4,0.3C552.3,231.5,552.1,230.7,552,230
		C552,230,552,230,552,230z"/>
	<path fill="#B78375" d="M559,271c0.3-0.3,0.7-0.5,1-0.8C560.4,271.5,559.3,270.7,559,271C559,271,559,271,559,271z"/>
	<path fill="#B78375" d="M561,274c0.1-0.1,0.3-0.3,0.4-0.4c0,0.1,0,0.2-0.1,0.3C561.3,273.9,561.1,274,561,274
		C561,274,561,274,561,274z"/>
	<path fill="#B78375" d="M222.1,433.3c4.2-0.3,7.9-2.3,11.8-3.3c1.3,0.2,2.6,0.6,3.9,0.4c3.1-0.3,6.9,1.4,8.5-3.4
		c0.4-1.1,2.3-1.7,3.6-2.4c2.9-1.6,6-2.3,7.9-5.9c0.9-1.8,4.1-4.3,7.6-3.8c1.7,0.3,2.9-0.3,3.8-2.2c1.9-3.6,5.1-5.7,9.5-5.9
		c4.1-0.2,8.3-0.3,11.7-2.9c2.5-1.8,2.3-6,7.6-6.9c-4.4-1.4-8.3-1-9.1-5.1c0.3-0.5,0.7-0.9,1-1.4c10.5,0.5,20.4,3.7,30,7.7
		c7.4,3.1,13.5,8.1,17.3,15.4c-0.5,2.1,0.9,2.3,2.4,2.4c0.3,0.9,0.6,1.9,0.9,2.8c-2,0.8-4.1,0.8-1.5,4.1c3.8,4.8,0.5,11.9-5.5,13
		c-5,1-9.7,3.4-15,3.1c-1.4-0.1-2.7,0.9-3,2.2c-0.6,2.1,1.7,1.6,2.6,2.3c3.2,2.5,7.4,0.9,11,2.2c3.2,1.1,4.6,3.3,3.6,6
		c-1.1,2.9-2.5,6.2-6.2,7.1c-1.4,0.3-2.7,0.5-2.6,2.3c0.1,2.2-1.4,2.7-3,3.3c-2.3,0.9-5,1.5-6.8,3c-4.4,3.8-6.8,1.3-9-2.3
		c-0.7-1.2-1.2-2.7-2.7-2.2c-3.3,1.1-6.9,0.2-9.6,0.8c-4.5,1-9.1,0.1-13.5,1.9c-8.4,3.6-15-4.8-23.1-4.5c-1.3,0-2.2-1.8-2.2-3.5
		c0-2.1-0.7-2.9-3.1-2.4c-2.6,0.5-5.2-1.1-6.5-2.8c-2.1-2.8-4.6-2.8-7.5-2.6c-0.7-1.2-1.2-2.5-1.1-3.9c-0.9-5.2-6.6-7.5-12.9-5.1
		c-1,0-2,0-3,0c-0.7-1.3-3.1-0.8-3-3c0.4-0.3,0.7-0.6,1.1-0.9c1.8-0.4,3.6-0.7,4-3C222.1,433.8,222.1,433.5,222.1,433.3z"/>
	<path fill="#25191C" d="M443,308.9c0.7-0.3,1.4-0.6,2.2-0.9c1.4-0.1,3,0.3,3.9-1.3c1.6-0.2,3.3-0.5,4.9-0.7c0,0,0,0,0,0
		c-0.2,1.3,0.6,2.2,1.2,3.2c2.6,5,1.7,8.7-3,12.5c-2.1-7.9-3.4-8.7-10.9-6.7c-0.2-0.6-0.3-1.2-0.5-1.8c0.1-0.7,0.3-1.5,0.4-2.2
		C442.5,310.9,442.9,310.1,443,308.9z"/>
	<path fill="#5D3829" d="M449.1,306.6c-0.9,1.6-2.5,1.2-3.9,1.3c-0.1-2.2-0.8-3.4-3.3-2.4c-3.3,1.3-4.1-0.5-3.8-3.4
		c3.4-3.3,7.4-5.3,12-6c3.9,4.9,0.3,6.4-4,7.6C447.1,305.1,448.9,305.1,449.1,306.6z"/>
	<path fill="#976757" d="M343,383c2.7-0.5,3.6,3.7,6.5,2.7c0.1,0.8,0.4,1.6,0.2,2.4c-0.2,1-1.1,2-2.2,1.5c-2.3-1-4.1,0.1-6.2,0.5
		c-3.2,0.6-4.8-2.2-5.7-4.5c-0.7-2,1.5-1.6,2.6-1.3C340.1,384.6,342.2,386.3,343,383C343,383,343,383,343,383z"/>
	<path fill="#25191C" d="M432.8,283.1c3.7-2,7.4-4.1,11.2-6.1c1.4-0.7,2.9-2,4.3,0c-1.4,3.4-10.3,9.4-13.7,9
		C433.4,285.8,430.3,286,432.8,283.1z"/>
	<path fill="#5D3829" d="M448,325.3c2-0.8,3.9-1.6,5.9-2.4c1.1,2.8,4.3,4.4,4.3,7.8c-1.8,1.2-3.8,2-5-0.5
		C452.1,327.8,448.1,328.7,448,325.3z"/>
	<path fill="#5D3829" d="M436.1,296c3.9-4.1,9.1-5.7,14.2-7.5c-3.4,4.4-8.5,5.7-13.3,7.5C436.7,296,436.4,296,436.1,296z"/>
	<path fill="#5D3829" d="M443,308.9c0,1.2-0.5,2-1.8,2.1C441.3,309.9,440.3,307.8,443,308.9z"/>
	<path fill="#5D3829" d="M434,293c0,0.3,0,0.7,0,1c-1.3-0.9-1.3-1.9-0.6-3.2C434.2,291.4,433.9,292.2,434,293z"/>
	<path fill="#5D3829" d="M431,351c0.1-0.7,0.1-1.7,1.2-1.5c0.3,0.1,0.5,1,0.8,1.5c0,0,0,0,0,0C432.3,351,431.7,351,431,351L431,351z
		"/>
	<path fill="#784E3E" d="M195,434c-0.1,0.1-0.2,0.4-0.3,0.4c-2,0-11.8-6.5-12.7-8.3c3.1-0.7,6.1,0.6,9.3,0.4c1.8-0.1,4.4,1.1,3,4.3
		C193.7,431.9,194.6,432.9,195,434z"/>
	<path fill="#784E3E" d="M211,428c-0.5,3.4-3.7,1.3-5.5,2.4c-2.7,1.6-5.7,4.4-9.5,3.6c2-4.7,6.3-6,10.7-7.4
		C208.8,425.8,209.6,427.5,211,428z"/>
	<path fill="#784E3E" d="M237,421.9c-6,0.2-11,4.2-17.1,4.1c0-0.5-0.1-1.1,0.2-1.4c1.3-1.8,14.6-4.6,16.6-3.5
		C237,421.1,236.9,421.6,237,421.9z"/>
	<path fill="#784E3E" d="M240.9,423c-0.8,0-1.6-0.2-1.9-1.1c0.8-1.3,1.9-2.8,3.3-1.4C243.5,421.7,241.2,422.1,240.9,423z"/>
	<path fill="#784E3E" d="M216,427c-0.8,1.2-1.9,1-3.1,0.9C213.4,425.8,214.4,425.3,216,427z"/>
	<path fill="#784E3E" d="M449.1,306.6c-0.1-1.6-1.9-1.5-3.1-2.9c4.3-1.2,8-2.7,4-7.6c2.6-0.7,4.1,0,4,3c-0.1,2.3,0,4.5,0,6.8
		C452.3,306.2,450.7,306.4,449.1,306.6z"/>
	<path fill="#784E3E" d="M448.5,273.9c-0.3-0.2-0.4-0.4-0.3-0.7c0,0,0.4,0.3,0.4,0.3L448.5,273.9z"/>
	<path fill="#25191C" d="M429,261.9c3.9-0.6,6.7-3.2,9.9-5.2c0.8-0.5,1.8-2,2.8-0.6c0.4,0.5-0.3,1.8-0.5,2.7
		c-4.3,1.1-7.3,4.8-11.9,5.3C429.2,263.5,429.1,262.7,429,261.9z"/>
	<path fill="#5D3829" d="M429,261.9c0.1,0.8,0.2,1.5,0.3,2.3c-2-0.5-1.3-1.9-1.2-3.2C428.4,261.3,428.7,261.6,429,261.9z"/>
	<path fill="#784E3E" d="M431,351c0.7,0,1.3,0,2,0c-0.2,0.9,0.5,2.6-1.2,2.4C430.7,353.3,431.1,351.9,431,351z"/>
	<path fill="#976757" d="M339.7,416.1c-1.5-0.1-2.9-0.3-2.4-2.4c0.7,0.1,1.4,0.3,2.2,0.4C339.6,414.8,339.6,415.4,339.7,416.1z"/>
	<path fill="#976757" d="M237,450c2.8-0.1,5.3-0.2,7.5,2.6c1.3,1.7,3.9,3.3,6.5,2.8c2.4-0.5,3.1,0.3,3.1,2.4c0,1.7,1,3.6,2.2,3.5
		c8.1-0.2,14.7,8.1,23.1,4.5c4.4-1.9,9-0.9,13.5-1.9c2.7-0.6,6.4,0.3,9.6-0.8c1.6-0.5,2,1,2.7,2.2c2.2,3.6,4.6,6.1,9,2.3
		c1.8-1.6,4.5-2.1,6.8-3c1.6-0.6,3.2-1.1,3-3.3c-0.1-1.8,1.2-1.9,2.6-2.3c3.6-0.9,5.1-4.2,6.2-7.1c1-2.7-0.5-4.9-3.6-6
		c-3.6-1.3-7.8,0.3-11-2.2c-0.9-0.7-3.2-0.2-2.6-2.3c0.4-1.3,1.6-2.3,3-2.2c5.3,0.3,10-2.1,15-3.1c6-1.2,9.3-8.3,5.5-13
		c-2.6-3.3-0.5-3.3,1.5-4.1c0.3,0.6,0.6,1.1,0.9,1.7c-0.6,1.4-0.1,2.2,1.3,2.5c0.2,1.6,0.3,3.2,0.5,4.8c-3.4,8.1-6.3,16.4-6.1,25.2
		c0.1,5.6-2.6,10.1-4.9,14.3c-2,3.7-7.4,4.6-12,4.6c-5.1-0.1-9.4,0.9-14,3.7c-3,1.8-7.3,2.5-11,3.6c-1.7,0.5-1.9-3.8-1.4-6
		c0.4-1.5,1.7-2.7,2.7-4.1c-10.5,1.1-21.1,0.4-31.3-1.6c-4-0.8-7.7-3.4-11.3-0.6c-2.5,2-5.2,1.8-7.8,2.5c-0.6,0.2-1.8,0.2-1.8,0
		c-1.5-4.8-4-3.8-7.4-1.9c-0.8,0.5-4.5,0.4-2.4-3.6c1.7-3.2,2.7-5.8,6.9-5.4c2,0.2,1.1-1.1,0.9-2.3C241.7,453.1,238.3,452.5,237,450
		z"/>
	<path fill="#5D3829" d="M398,444.2c-0.6,0.3-1.3,0.5-1.9,0.8C396.3,443.8,396.4,442.2,398,444.2z"/>
	<path fill="#784E3E" d="M342.8,423.1c-1.4-0.3-1.9-1.1-1.3-2.5C342.6,421.1,343.1,421.9,342.8,423.1z"/>
	<path fill="#5D3829" d="M377,460.1c-0.6,2.6-1.7,4.1-4.1,1.4c0-0.5,0.1-1,0.1-1.5C374.3,460,375.7,460,377,460.1z"/>
	<path fill="#5D3829" d="M378.9,458.6c-0.2,1.1-0.9,1.3-1.9,1.4C377.1,458.8,377.2,457.6,378.9,458.6z"/>
	<path fill="#5D3829" d="M199,472c-1.1-1.2-2.6-2.2-3.1-3.9c-1.7-3.1-0.3-6.4-0.7-9.7c-0.3-2.9,5.7-6.4,8.4-4.8
		c4.1,2.3,7.1-0.1,8.4-2.6c3.1-5.8,7.6-6.5,14.5-5.5c-4.7,3.6-7.5,7.7-9.9,12.1c-3.3,5.8-2.2,9.1,4.2,10.4c2,0.4,3.1,1.5,4.2,3.1
		c4.6,6.3,10.7,8.3,17.8,5.8c2-0.7,4.1-1.3,5.4,0.6c1.2,1.8-0.9,3-1.8,4.2c-2.7,4-12.3,6.5-16.4,4.2c-4.8-2.6-9.9-0.5-14.9-1.2
		c-5.9-0.8-11.8-4.1-13.4-9.6C201.4,473.7,200.9,472.2,199,472z"/>
	<path fill="#25191C" d="M177,452.1c-2.7-0.7-4.9-2.9-7.9-2.5c-0.2-1-0.7-2-1.7-2.3c-3.2-1.1-2.2-1.8-0.1-3.3c3.4-2.4,7-4.5,9.3-8.2
		c0.9-1.4,1.1-4.2,3.5-3.4c2.5,0.9,4.6,2.6,4.8,5.8c0.1,2.1-0.9,5,3,5c0.3,1.9,0.7,3.9,1,5.8c-0.7,0.1-1.4,0.2-2.2,0.3
		c-0.6-0.1-1.1-0.2-1.7-0.3C181.7,445.6,179.2,446.7,177,452.1z"/>
	<path fill="#976757" d="M185.1,448.9c0.6,0.1,1.1,0.2,1.7,0.3c0,1.7,0.6,3.1,2.1,3.9c0.5,2.3-0.7,4-1.9,5.8
		c-1.7-1.3-3.4-2.5-5.1-3.8C182.4,452.7,178.9,448.4,185.1,448.9z"/>
	<path fill="#976757" d="M223,441c6.3-2.4,12-0.1,12.9,5.1C231.8,443.8,227.7,441.6,223,441z"/>
	<path fill="#976757" d="M217,438c-0.1,2.1,2.3,1.7,3,3c-1.7,1.6-4.1,1.7-5.3,0.4C213.6,440,215,438.3,217,438z"/>
	<path fill="#5D3829" d="M188.9,453.1c-1.5-0.9-2.1-2.2-2.1-3.9c0.7-0.1,1.4-0.2,2.2-0.3C189.6,450.3,190.8,451.7,188.9,453.1z"/>
	<path fill="#976757" d="M251,483c-0.4,2.4-2.2,2.7-4.1,2.8C247.3,483.5,248.9,482.8,251,483z"/>
	<path fill="#976757" d="M222,434c-0.3,2.3-2.2,2.6-4,3c0-0.7,0-1.3-0.1-2c0.7-0.3,1.4-0.7,2.1-1C220.7,434.1,221.4,434,222,434z"/>
	<path fill="#784E3E" d="M222,434c-0.7,0-1.3,0-2,0c0.2-1.5,0.6-2.6,2.1-0.8C222.1,433.5,222.1,433.8,222,434z"/>
	<path fill="#5D3829" d="M185.1,448.9c-6.2-0.5-2.7,3.9-3.1,6.3c-1.6-1-4.2-0.6-5-3C179.2,446.7,181.7,445.6,185.1,448.9z"/>
	<path fill="#5D3829" d="M370.9,461.5c0.1,1.1,1.7,2.3,0.2,3.1c-1.4,0.8-2-0.5-2.1-1.8C369.1,461.5,369.3,460.5,370.9,461.5z"/>
	<path fill="#784E3E" d="M620,206c1.3,0.2,2.5,0.4,0.9,2C620.1,207.6,620,206.8,620,206z"/>
	<path fill="#976757" d="M642,62c2.1,0.2,3.2-0.8,3.1-2.9c2.9,0.2,2.2-3.4,4.4-4c1.4-0.4,3.4-0.5,2.9-2.5c-0.5-2.1-2.6-1.7-4.2-1.6
		c-2.6,0.1-4.4-0.3-3.7-3.7c0.3-1.4-0.4-2.9-0.6-4.3c1.7-0.8,2.1-2.3,2.2-4c3.7-0.7,7.4-2.2,10.7,1c0,0,0.1,0.1,0.1,0.1
		c0.3,2.6,2.2,3.3,4.3,4.2c3.3,1.4,5.3,3.2,3,7.5c-2.1,3.9-2.9,8.4-1.4,13c-1,0.4-2,0.8-2.9,1.2c-2.8-0.6-4.7,1-6.7,2.4
		c-3.3,2.5-7.2,0.9-10.3,0.5C637.9,68.3,642.8,64.4,642,62z"/>
	<path fill="#976757" d="M611,83c-1.3-2.7-2-5.7-6.6-4.7c-2,0.4-1.6-3.7-2.8-5.6c-1-1.6,0.8-2.8,2.1-3.3c2.4-1.1,4.9-1.8,5.6-5
		c0.3-1.5,1.5-0.7,2.4-0.5c1.8,0.4,3.2-0.5,4.3-1.8c3-0.4,6,1.5,9,0c2,6.5,8,4.8,12.7,6.2c-1.2,2.9-5.4,0.8-5.8,2.5
		c-1.1,4.2-3.7,6.5-7.2,8.3c-1.2,0.6-0.1,3.4-1,2.7c-3.8-2.7-5.9,1.4-8.8,1.6C613.6,83.2,612.3,83.1,611,83z"/>
	<path fill="#784E3E" d="M614.9,83.2c2.9-0.2,5-4.3,8.8-1.6c0.9,0.7-0.2-2.1,1-2.7c3.5-1.8,6.1-4.1,7.2-8.3c0.4-1.7,4.6,0.4,5.8-2.5
		C633,66.8,627,68.5,625,62c1.9,0.1,3.6,0.2,5.5,1.3c3.8,2.2,7.9,1.3,11.5-1.2c0.8,2.4-4.1,6.2,0.9,6.9c3.1,0.4,7,1.9,10.3-0.5
		c1.9-1.4,3.9-3.1,6.7-2.4c-2.4,4.9-7.7,6.3-11.8,8.8c-2.3,1.5-5.3,3.4-8.6,0.8c-0.2-0.2-4.8-1-4.3,3.4c0.3,2.9-3.5,3.8-5.5,5.2
		c-4.1,2.9-9.1,1-13.7,1C615.7,85.3,615.3,83.9,614.9,83.2z"/>
	<path fill="#784E3E" d="M662.9,64.8c-1.5-4.5-0.7-9.1,1.4-13c2.3-4.3,0.3-6.1-3-7.5c-2.1-0.9-4-1.6-4.3-4.2c3.4-0.6,6.8,1.3,10.3,0
		c1.3-0.5,2.7,0.8,2.6,2.3c-0.1,1.5,2.1,3.2-0.1,4.4c-3.6,1.9-2.1,5.9-3.9,8.7c-1.2,1.8,1.8,2.1,3.2,2.4c1.1,0.2,2.4,0,2.8,1.5
		c0.3,1.5-0.2,3-1.5,3.4C667.9,63.7,666.1,67,662.9,64.8z"/>
	<path fill="#784E3E" d="M644,43.1c0.2,1.4,0.9,3,0.6,4.3c-0.7,3.4,1.1,3.8,3.7,3.7c1.6-0.1,3.7-0.5,4.2,1.6c0.5,2-1.5,2.1-2.9,2.5
		c-2.1,0.5-1.5,4.2-4.4,4c-2.6-1.2,3.1-2.6-0.4-4.9c-2.5-1.6-3.2-2.9-5.6-0.3c-1.5,1.6-4.8,2.3-4.9-0.8c-0.2-5.8-3.3-3.9-6.3-3.2
		L628,50C632.8,46.5,637.9,43.7,644,43.1z"/>
	<path fill="#784E3E" d="M633.6,96.9c2.2-4.6,5.7-7.2,9.8-9c2.4-1.1,5-1.7,7,0c1.4,1.1,2.1,3.6,0.4,5.4c-1.8,1.9-3.2,4.6-6.9,3.4
		C640.6,95.5,637.1,94.3,633.6,96.9z"/>
	<path fill="#25191C" d="M627,42c-0.8,4.1-4.2,8.3,0.9,12.5c-3.1,0.6-5.9,0.8-7.9,3.6c-1.5,2-2.3-1.4-3.6-2c-1.6-0.7-1.6-2-0.1-3
		c4.4-3.1,6.3-7.5,6.8-12.6c0.3-2.8,2.3-2.3,4-2.4c0,0,0.2,0.1,0.2,0.1C627.1,39.4,627,40.7,627,42z"/>
	<path fill="#784E3E" d="M627,42c0.1-1.3,0.1-2.6,0.2-3.9c1.5-0.6,1.8-2.3,2.9-3.3c1-0.9,2.2-1.3,3.1-0.4c1.3,1.5-0.7,1.2-1.2,1.7
		c-1.5,1.6,0.2,3.3,0.8,4.2c1.1,1.9,2.8-0.5,4.3-0.6c1,0.3,2,0.5,0.9,1.9C635.2,44.7,630.4,44.8,627,42z"/>
	<path fill="#784E3E" d="M656.9,40c-3.3-3.2-7-1.7-10.7-1c1.6-5.8,5.8-2.5,9-2.6C658.1,36.4,656.6,38.7,656.9,40z"/>
	<path fill="#784E3E" d="M628,50c-0.1,0.1-0.2,0.3-0.3,0.4C627.8,50.3,627.9,50.1,628,50C628,50,628,50,628,50z"/>
	<path fill="#784E3E" d="M618,33c0.1,0.1,0.3,0.2,0.4,0.2C618.3,33.2,618.1,33.1,618,33C618,33,618,33,618,33z"/>
	<path fill="#976757" d="M536.9,202.2c5.4,0,10.8,0,16.4,0c-2.3,2.8-6.7,0.3-8.3,4C541.2,206.9,538.8,205.1,536.9,202.2z"/>
	<path fill="#976757" d="M550,206.2c1-1.5,2-1.5,3-0.1c-0.1,1-0.4,1.9-1.7,1.8C550.3,207.8,550.1,207,550,206.2z"/>
	<path fill="#976757" d="M556,296c0.1-1,0.4-2,1.7-1.8c0.3,0.1,0.8,0.7,0.8,0.9C558,296.3,556.9,295.9,556,296
		C556,296,556,296,556,296z"/>
	<path fill="#976757" d="M567,257c-0.4,0.3-0.7,0.5-1.1,0.8c-0.1-0.1-0.2-0.3-0.2-0.4C566.1,257.3,566.6,257.1,567,257
		C567,257,567,257,567,257z"/>
	<path fill="#5D3829" d="M452.1,321.7c-6.3,3.8-10.7,1-10.9-6.7C448.7,313,450,313.8,452.1,321.7z"/>
</g>
</svg>
