<?xml version="1.0" encoding="utf-8"?>
<!-- Generator: Adobe Illustrator 18.0.0, SVG Export Plug-In . SVG Version: 6.00 Build 0)  -->
<!DOCTYPE svg PUBLIC "-//W3C//DTD SVG 1.1//EN" "http://www.w3.org/Graphics/SVG/1.1/DTD/svg11.dtd" [
	<!ENTITY ns_extend "http://ns.adobe.com/Extensibility/1.0/">
	<!ENTITY ns_ai "http://ns.adobe.com/AdobeIllustrator/10.0/">
	<!ENTITY ns_graphs "http://ns.adobe.com/Graphs/1.0/">
	<!ENTITY ns_vars "http://ns.adobe.com/Variables/1.0/">
	<!ENTITY ns_imrep "http://ns.adobe.com/ImageReplacement/1.0/">
	<!ENTITY ns_sfw "http://ns.adobe.com/SaveForWeb/1.0/">
	<!ENTITY ns_custom "http://ns.adobe.com/GenericCustomNamespace/1.0/">
	<!ENTITY ns_adobe_xpath "http://ns.adobe.com/XPath/1.0/">
]>
<svg version="1.1" id="Layer_1" xmlns:x="&ns_extend;" xmlns:i="&ns_ai;" xmlns:graph="&ns_graphs;"
	 xmlns="http://www.w3.org/2000/svg" xmlns:xlink="http://www.w3.org/1999/xlink" x="0px" y="0px" viewBox="0 0 841.9 595.3"
	 enable-background="new 0 0 841.9 595.3" xml:space="preserve">
<metadata>
	<sfw  xmlns="&ns_sfw;">
		<slices></slices>
		<sliceSourceBounds  width="396.7" height="560.6" y="28.4" x="219" bottomLeftOrigin="true"></sliceSourceBounds>
	</sfw>
</metadata>
<g>
	<path fill="#703D0A" d="M249.4,9.3C246,9.6,232.3,22.8,229,36c-3.7,14.7-11.7,89-9.2,105.8c1.1,7.4,2.8,14.6,4.3,21.5
		c2.1,9.3,4.1,18.1,4.7,26.6c0.5,6.9,0.2,16.8,0,25.5c-0.2,9.5-0.5,19.4,0.4,21.6c1.1,2.7,9.3,13.9,15.9,23c4.4,5.9,8,11,9.2,12.9
		c2.6,4.4,20.5,39.8,26.7,56.1c2.7,7.1,3.3,20.1,4,33.8c0.8,17.4,1.7,35.4,6.7,43.8c9.1,15.4,14,28.6,14.1,28.8v0.1
		c8.7,31.4,26.6,92.4,31.9,98.5c6.5,7.6,39.5,19.7,39.8,19.8c0.4,0.2,31.2,13.2,45.2,12.7c14-0.5,42.2-17.4,42.5-17.7
		c0.2-0.1,13.3-7.3,22.1-15.9c6.9-6.8,16.5-53.6,20.7-77.4l0.1-0.2l32.2-74.9l19.9-88.5l0.2-0.2c0.3-0.5,31.1-46.1,37.6-60.4
		c6.4-14.1,13-70.8,13.1-71.4c0-0.4,3.4-39.8,4.4-57c0.5-8.9-4-33.3-8.6-53.5c-6-26-11.3-41.2-13.3-42.4c-6,0.7-65.2,55.2-72.2,69
		c-7,14-52.7,116.3-53.1,117.3l-0.4,0.9l-1-0.3c-0.2-0.1-19.2-5.7-54-5.9c-34.6-0.2-46.6,7.5-46.8,7.6l-1.2,0.8l-0.5-1.3
		c-0.2-0.7-24.9-64.6-31-74c-1.6-2.4-5.3-8.4-10.1-16c-14.6-23.2-39.1-62-44.8-69.1C269.3,24.9,252.4,9.3,249.4,9.3z"/>
	<path fill="#703D0A" d="M421.8,566.8c-13.4,0-39.3-10.6-44.4-12.7l-0.2-0.1c-0.2-0.1-33.3-12.2-39.9-19.8
		c-5.3-6.2-23.2-67.3-31.9-98.7v-0.1l0,0c0-0.1,0-0.1-0.1-0.2c-1.7-4.3-6.3-15.6-14-28.5c-5-8.6-5.9-27.4-6.8-44v-0.6
		c-0.7-13.5-1.3-26.2-3.9-33.1c-6.2-16.4-24.1-51.7-26.7-56c-1.1-1.8-4.7-6.7-9.2-12.9l-2.1-2.9c-6.3-8.7-12.9-17.7-13.8-20.1
		c-0.9-2.2-0.7-10.8-0.5-20l0.1-1.8c0.2-9.6,0.5-18.8,0-25.5c-0.6-8.2-2.5-16.7-4.5-25.7l-0.8-3.9c-1.3-5.9-2.6-12.1-3.6-18.5
		c-2.6-16.8,5.5-91.2,9.2-105.9c3.2-12.9,16.9-26.6,20.7-27c3.5,0,20.8,16.3,29,26.5c4.2,5.3,19.7,29.2,44.8,69.1
		c1.8,2.8,3.4,5.3,4.8,7.7c2.4,3.8,4.3,6.8,5.3,8.3c6.3,9.7,30.9,73.6,31.1,74.1l0.4,0.8l0.8-0.5c1.4-0.8,13.8-7.7,45.5-7.7
		c0.5,0,1,0,1.5,0c34.8,0.2,54,5.9,54.2,5.9l0.7,0.2l0.2-0.6c0.1-0.2,0.8-1.7,2-4.4c37.2-83.1,48.4-107.3,51.2-113
		c6.9-13.7,66.1-68.5,72.5-69.2h0.2l0.1,0.1c2.5,1.4,8,19,13.5,42.6c4.4,18.8,9.2,44.2,8.6,53.6c-0.8,13.5-3.1,40.3-4,51.7
		c-0.2,3-0.5,5.2-0.5,5.3v0.2c-0.7,5.9-7,57.9-13.1,71.3c-6,13.2-32.3,52.5-37.5,60.3l-0.2,0.3l-20,88.6l-32.2,75l-0.1,0.2
		c-4.1,23.8-13.8,70.7-20.7,77.6c-8.9,8.6-22.1,15.9-22.2,15.9c-0.2,0.2-28.5,17.1-42.6,17.7C422.3,566.8,422.1,566.8,421.8,566.8z
		 M249.4,9.7c-3.1,0.3-16.8,13.5-20,26.4c-3.7,14.7-11.7,88.8-9.2,105.6c1,6.3,2.3,12.5,3.6,18.4l0.8,3.9c2,9,4,17.5,4.5,25.8
		c0.5,6.7,0.2,15.9,0,25.5l-0.1,1.8c-0.2,8.7-0.5,17.7,0.4,19.7c0.9,2.4,7.7,11.7,13.8,20l2.1,2.9c4.5,6.2,8,11,9.2,12.9
		c2.6,4.3,20.4,39.7,26.7,56.1c2.7,7.1,3.3,19.8,4,33.4v0.6c0.8,16.5,1.7,35.3,6.6,43.7c7.7,13,12.3,24.4,14,28.6l0.1,0.4
		c8.7,31.3,26.5,92.3,31.8,98.4c6.5,7.4,39.2,19.5,39.6,19.6l0.2,0.1c5.2,2.2,32,13.1,44.9,12.6c13.8-0.5,42-17.4,42.2-17.6
		c0.2-0.1,13.3-7.4,22-15.8c6.8-6.7,16.5-53.4,20.6-77.2l0.1-0.3l32.2-74.9l19.9-88.6l0.3-0.3c3.2-4.7,31.3-46.8,37.4-60.1
		c6-13.3,12.3-65.2,13-71.1v-0.2c0-0.1,0.1-1.1,0.5-5.3c1-11.4,3.2-38.3,4-51.7c0.5-8.8-4-33.1-8.6-53.4c-5.9-25.4-11-40.5-13-42.1
		c-3,0.7-18.1,13.2-35.4,29.5c-15.2,14.3-32.8,32.1-36.4,39.3c-2.8,5.6-14,29.8-51.2,112.9c-1.2,2.6-1.9,4.2-2,4.4l-0.5,1.2
		l-1.3-0.4c-0.2-0.1-19.2-5.7-54-5.9c-32.6-0.2-45.2,6.8-46.5,7.5l-1.6,1l-0.7-1.7c-0.2-0.6-25-64.6-31-74c-1-1.5-2.9-4.5-5.3-8.3
		c-1.4-2.3-3.1-4.8-4.8-7.7c-25.1-40-40.6-63.9-44.8-69.1C268.7,24.6,252.1,9.7,249.4,9.7z"/>
</g>
<ellipse fill="#FCFCFA" cx="481" cy="334.2" rx="27.1" ry="32.9"/>
<path fill="#351A0E" d="M415.2,547c0,0,7.4-9.5,10.5-11.4s7.4,1.7,10.5-0.5c3.1-2.2,16.8-12.1,19.3-16.7c2.5-4.6,4-13.6,4-13.6
	s0.1-12.8-2.6-16.2c-2.8-3.5-16.6-10.4-19.8-10.5c-3.2-0.1-18.4,2.6-18.4,2.6s-16.2-4.3-21.1-3.1c-5,1.2-9.5,2.6-12.3,4.8
	c-2.8,2.3-8.2,6.6-9.7,10.5s0,16.6,1.4,18.9s7.1,12.3,7.1,12.3s8.4,8.3,11,9.7c2.6,1.3,11.3-0.4,13.2,2.6
	C410,539.5,415.2,547,415.2,547z"/>
<g>
	<ellipse fill="#FFFFFF" cx="362.8" cy="334.2" rx="56" ry="63.7"/>
	<g>
		<ellipse fill="#020202" cx="481.5" cy="335.7" rx="18.3" ry="19.3"/>
	</g>
</g>
<g>
	<ellipse fill="#020202" cx="362.8" cy="335.7" rx="24.6" ry="26"/>
</g>
</svg>
